ལས་བརྒྱ་ཐམ་པ། བམ་པོ་སུམ་ཅུ་བཞི་པ། དེ་ནས་ལྷའི་དབང་པོ་བརྒྱ་བྱིན་གྱིས། བཅོམ་ལྡན་འདས་ལས་ཞུ་བ་ལུང་བསྟན་པ་ཐོས་ནས། བཅོམ་ལྡན་འདས་ཀྱིས་བཀའ་སྩལ་
[81b]
[81b.1]པ་ལ་མངོན་པར་བསྟོད་ཅིང་རྗེས་སུ་ཡི་རངས་ནས། བཅོམ་ལྡན་འདས་ལ་ཞུ་བ་ཕྱི་མ་ཞུས་པ། བཙུན་པ་སེམས་ཅན་ཐམས་ཅད་འདོད་པ་གཅིག་པ་དང་། འདུན་པ་གཅིག་པ་དང་། དད་པ་གཅིག་པ་དང་། བསམ་པ་གཅིག་པ་ལགས་སམ། བཅོམ་ལྡན་འདས་ཀྱིས་བཀའ་སྩལ་པ། ཀཽ་
[81b.2]ཤི་ཀ་སེམས་ཅན་ཐམས་ཅད་ནི་འདོད་པ་གཅིག་པ་དང་། འདུན་པ་གཅིག་པ་དང་། དད་པ་གཅིག་པ་དང་། བསམ་པ་གཅིག་པ་མ་ཡིན་ནོ། །ཀཽ་ཤི་ཀ་འཇིག་རྟེན་འདི་དག་ནི་ཁམས་ཐ་དད་པ་ཡིན་གྱི། ཁམས་གཅིག་པ་མ་ཡིན་ཏེ། དེ་དག་ནི་ཁམས་གང་དང་གང་འཛིན་པ་དེ་དང་དེ་ནན་
[81b.3]གྱིས་མཆོག་ཏུ་འཛིན་ཅིང་། མངོན་པར་ཞེན་ནས་རྗེས་སུ་སྤྱོད་པར་བྱེད་དེ། འདི་ནི་བདེན་གྱི་གཞན་ནི་གཏི་མུག་པའོ་སྙམ་དུ་སེམས་སོ། །ཀཽ་ཤི་ཀ་གལ་ཏེ་འཇིག་རྟེན་འདི་དག་ཁམས་ཐ་དད་པ་དང་། ཁམས་དུ་མ་པ་ཡིན་དུ་ཟིན་ན་ནི། སེམས་ཅན་འདི་དག་ཁམས་གང་དང་གང་
[81b.4]འཛིན་པ་དེ་དང་དེ་ནན་གྱིས་མཆོག་ཏུ་འཛིན་ཅིང་། མངོན་པར་ཞེན་ནས། རྗེས་སུ་སྤྱོད་པར་བྱེད་དེ། འདི་ནི་བདེན་གྱི་གཞན་ནི་གཏི་མུག་པའོ་སྙམ་དུ་མི་སེམས་པ་ཞིག་ན་གང་གི་ཕྱིར་འཇིག་རྟེན་འདི་དག་ཁམས་ཐ་དད་པ་དང་། ཁམས་དུ་མ་པ་ཡིན་ཏེ། དེའི་ཕྱིར་སེམས་ཅན་འདི་དག་ཁམས་གང་
[81b.5]དང་གང་འཛིན་པ་དེ་དང་དེ་ནན་གྱིས་མཆོག་ཏུ་འཛིན་ཅིང་མངོན་པར་ཞེན་ནས། རྗེས་སུ་སྤྱོད་པར་བྱེད་དོ། །འདི་ནི་བདེན་གྱི་གཞན་ནི་གཏི་མུག་པའོ་སྙམ་དུ་སེམས་སོ། །ལྷའི་དབང་པོ་བརྒྱ་བྱིན་གྱིས་གསོལ་པ། བཙུན་པ་དེ་ནི་དེ་ལགས་སོ། །དེ་ནི་དེ་ལགས་ཏེ། སེམས་ཅན་ཐམས་ཅད་
[81b.6]ནི་འདོད་པ་གཅིག་པ་དང་། འདུན་པ་གཅིག་པ་དང་། དད་པ་གཅིག་པ་དང་། བསམ་པ་གཅིག་པ་མ་ལགས་ཏེ། བཙུན་པ་འཇིག་རྟེན་འདི་དག་ནི་ཁམས་ཐ་དད་པ་དང་། ཁམས་དུ་མ་པ་ལགས་ཏེ། དེ་དག་ཁམས་གང་དང་གང་འཛིན་པ་དེ་དང་དེ་ནན་གྱིས་མཆོག་ཏུ་འཛིན་ཅིང་མངོན་
[81b.7]པར་ཞེན་ནས། རྗེས་སུ་སྤྱོད་པར་བགྱིད་དོ། །འདི་ནི་བདེན་གྱི་གཞན་ནི་གཏི་མུག་པའོ་སྙམ་དུ་སེམས་ལགས་སོ། །བཅོམ་ལྡན་འདས་ཀྱིས་བཀའ་སྩལ་པའི་དོན་འདི་བདག་གིས་རྟོགས་ནས། སོམ་ཉི་ལས་བརྒལ་ཏེ། ཐེ་ཙོམ་དང་བྲལ་ལགས་སོ། །དེ་ནས་ལྷའི་དབང་པོ་བརྒྱ་བྱིན་
[82a]
[82a.1]གྱིས། བཅོམ་ལྡན་འདས་ལས་ཞུ་བ་ལུང་བསྟན་པ་ཐོས་ནས། བཅོམ་ལྡན་འདས་ཀྱིས་བཀའ་སྩལ་པ་ལ་མངོན་པར་བསྟོད་ཅིང་རྗེས་སུ་ཡི་རངས་ནས། བཅོམ་ལྡན་འདས་ལ་ཞུ་བ་ཕྱི་མ་ཞུས་པ། བཙུན་པ་ཅི་ལགས། དགེ་སྦྱོང་དང་བྲམ་ཟེ་ཐམས་ཅད་གཡུང་
[82a.2]དྲུང་གི་མཐར་ཐུག་པ་གྲུབ་པ་དང་། གཏན་དུ་དྲི་མ་དང་བྲལ་བ་དང་། གཏན་དུ་ཚངས་པར་སྤྱོད་པའི་མཐར་ཕྱིན་པ་ལགས་སམ། བཅོམ་ལྡན་འདས་ཀྱིས་བཀའ་སྩལ་པ། ཀཽ་ཤི་ཀ་དགེ་སྦྱོང་དང་བྲམ་ཟེ་ཐམས་ཅད་གཡུང་དྲུང་གི་མཐར་ཐུག་པ་དང་། གཏན་དུ་དྲི་མ་དང་བྲལ་བ་དང་།
[82a.3]གཏན་དུ་ཚངས་པར་སྤྱོད་པའི་མཐར་ཕྱིན་པ་མ་ཡིན་གྱིས། དགེ་སྦྱོང་ངམ། བྲམ་ཟེ་སུ་ཡང་རུང་སྟེ། བླ་ན་མེད་པའི་རྣམ་པར་གྲོལ་བ་ལ་སྲིད་པ་ཡང་དག་པར་ཟད་ཅིང་། ཡང་དག་པར་སེམས་ཤིན་ཏུ་རྣམ་པར་གྲོལ་བར་གྱུར་པ་དེ་དག་ནི་གཡུང་དྲུང་གི་མཐར་ཐུག་པ་དང་། གཏན་དུ་
[82a.4]དྲི་མ་དང་བྲལ་བ་དང་། གཏན་དུ་ཚངས་པར་སྤྱོད་པའི་མཐར་ཕྱིན་པ་ཡིན་ནོ། །ལྷའི་དབང་པོ་བརྒྱ་བྱིན་གྱིས་གསོལ་པ། བཙུན་པ་དེ་ནི་དེ་ལགས་སོ། །དེ་ནི་དེ་ལགས་ཏེ། དགེ་སྦྱོང་དང་། བྲམ་ཟེ་ཐམས་ཅད་གཡུང་དྲུང་གི་མཐར་ཐུག་པ་གྲུབ་པ་དང་། གཏན་དུ་དྲི་མ་དང་བྲལ་
[82a.5]བ་དང་། གཏན་དུ་ཚངས་པར་སྤྱོད་པའི་མཐར་ཐུག་པ་མ་ལགས་ཏེ། དགེ་སྦྱོང་ངམ། བྲམ་ཟེ་གང་ཡང་རུང་སྟེ། བླ་ན་མེད་པའི་རྣམ་པར་གྲོལ་བར་གྱུར་པ་ལས། སྲིད་པ་ཡང་དག་པར་ཟད་ཅིང་། ཡང་དག་པར་སེམས་ཤིན་ཏུ་རྣམ་པར་གྲོལ་བ་དེ་དག་ནི། གཡུང་དྲུང་གི་མཐར་
[82a.6]ཐུག་པ་དང་། གཏན་དུ་དྲི་མ་དང་བྲལ་བ་དང་། གཏན་དུ་ཚངས་པར་སྤྱོད་པའི་མཐར་ཕྱིན་པ་ལགས་སོ། །བཅོམ་ལྡན་འདས་ཀྱིས་བཀའ་སྩལ་པའི་དོན་འདི་བདག་གིས་རྟོགས་ཤིང་། ཆོས་བདག་གིས་རྟོགས་ནས། སོམ་ཉི་ལས་བརྒལ་ཏེ། ཐེ་ཙོམ་དང་བྲལ་ཞིང་ཟུག་རྔུ་ཕྱུང་
[82a.7]ནས། ཡོངས་སུ་ཡི་ཆད་པ་མ་མཆིས་པའི་སླད་དུ། བདག་གིས་བདག་གང་ལགས་སྙམ་དུ་བདག་གི་ཡིད་ལ་ཕྱིར་སྐྱེ་བར་མི་འགྱུར་ལགས་སོ། །བཙུན་པ་ཞུ་བ་ལུང་བསྟན་པ་ཁྱད་པར་རྟོགས་པ་གང་དག་བདག་གིས་མ་ཐོབ་པ་ལས། ད་ནི་བདག་གིས་ཡུན་རིང་པོ་ཞིག་
[82b]
[82b.1]ལགས་ན། བཅོམ་ལྡན་འདས་ལ་བརྟེན་ཏེ། འདི་ལྟར་དེ་བཞིན་གཤེགས་པ་དགྲ་བཅོམ་པ་ཡང་དག་པར་རྫོགས་པའི་སངས་རྒྱས་ཀྱིས་བཀའ་སྩལ་ནས། སོམ་ཉི་དང་ཡིད་གཉིས་ཀྱི་ཟུག་རྔུ་རྩ་བ་ནས་བཏོན་ལགས་སོ། །བཅོམ་ལྡན་འདས་ཀྱིས་བཀའ་སྩལ་པ། ཀཽ་ཤི་ཀ་
[82b.2]སྔོན་ཅད་དགེ་སྦྱོང་དང་། བྲམ་ཟེ་གཞན་དག་ལ་ཡང་དྲི་བ་འདི་ལྟ་བུ་དྲིས་པ་དྲན་ནམ། ལྷའི་དབང་པོ་བརྒྱ་བྱིན་གྱིས་གསོལ་པ། བཙུན་པ་གློ་བ་ལ་དྲན་པ་ལགས་ཏེ། དུས་གཅིག་ཅིག་ན་སུམ་ཅུ་རྩ་གསུམ་པའི་ལྷའི་འདུན་ས་ཆོས་བཟང་དུ་ལྷ་རྣམས་འདུས་ཤིང་འཁོད་པར་གྱུར་ཏེ། འདི་
[82b.3]ལྟར་དེ་བཞིན་གཤེགས་པ་དགྲ་བཅོམ་པ་ཡང་དག་པར་རྫོགས་པའི་སངས་རྒྱས་ཚོལ་ཞིང་མཆིས་པ་ལས། དེ་དག་གིས་དེ་བཞིན་གཤེགས་པ་དགྲ་བཅོམ་པ་ཡང་དག་པར་རྫོགས་པའི་སངས་རྒྱས་མ་རྙེད་ནས། སྟན་ལས་ལངས་ཏེ། སོ་སོར་གྱེས་པ་དེ་དག་གི་ནང་ནས། ལྷ་
[82b.4]ཆེ་བར་གྲགས་སོ་འཚལ་གནས་ནས་ཤི་འཕོས་ཤིང་མི་སྣང་བར་གྱུར་ནས། བཙུན་པ་ལྷ་ཆེ་བར་གྲགས་སོ་འཚལ་གནས་ནས་ཤི་འཕོས་པས་བདག་ཀྱང་སྐྲག་ཅིང་བག་ཚ་བར་གྱུར་ཏེ། བདག་ཀྱང་གནས་འདི་ནས་ཤི་འཕོས་པར་མི་འགྱུར་གྲང་སྙམ་ནས། བདག་དགེ་སྦྱོང་དང་། བྲམ་ཟེ་
[82b.5]གཅིག་པུ་དབེན་པར་གནས་པས་གནས་ཤིང་མཆིས་པ། གང་དང་གང་མཐོང་བ་དེ་དང་དེ་དག་དེ་བཞིན་གཤེགས་པ་དགྲ་བཅོམ་པ་ཡང་དག་པར་རྫོགས་པའི་སངས་རྒྱས་ལགས་སྙམ་ནས། དེ་དག་གི་ཐད་དུ་མཆིས་ན། དེ་དག་གིས་བདག་ལ་ཁྱོད་སུ་ཡིན་ཞེས་འདྲི་བར་བགྱིད་དེ།
[82b.6]བདག་གིས་དེ་དག་ལ་བདག་ནི་ལྷའི་དབང་པོ་བརྒྱ་བྱིན་ཡིན་ནོ་ཞེས་བགྱིས་ནས། དེ་དག་དགའ་ཞིང་མགུ་སྟེ། ཀྱེ་མ་བདག་གིས་བརྒྱ་བྱིན་མཐོང་ངོ་ཞེས་ཆེད་དུ་བརྗོད་པ་ཆེད་དུ་རྗོད་པར་བགྱིད་དེ། དེ་དག་བདག་ལ་འདྲི་བར་བགྱིད་ཀྱིས། དེ་དག་ལ་བདག་འདྲི་བར་མི་བགྱིད་ལགས་
[82b.7]སོ། །དེ་དག་བདག་ལ་སྐྱབས་སུ་མཆི་བར་བགྱིད་ཀྱིས། བདག་དེ་དག་ལ་སྐྱབས་སུ་མཆི་བར་མི་བགྱིད་ལགས་སོ། །ད་སླན་ཅད་བདག་ནི་བཅོམ་ལྡན་འདས་ཀྱི་ཉན་ཐོས་ལགས་ཏེ། བཅོམ་ལྡན་འདས་ལ་སྐྱབས་སུ་མཆིས་ལགས་སོ། །རྟོགས་པ་ལ་ནི་མཐའ་མ་མཆིས། །བདག་
[83a]
[83a.1]ལ་ཐེ་ཙོམ་ནེམ་ནུར་མཆིས། །དེ་བཞིན་གཤེགས་པ་ཚོལ་བའི་ཕྱིར། །རིང་པོ་ཞིག་ཏུ་འཁྱམ་འཁྱམ་སྟེ། །ལོང་བ་བདག་ནི་རྫོགས་སངས་རྒྱས། །བསྙེན་བཀུར་བགྱིད་དུ་མཆིས་མཆི་ན། །བདག་གིས་ཇི་ལྟར་མཉེས་པའི་ཐབས། །དེ་དག་ལ་ནི་དྲིས་པ་ལས། །ལམ་
[83a.2]དང་དེ་བཞིན་བསྒྲུབ་པ་ཡང་། །དེ་དག་ཡང་གི་གཏམ་མ་འཚལ། །བདག་ནི་ཅུང་ཟད་ཅི་འདོད་པ། །རྟོག་པར་གྱུར་དང་དཔྱད་པ་དང་། །ཡིད་ཀྱི་འགྲོ་དང་འོང་བ་ཡིས། །སེམས་ནི་ཐུགས་ཀྱིས་ཐུགས་སུ་ཆུད། །ཡིད་ཀྱང་ཡིད་ཀྱིས་རིག་གྱུར་ནས། །དེ་དག་ཐམས་ཅད་དེ་རིང་དུ། །
[83a.3]བཅོམ་ལྡན་འདས་ནི་དགྲ་བཅོམ་གྱིས། །བསྒྲགས་ཤིང་ལུང་ཡང་བསྟན་པར་གྱུར། །ཁྱོད་ནི་སངས་རྒྱས་སྟོན་པ་ཁྱོད། །རྒྱལ་བ་ཁྱོད་ཀྱིས་བདུད་ཀྱང་བཏུལ། །ཁྱོད་ཀྱིས་བག་ཉལ་བཅད་ནས་ཀྱང་། །རྒལ་ནས་སྐྱེ་དགུ་སྒྲོལ་བར་མཛད། །འཇིག་རྟེན་དུ་ནི་ཁྱོད་སངས་རྒྱས། །ཁྱོད་
[83a.4]ལས་ལྷག་པ་ཡང་མ་མཆིས། །ལྷ་དང་བཅས་པའི་འཇིག་རྟེན་ན། །གང་ཟག་ཁྱོད་ཀྱི་ཟླ་མ་མཆིས། །དཔའ་བོ་ཆེན་པོ་ཁྱོད་ལ་འདུད། །སྐྱེས་མཆོག་ཁྱོད་ལ་ཕྱག་འཚལ་ལོ། །སྲིད་པའི་ཟུག་རྔུ་འབྱིན་པ་སྟེ། །ཉི་མའི་རིགས་སྐྱེས་ཁྱོད་ལ་འདུད། །བཅོམ་ལྡན་འདས་ཀྱིས་བཀའ་
[83a.5]སྩལ་པ། ཀཽ་ཤི་ཀ་ཁྱོད་ཀྱིས་སྔོན་ཆད་བདེན་པ་ཐོབ་པ་དང་། ཡིད་བདེ་བ་ཐོབ་པ་འདི་ལྟ་བུ་ཉམས་སུ་མྱོང་བར་དྲན་ནམ། བརྒྱ་བྱིན་གྱིས་གསོལ་པ། ཡིད་བདེ་བ་ཐོབ་པ་ནི་བདག་གིས་མྱོང་བར་དྲན་ལགས་སོ། །བདེན་པ་ཐོབ་པ་ནི་ཉམས་སུ་མྱོང་བ་མི་དྲན་ལགས་སོ། །བཙུན་པ་ལན་
[83a.6]གཅིག་ཅིག་ན། ལྷ་དང་ལྷ་མ་ཡིན་གཡུལ་འགྱེད་པ་ན། ལྷ་རྣམས་ནི་རྒྱལ། ལྷ་མ་ཡིན་རྣམས་ནི་ཕམ་ནས། བདག་གིས་འདི་སྙམ་དུ་སེམས་ཏེ། ད་ནི་བདག་ལྷའི་གྲོང་ཁྱེར་དུ་མཆིས་ལ། ལྷའི་ལོངས་སྤྱོད་གང་ལགས་པ་དང་། ལྷ་མ་ཡིན་གྱི་ལོངས་སྤྱོད་གང་ལགས་པ་དེ་དག་
[83a.7]ལྷན་ཅིག་ཏུ་ཚོགས་པ་དགའ་བཞིན་དུ་ལོངས་སྤྱོད་པར་བགྱིའོ། །སྙམ་པ་དེ་ནི་ཡིད་བདེ་བ་ཐོབ་པ་ལགས་ཏེ། དེ་ནི་ཡུན་རིང་པོར་འཐབ་མོའི་མཐའ་ཅན་ལགས། མཚང་འདྲུ་བའི་མཐའ་ཅན་ལགས། འགྱེད་པའི་མཐའ་ཅན་ལགས། རྩོད་པའི་མཐའ་ཅན་ལགས་སོ། །བཙུན་
[83b]
[83b.1]པ་བདག་གིས་ཡིད་བདེ་བ་ཐོབ་པ་དང་། བདེན་པ་མཐོང་བ་འདི་ནི་ཡུན་རིང་པོར་འཐབ་མོ་མ་མཆིས་པའི་མཐའ་ཅན་ལགས། མཚང་འདྲུ་བ་མ་མཆིས་པའི་མཐའ་ཅན་ལགས། འགྱེད་པ་མ་མཆིས་པའི་མཐའ་ཅན་ལགས། རྩོད་པ་མ་མཆིས་པའི་མཐའ་ཅན་ལགས་སོ། །བཙུན་
[83b.2]པ་བཅོམ་ལྡན་འདས་ཀྱིས་བདག་ཆོས་ཀྱི་རྗེས་སུ་འགྲོ་བའི་བཀའ་དྲིན་སྩལ་བ་གང་ལགས་པ་དེ་ལ་བདག་འདི་སྙམ་བགྱིད་དེ། བདག་གནས་འདི་ནས་ཤི་འཕོས་ནས་མི་རྣམས་དང་སྐལ་བ་མཉམ་པར་ཕྱུག་ཅིང་ནོར་མང་ལ་ལོངས་སྤྱོད་ཆེ་བ་དང་། རྫས་དང་ཡོ་བྱད་མང་བ་དང་། བདོག་
[83b.3]པ་མང་བ་དང་། ནོར་དང་། འབྲུ་དང་། གསེར་དང་། དངུལ་དང་། མཛོད་དང་། བང་བའི་ཚོགས་མང་བའི་རིགས་གང་ལགས་པ་དང་། མཛའ་བོ་དང་། གྲོགས་པོ་དང་། ཕུ་ནུ་དང་། ཉེ་དུ་མང་བ་དང་། བྲན་ཕོ་དང་། བྲན་མོ་དང་། ལས་བྱེད་པ་དང་། ཞོ་ཤས་འཚོ་བ་མང་བ་དེ་ལྟ་བུའི་ཁྱིམ་དུ་
[83b.4]སྐལ་བ་མཉམ་པར་སྐྱེ་བར་གྱུར་ཅིག །དེ་ནས་བདག་མཐར་གྱིས་སྐྱེས་ཏེ། དབང་པོ་རྣམས་སྨིན་ནས། སྦྱིན་བདག་བྱིན་ཞིང་བསོད་ནམས་དག་བགྱིད་ནས། སྐྲ་དང་ཁ་སྤུ་བྲེགས་ཏེ། ཆོས་གོས་ཚོན་ཅན་བགོས་ནས་ཡང་དག་པའི་དད་པས་ཁྱིམ་ནས་ཁྱིམ་མེད་པར་རབ་ཏུ་བྱུང་སྟེ།
[83b.5]བཙུན་པ་བདག་འོས་པར་གནས་ཤིང་། གལ་ཏེ་བཀའ་ལུང་ཐོབ་ན་བཀའ་ལུང་བཞིན་བགྱིད་པར་གྱུར་ཅིག །དེ་ལྟར་བདག་འོས་པར་གནས་ན། སྡུག་བསྔལ་གྱི་མཐར་ཐུག་པ་ནི་དེ་ལགས་སོ་སྙམ་བགྱིད་དོ། །གལ་ཏེ་བཀའ་ལུང་མ་ཐོབ་ན་ནི་དེ་ལྟར་ན་བདག་གཟུགས་མཆིས་པའི་
[83b.6]ལྷའི་ལུས་སྐྱེས་པ། དབང་པོ་མ་ཉམས་ཤིང་དབང་པོ་ཚང་བ་ཡན་ལག་དང་ཉིང་ལག་ཐམས་ཅད་དང་ལྡན་པ། མདོག་བཟང་བ། རང་ལ་འོད་མཆིས་པ། ནམ་མཁའ་ལ་འགྲོ་བ། དགའ་བའི་ཟས་ཟ་བ། དགའ་བའི་ཟས་དང་ལྡན་པ། ཚེ་རིང་བ་ཡུན་རིང་དུ་གནས་པ་དེར། བདག་
[83b.7]འགྲན་ཟླ་མ་མཆིས་པར་སྐྱེ་བར་ཤོག་ཤིག་སྙམ་བགྱིད་དོ། །ལྷ་ལུས་འདི་ལས་ཤི་འཕོས་ཤིང་། །མི་མ་ཡིན་པའི་ཚེ་སྤངས་ནས། །རྨོངས་པ་མེད་པར་མངལ་དུ་འཇུག །བདག་གི་ཡིད་ནི་སྡོམ་ལ་དགའ། །མན་ངག་གིས་ནི་ཕོངས་མི་འགྱུར། །བསྟན་པའི་ལམ་ལ་རྟེན་
[84a]
[84a.1]བཅས་ཤིང་། །ཚངས་པར་སྤྱོད་ལ་གཞོལ་བགྱིས་ནས། །བསོད་སྙོམས་རྒྱུ་བ་སྤྱད་པར་བགྱི། །བདག་ནི་འོས་པར་གནས་ནས་ཀྱང་། །གལ་ཏེ་བཀའ་ལུང་ཐོབ་གྱུར་ན། །བཀའ་ལུང་སྩལ་བ་བཞིན་དུ་བགྱི། །དེ་ཉིད་བདག་གི་སྡུག་བསྔལ་མཐའ། །གལ་ཏེ་
[84a.2]དེ་ལྟར་མ་གྱུར་ནས། །ཚེ་ཡི་མཐའ་ནི་ཟད་པའི་ཚེ། །འོག་མིན་ལྷ་ནི་གང་ཡིན་པ། །དེ་དག་ཏུ་ནི་སྐྱེ་བར་ཤོག །བཅོམ་ལྡན་འདས་བདག་ནི་རྒྱུན་དུ་ཞུགས་པ་ལགས་སོ། །བདེ་བར་གཤེགས་པ་བདག་ནི་རྒྱུན་དུ་ཞུགས་པ་ལགས་སོ། །ལན་ཅིག་ཕྱིར་འོང་བར་འགྱུར་བའི་རེ་བ་
[84a.3]ཡང་བདག་ལ་མཆིས་ལགས་སོ། །བཅོམ་ལྡན་འདས་ཀྱིས་བཀའ་སྩལ་པ། ཀཽ་ཤི་ཀ་ལེགས་སོ་ལེགས་སོ། །དེའི་སྐལ་བ་ཁྱོད་ལ་ཡོད་དེ། དེ་ཡང་བག་ཡོད་པས་འཐོབ་བོ། །བརྒྱ་བྱིན་གྱིས་གསོལ་པ། གང་གིས་བདག་ནི་ཞི་འགྱུར་ལ། །རྒྱུན་དུ་ཞུགས་པར་ངེས་
[84a.4]འབྱུང་བ། །བཅོམ་ལྡན་ཁྱོད་ལས་གཞན་ལ་མེད། །ཁྱོད་ཀྱི་བསྟན་ལས་གཞན་ལ་མེད། །ཁྱད་པར་རྒྱ་ཆེན་དང་པོའི་གཞི། །གཞན་དག་ལྟ་ལ་ག་ལ་མཆིས། །ཁྱད་པར་ཐོབ་པ་ཅི་འདྲ་བ། །སྔོན་ཆད་གཞན་ལས་ཡོང་མ་ཐོབ། །བཙུན་པ་བདག་ནི་འདི་ཉིད་ན། །མཆིས་
[84a.5]ཤིང་ལྷ་ལུས་བགྱིད་བཞིན་དུ། །བདག་གིས་ཚེ་རིང་ཐོབ་ལགས་ཀྱིས། །བློ་ལྡན་དེ་ལྟར་གཟུང་དུ་གསོལ། །ཆོས་ཀྱི་རྣམ་གྲངས་འདི་བཤད་པ་ན། ལྷའི་དབང་པོ་བརྒྱ་བྱིན་དང་། ལྷ་བརྒྱད་ཁྲི་ཆོས་རྣམས་ལ་ཆོས་ཀྱི་མིག་རྡུལ་མེད་ཅིང་དྲི་མ་དང་བྲལ་བ་སྐྱེས་ཏེ། དེས་བདེན་
[84a.6]པ་མཐོང་ནས། སྟན་དེ་ཁོ་ན་ལས་ཤི་འཕོས་ནས། སྟན་དེ་ཁོ་ན་ཉིད་ལ་ཕྱིར་སྐྱེས་སོ། །དེ་ལྟར་དེ་ཤི་འཕོས་པ་དང་། སྐྱེས་པ་ནི་མིག་མི་འཛུམས་པ་དང་། མི་སྣང་བར་གྱུར་པ་དང་། ལུས་ཀྱི་རེག་པའི་སྒོ་ནས་བཅོམ་ལྡན་འདས་ཀྱིས་མཁྱེན་ཏོ། །ལྷའི་དབང་པོ་བརྒྱ་བྱིན་དང་། ལྷ་མ་
[84a.7]ཡིན་གྱི་བུ་མོ་བདེ་སོགས་ཀྱིས་ཀྱང་རྟོགས་སོ། །དེ་ནས་ལྷ་མ་ཡིན་གྱི་བུ་མོ་བདེ་སོགས་ཀྱིས། ལྷའི་དབང་པོ་བརྒྱ་བྱིན་ལ་སྨྲས་པ། ཀཽ་ཤི་ཀ་ཁྱོད་ཤི་འཕོས་ནས། སྐྱེས་ལགས་སམ། བརྒྱ་བྱིན་གྱིས་སྨྲས་པ། བདེ་སོགས་ང་ཤི་འཕོས་ནས་ཕྱིར་སྐྱེས་ཏེ། འདི་ན་འདུག་བཞིན་དུ་
[84b]
[84b.1]ཕྱིར་བདག་གི་ཚེ་ཐོབ་པར་གྱུར་ཏོ། །དེ་ནས་ལྷའི་དབང་པོ་བརྒྱ་བྱིན་གྱིས་བདེན་པ་མཐོང་ནས་དགའ་ཞིང་མགུ་ལ་རབ་ཏུ་དགའ་ཞིང་ཡི་རངས་ཏེ། དགའ་བ་དང་། ཡིད་བདེ་བ་སྐྱེས་ནས་སྟན་ལས་ལངས་ཏེ། བླ་གོས་ཕྲག་པ་གཅིག་ཏུ་གཟར་ནས། བཅོམ་ལྡན་འདས་ག་ལ་བ་དེ་ལོགས་སུ་
[84b.2]ཐལ་མོ་སྦྱར་བ་བཏུད་དེ། བཅོམ་ལྡན་འདས་ལ་འདི་སྐད་ཅེས་གསོལ་ཏོ། །བཙུན་པ་བདག་ནི་འཕགས་ལགས་སོ། །འཕགས་ལགས་སོ། །དེང་སླན་ཅད་ཇི་སྲིད་འཚོའི་བར་དུ་དགེ་བསྙེན་ལགས་པ་དང་། ཁོང་ནས་དགའ་སྟེ་སྐྱབས་སུ་མཆིས་ལགས་པར་གཟུང་དུ་གསོལ། དེ་ནས་
[84b.3]ལྷའི་དབང་པོ་བརྒྱ་བྱིན་གྱིས་དྲི་ཟའི་བུ་གཙུག་ཕུད་ལྔ་པ་ལ་སྨྲས་པ། བུ་ཁྱོད་ནི་བདག་ལ་ཕན་པ་དང་བདེ་བ་ཡིན་ཏེ། བཅོམ་ལྡན་འདས་ཀྱི་ཐད་དུ་འགྲོ་བར་ཐོག་མ་ཁྱོད་ཀྱིས་བསྐུལ་ཏོ། །བུ་ཟུར་ཕུད་ལྔ་པ་བདག་ཅག་འདི་ནས་སུམ་ཅུ་རྩ་གསུམ་པའི་ལྷའི་ཡུལ་དུ་དོང་ནས། ཁྱོད་ཀྱིས་སྔོན་ཡུན་
[84b.4]རིང་པོ་ནས་འདོད་ཅིང་སྨོན་པ་གང་ཡིན་པའི་དྲི་ཟའི་རྒྱལ་པོ་དུམ་བུ་རུའི་བུ་མོ་བཟང་མོ་ཞེས་བྱ་བ་འོད་བཟངས་དེ། ཁྱོད་ཀྱི་ཆུང་མར་སྦྱིན་ནོ། །དྲི་ཟ་རྣམས་ཀྱི་དབང་པོ་ཁྱོད་ཀྱི་ཕའི་རྒྱལ་སར་ཡང་གཞུག་གོ། །དེ་ནས་ལྷའི་དབང་པོ་བརྒྱ་བྱིན་གྱིས། སུམ་ཅུ་རྩ་གསུམ་པའི་ལྷ་རྣམས་ལ་སྨྲས་པ། གྲོགས་
[84b.5]པོ་དག་བདག་གིས་སྔོན་ཅད་མི་མཇེད་ཀྱི་བདག་པོ་ཚངས་པ་ལ། དུས་གསུམ་དུ་ཚངས་པ་ལ་འོས་པའི་འདུད་པ་བྱེད་པ་གང་ཡིན་པ་དེ་ནི། བདག་གིས་ད་ཕྱིན་ཅད་བཅོམ་ལྡན་འདས་འདི་ཉིད་ལ་ཚངས་པ་ལ་འོས་པའི་འདུད་པས་འདུད་པར་བྱའོ། །དེ་ཅིའི་ཕྱིར་ཞེ་ན། འདི་ལྟར་བཅོམ་ལྡན་འདས་འདི་
[84b.6]ཉིད་ཚངས་པ་ཡིན། ཚངས་པར་གྱུར་པ་ཡིན། ཞི་བ་ཡིན། ཞི་བར་གྱུར་པ་ཡིན་པའི་ཕྱིར་རོ། །དེ་ནས་ལྷའི་དབང་པོ་བརྒྱ་བྱིན་དང་། ལྷ་གཞན་རྣམས་བཅོམ་ལྡན་འདས་ཀྱི་ཞབས་ལ་མགོ་བོས་ཕྱག་འཚལ་ནས། བཅོམ་ལྡན་འདས་ལ་ལན་གསུམ་བསྐོར་བ་བྱས་ཏེ། མདུན་གྱིས་ཕྱོགས་ཤིང་
[84b.7]ཕྱིར་ནུར་ནས། བཅོམ་ལྡན་འདས་ལ་འདུད་བཞིན་དུ། ལྷའི་དབང་པོ་བརྒྱ་བྱིན་གྱིས་མིག་ལམ་དུ་མི་སྣང་བར་གྱུར་པའི་ས་ནས། བླ་གོས་ཕྲག་པ་གཅིག་ཏུ་གཟར་ཏེ། བཅོམ་ལྡན་འདས་ག་ལ་བ་དེ་ལོགས་སུ་ཐལ་མོ་སྦྱར་བ་བཏུད་ནས། པུས་མོ་གཡས་པའི་ལྷ་ང་ས་ལ་བཙུགས་ཏེ།
[85a]
[85a.1]བཅོམ་ལྡན་འདས་དེ་བཞིན་གཤེགས་པ་དགྲ་བཅོམ་པ་ཡང་དག་པར་རྫོགས་པའི་སངས་རྒྱས་དེ་ལ་ཕྱག་འཚལ་ལོ་ཕྱག་འཚལ་ལོ་ཞེས་སྨྲས་ནས། ལྷའི་དབང་པོ་བརྒྱ་བྱིན་དེ་ཉིད་དུ་མི་སྣང་བར་གྱུར་ཏོ། །དེ་ནས་དགེ་སློང་རྣམས་ཀྱིས་སངས་རྒྱས་བཅོམ་ལྡན་འདས་ལ་ཞུས་
[85a.2]པ། བཙུན་པ་ལྷའི་དབང་པོ་བརྒྱ་བྱིན་གྱིས་ལས་ཅི་བགྱིས་ན། ལས་དེའི་རྣམ་པར་སྨིན་པས། རྫུ་འཕྲུལ་ཆེ་ཞིང་མཐུ་ཆེ་བར་གྱུར་ལ། འདིས་བཅོམ་ལྡན་འདས་མཉེས་པར་བགྱིས་ཏེ། མི་མཉེས་པར་མ་བགྱིས་ལགས། བཅོམ་ལྡན་འདས་ལྷ་བརྒྱད་ཁྲི་བོ་འདི་རྣམས་ཀྱིས་ཀྱང་ལས་
[85a.3]ཅི་བགྱིས་ན། ལས་དེའི་རྣམ་པར་སྨིན་པས་བརྒྱ་བྱིན་འདི་ཁོ་ན་ལས་བརྟེན་ནས། འདི་རྣམས་ཀྱིས་བཅོམ་ལྡན་འདས་མཉེས་པར་བགྱིས་ཏེ། མི་མཉེས་པར་མ་བགྱིས་ལགས། བཅོམ་ལྡན་འདས་ཀྱིས་བཀའ་སྩལ་པ། སྨོན་ལམ་གྱི་དབང་ལས་གྱུར་ཏོ། །གསོལ་པ་འདི་རྣམས་ཀྱིས་
[85a.4]སྨོན་ལམ་གང་དུ་བཏབ་ལགས། བཀའ་སྩལ་པ། དགེ་སློང་དག་སྔོན་བྱུང་བ་འདས་པའི་དུས་ན། བསྐལ་པ་བཟང་པོ་འདི་ཉིད་ལ་སྐྱེ་དགུའི་ཚེ་ལོ་བཞི་ཁྲི་ཐུབ་པ་ན། ཡང་དག་པར་རྫོགས་པའི་སངས་རྒྱས་རིག་པ་དང་ཞབས་སུ་ལྡན་པ། བདེ་བར་གཤེགས་པ། འཇིག་རྟེན་མཁྱེན་
[85a.5]པ། སྐྱེས་བུ་འདུལ་བའི་ཁ་ལོ་སྒྱུར་བ། བླ་ན་མེད་པ། ལྷ་དང་མི་རྣམས་ཀྱི་སྟོན་པ། སངས་རྒྱས་བཅོམ་ལྡན་འདས་འཁོར་བ་འཇིག་ཅེས་བྱ་བ་འཇིག་རྟེན་དུ་བྱུང་སྟེ། དེས་གང་གི་ཚེ་བླ་ན་མེད་པའི་ཡེ་ཤེས་བརྙེས་ནས། རྒྱལ་པོའི་ཕོ་བྲང་མཛེས་ལྡན་དུ་གཤེགས་པ་དེའི་
[85a.6]ཚེ། ཡང་དག་པར་རྫོགས་པའི་སངས་རྒྱས་འཁོར་བ་འཇིག་གི་ཕྱིར་རྒྱལ་པོ་མཛེས་པས། གཙུག་ལག་ཁང་ལྔ་བརྒྱ་བརྩིགས་ཏེ། གནས་ཁང་དྲུག་སྟོང་བྱས་ནས་ཡང་དག་པར་རྫོགས་པའི་སངས་རྒྱས་འཁོར་བ་འཇིག་ཉན་ཐོས་ཀྱི་དགེ་འདུན་དང་བཅས་པ་ལ་ཕུལ་ཏེ། གཙུག་
[85a.7]ལག་ཁང་དེ་དག་ཏུ་ཡོ་བྱད་ཐམས་ཅད་སྦྱར་ནས། འཁོར་བརྒྱད་ཁྲི་དང་བཅས་པས། ཡང་དག་པར་རྫོགས་པའི་སངས་རྒྱས་འཁོར་བ་འཇིག་ཉན་ཐོས་ཀྱི་དགེ་འདུན་དང་བཅས་པ་ལ། མཆོད་པའི་ལས་ལ་བརྩོན་པར་གྱུར་ཏོ། །དེ་ནས་གང་གི་ཚེ་ཡང་དག་པར་རྫོགས་པའི་སངས་རྒྱས་
[85b]
[85b.1]འཁོར་བ་འཇིག་སངས་རྒྱས་ཀྱི་འཕྲིན་ལས་ཐམས་ཅད་མཛད་ནས། ཕུང་པོ་ལྷག་མ་མེད་པའི་མྱ་ངན་ལས་འདས་པའི་དབྱིངས་སུ་མྱ་ངན་ལས་འདས་པ་དེའི་ཚེ། རྒྱལ་པོ་མཛེས་པས་དེའི་སྐུ་གདུང་ལ་མཆོད་པ་བྱས་ནས། སྐུ་གདུང་གི་མཆོད་རྟེན་བརྩིགས་ཏེ། རྣམ་པ་ཐམས་ཅད་
[85b.2]ཡོངས་སུ་རྫོགས་པར་བྱས་ནས། མཆོད་རྟེན་དེ་ལ་མཆོད་པ་ཆེན་པོ་བྱས་ཏེ། སྨོན་ལམ་བཏབ་པ། ཀྱེ་མ་དགེ་བའི་རྩ་བ་འདིས། བདག་གང་དང་གང་དུ་སྐྱེ་བརའགྱུར་བ་དེ་དང་དེར་གལ་ཏེ། ལྷར་སྐྱེ་བར་གྱུར་ན་ནི། ལྷ་ཆེ་བར་གྲགས་པ། ལྷ་རྣམས་ཀྱི་མངའ་བདག་ཏུ་གྱུར་
[85b.3]ཅིག །གལ་ཏེ་མིར་སྐྱེ་བར་གྱུར་ན་ནི་མི་ཆེ་བར་གྲགས་པ་མི་རྣམས་ཀྱི་ནང་ནས་རྒྱལ་སྲིད་ཀྱི་མངའ་བདག་ཏུ་གྱུར་ཅིག་ཅེས་བྱས་སོ། །དེ་ནས་རྒྱལ་པོས་སྨོན་ལམ་འདེབས་པ་ཞམ་རིང་བ་རྣམས་ཀྱིས་མཐོང་ནས་དྲིས་པ། ལྷས་སྨོན་ལམ་ཅི་ཞིག་བཏབ་ལགས། དེ་ནས་དེས་དེ་དག་ལ་
[85b.4]རྒྱས་པར་བསྙད་ནས། དེ་ཐོས་མ་ཐག་ཏུ་དེ་དག་གིས་ཀྱང་མཆོད་རྟེན་དེ་ལ་བཀུར་སྟི་བྱས་ནས། སྨོན་ལམ་བཏབ་པ། ཀྱེ་མ་དགེ་བའི་རྩ་བ་འདིས་ན། བདག་ཅག་གང་དང་གང་དུ་སྐྱེ་བར་འགྱུར་བ་དེ་དང་དེར་ཕྱུག་ཅིང་། ནོར་མང་ལ་ལོངས་སྤྱོད་ཆེ་བའི་རིགས་སུ་སྐྱེ་བར་ཤོག་
[85b.5]ཤིག །རྒྱལ་པོ་འདི་ཁོ་ན་ལ་བརྟེན་ནས། བདག་ཅག་གིས་སྟོན་པ་འདི་ལྟ་བུ་མཉེས་པར་བྱེད་པར་གྱུར་ཅིག །མི་མཉེས་པར་བྱེད་པར་མ་གྱུར་ཅིག་ཅེས་བྱས་སོ། །དགེ་སློང་དག་ཇི་སྙམ་དུ་སེམས། དེའི་ཚེ་རྒྱལ་པོ་མཛེས་པར་གྱུར་པ་གང་ཡིན་པ་དེ་ནི། ལྷའི་དབང་པོ་བརྒྱ་བྱིན་འདི་ཁོ་ན་
[85b.6]ཡིན་ཏེ། དེས་དེར་ཡང་དག་པར་རྫོགས་པའི་སངས་རྒྱས་འཁོར་བ་འཇིག་ཉན་ཐོས་ཀྱི་དགེ་འདུན་དང་བཅས་པ་ལ་བསྙེན་བཀུར་བྱས་ནས། སྨོན་ལམ་བཏབ་པའི་ལས་དེའི་རྣམ་པར་སྨིན་པས། ཆེད་འགའ་མིར་སྐྱེས་པའི་ཚེ་ནི་ལྷ་ཆེ་བར་གྲགས་པར་གྱུར་ཏེ། ལྷ་རྣམས་ཀྱི་མངའ་བདག་བྱས་སོ། །
[85b.7]ཆེད་འགའ་མིར་སྐྱེས་པའི་ཚེ་ནི། མི་ཆེ་བར་གྲགས་པར་གྱུར་ནས། མི་རྣམས་ཀྱི་རྒྱལ་སྲིད་ཀྱི་མངའ་བདག་བྱས་ཏེ། དགེ་སློང་དག་ང་ཡང་དག་པར་རྫོགས་པའི་སངས་རྒྱས་འཁོར་བ་འཇིག་དང་ཤིན་ཏུ་མཉམ་པ་དང་། ཤུགས་མཉམ་པ་དང་། མཛད་པ་མཉམ་པ་དང་། ཐབས་མཉམ་
[86a]
[86a.1]པ་བརྙེས་པར་གྱུར་ནས། འདིས་ང་མཉེས་པར་བྱས་ཏེ། མི་མཉེས་པར་མ་བྱས་སོ། །དེའི་ཚེ་ཞམ་རིང་བ་བརྒྱད་ཁྲིར་གྱུར་པ་གང་ཡིན་པ་དེ་དག་ནི། ལྷ་བརྒྱད་ཁྲི་པོ་འདི་དག་ཁོ་ན་ཡིན་ཏེ། དེ་དག་གིས་ཡང་དག་པར་རྫོགས་པའི་སངས་རྒྱས་འཁོར་བ་འཇིག་ཉན་ཐོས་
[86a.2]ཀྱི་དགེ་འདུན་དང་བཅས་པ་ལ་བསྙེན་བཀུར་བྱས་ནས། སྨོན་ལམ་བཏབ་པའི་ལས་དེའི་རྣམ་པར་སྨིན་པས་གང་དང་གང་དུ་སྐྱེས་པ་དེ་དང་དེར། ཕྱུག་ཅིང་ནོར་མང་ལ་ལོངས་སྤྱོད་ཆེ་བའི་རིགས་སུ་སྐྱེས་ཏེ། བརྒྱ་བྱིན་འདི་ཁོ་ན་ལ་བརྟེན་ནས་འདི་རྣམས་ཀྱིས་ང་མཉེས་པར་བྱས་ཏེ། མི་མཉེས་
[86a.3]པར་མ་བྱས་སོ།། །།