
[91a]
[91a.1]ལས་བརྒྱ་ཐམ་པ། བམ་པོ་བརྒྱད་པ། འཇིགས་མེད་ཅེས་བྱ་བ་ནི། བཅོམ་ལྡན་འདས་མཉན་དུ་ཡོད་པ་ནས་རྒྱལ་པོའི་ཁབ་ཏུ་གཤེགས་པ་ལས། རི་ཁྲོད་ཅིག་ཏུ་བྱོན་ནས་དེ་དེར་གཤེགས་པ་ན། ཤིང་གི་གྲིབ་མ་ལ་སྐད་ཅིག་མཉེལ་བསོ་ནས་ཆས་ཏེ་
[91a.2]གཤེགས་སོ། །ལམ་དེ་ཡང་སེང་གེའི་འཇིགས་པ་ཆེན་པོ་དང་ལྡན་པ་ཞིག་སྟེ། ཚེ་དང་ལྡན་པ་ཀུན་དགའ་བོས་ལམ་ཁ་གཉིས་སུ་གྱེས་པ་མཐོང་ནས། བཅོམ་ལྡན་འདས་ལ་འདི་སྐད་གསོལ་ཏོ། །བཙུན་པ་ཤུལ་འདི་ནི་ཁ་གཉིས་སུ་གྱེས་ཏེ། དེ་ལ་ཤུལ་གཅིག་ནི་
[91a.3]དྲང་ལ་འཇིགས་པ་དང་བཅས་པ་ལགས། ཤུལ་གཅིག་ནི་འཁྱོག་ལ་འཇིགས་པ་མ་མཆིས་པ་ལགས་ན། བཙུན་པ་ཤུལ་གང་དུ་གཤེགས་པར་མཛད། བཅོམ་ལྡན་འདས་ཀྱིས་བཀའ་སྩལ་པ། ཀུན་དགའ་བོ་གང་ན་དེ་བཞིན་གཤེགས་པ་དགྲ་བཅོམ་པ་ཡང་དག་པར་རྫོགས་
[91a.4]པའི་སངས་རྒྱས་རྣམས་བཞུགས་པ་དེ་ན་ནི། འཇིགས་པའམ་སྐྲག་པའམ་བག་ཚ་བ་ཅི་ཡང་མེད་ཀྱིས་ལམ་དྲང་པོ་ལོགས་སུ་དྲོངས་ཤིག་ཅེས་བཀའ་སྩལ་ཏོ། །གྲོང་མིའི་བྱིས་པ་གཉིས་ཀྱང་བཅོམ་ལྡན་འདས་ཀྱི་ཐད་ནས་ཐག་མི་རིང་བ་ཞིག་ན་རྩེ་ཞིང་འདུག་སྟེ། དེ་གཉིས་ལ་
[91a.5]གཅིག་ནི་རྔེའུ་ཆུང་ཐོགས་སོ། །གཅིག་ནི་མདའ་གཞུ་ཐོགས་སོ། །དེ་ནས་ཁྱེའུ་དེ་གཉིས་ཀྱིས་སངས་རྒྱས་བཅོམ་ལྡན་འདས་སྐུ་སྐྱེས་བུ་ཆེན་པོའི་མཚན་སུམ་ཅུ་རྩ་གཉིས་ཀྱིས་བརྒྱན་ཅིང་སྤ་བར་བྱས་པ་རྒྱང་ནས་མཐོང་ངོ་། །མཐོང་ནས་ཀྱང་དགའ་བ་སྐྱེས་སོ། །དགའ་བ་སྐྱེས་
[91a.6]ནས། བཅོམ་ལྡན་འདས་ག་ལ་བ་དེར་སོང་སྟེ་ཕྱིན་ནས། བཅོམ་ལྡན་འདས་ཀྱི་ཞབས་ལ་མགོ་བོས་ཕྱག་འཚལ་ཏེ། བཅོམ་ལྡན་འདས་ལ་འདི་སྐད་ཅེས་གསོལ་ཏོ། །བཙུན་པ་ཤུལ་འདི་ན་སེང་གེའི་འཇིགས་པ་ནི་མཆིས་མོད་ཀྱི། འོན་ཀྱང་བཅོམ་ལྡན་འདས་གཤེགས་པ་དང་།
[91a.7]བདག་ཅག་གཉིས་ཀྱིས་བཅོམ་ལྡན་འདས་ཀྱི་བསེལ་བགྱི་བར་འཚལ་ལོ། །བཅོམ་ལྡན་འདས་ཀྱིས་བཀའ་སྩལ་པ། ཁྱེའུ་ཁྱོད་གཉིས་ཀྱིས་སེང་གེའི་འཇིགས་པ་བྱུང་ན་ཇི་ལྟར་བྱ། དེར་གཅིག་གིས་གསོལ་པ། བཙུན་པ་བདག་གིས་རོལ་མོའི་སྒྲས་སྐྲག་པར་བགྱིའོ། །གཅིག་
[91b]
[91b.1]གིས་གསོལ་པ། བདག་གིས་ནི་མདའ་གཞུའི་སྒྲས་སྐྲག་པར་བགྱིའོ། །དེ་སྐད་ཅེས་གསོལ་ནས། ཁྱེའུ་དེ་གཉིས་ཀྱིས་བཅོམ་ལྡན་འདས་ཀྱི་མདུན་ལོགས་སུ་ཆས་སོ། །དེ་ནས་བཅོམ་ལྡན་འདས་ཀྱིས་དགོངས་པ། འདི་གཉིས་ཀྱིས་ནི་དགེ་བའི་རྩ་བ་རྣམས་
[91b.2]བསྐྱེད་ཟིན་ཏོ་སྙམ་དུ་དགོངས་ནས་བཀའ་སྩལ་པ། ཁྱེའུ་ཁྱེད་གཉིས་ཀྱིས་སེམས་དགའ་བ་བསྐྱེད་པ་དེ་ཙམ་གྱིས་བསེལ་བྱས་ཟིན་ཏེ་ཆོག་གིས་ཕྱིར་དེངས་ཤིག །དེ་ནས་ཁྱེའུ་དེ་གཉིས་ཕྱིར་ལོག་ནས། བཅོམ་ལྡན་འདས་འཛུམ་པ་མཛད་དེ་འདི་ནི་སངས་རྒྱས་བཅོམ་ལྡན་འདས་
[91b.3]རྣམས་གང་གི་ཚེ་འཛུམ་པ་མཛད་པའི་ཆོས་ཉིད་དེ། དེའི་ཚེ་ཞལ་ནས་འོད་ཟེར་སྔོན་པོ་དང་སེར་པོ་དང་དམར་པོ་དང་དཀར་པོ་རྣམས་བྱུང་ནས་ཁ་ཅིག་ནི་འོག་ཏུ་འགྲོའོ། །ཁ་ཅིག་ནི་སྟེང་དུ་འགྲོའོ། །འོག་ཏུ་འགྲོ་བ་གང་ཡིན་པ་དེ་དག་ནི་སེམས་ཅན་དམྱལ་བ་ཡང་སོས་དང་ཐིག་ནག་དང་
[91b.4]འདུས་འཇོམས་དང་ངུ་འབོད་དང་ངུ་འབོད་ཆེན་པོ་དང་ཚ་བ་དང་རབ་ཏུ་ཚ་བ་དང་མནར་མེད་པ་དང་ཆུ་བུར་ཅན་དང་ཆུ་བུར་རྡོལ་དང་སོ་ཐམས་ཐམས་དང་ཀྱི་ཧུད་ཟེར་དང་ཨ་ཆུ་ཟེར་དང་ཨུད་པལ་ལྟར་གས་པ་དང་པད་མ་ལྟར་གས་པ་དང་པད་མ་ལྟར་གས་པ་ཆེན་པོར་སོང་ནས། ཚ་བའི་སེམས་ཅན་
[91b.5]དམྱལ་བ་གང་ཡིན་པ་དེ་དག་ཏུ་ནི་བསིལ་བར་གྱུར་ཏེ་འབབ་བོ། །གྲང་བའི་སེམས་ཅན་དམྱལ་བ་གང་ཡིན་པ་དེ་དག་ཏུ་ནི་དྲོ་བར་གྱུར་ཏེ་འབབ་བོ། །དེས་ནས་སེམས་ཅན་དེ་དག་གི་གནོད་པའི་ཁྱད་པར་རྣམས་རྩེ་ཞིལ་བར་གྱུར་ཏོ། །དེ་ནས་དེ་དག་འདི་སྙམ་དུ་སེམས་ཏེ། ཀྱེ་ཅི་བདག་
[91b.6]ཅག་འདི་ནས་ཤི་འཕོས་སམ་འོན་ཏེ་གཞན་དུ་སྐྱེས་སམ་སྙམ་མོ། །དེ་ནས་དེ་དག་དད་པ་བསྐྱེད་པའི་ཕྱིར་བཅོམ་ལྡན་འདས་སྤྲུལ་པ་འགྱེད་པར་མཛད་དེ། དེ་དག་གིས་སྤྲུལ་པ་མཐོང་ནས་འདི་སྙམ་དུ་སེམས་ཏེ། ཀྱེ་བདག་ཅག་ནི་འདི་ནས་ཀྱང་ཤི་འཕོས་པར་མ་གྱུར་ལ། །
[91b.7]གཞན་དུ་ཡང་མ་སྐྱེས་མོད་ཀྱི། འོན་ཀྱང་སྔོན་མ་བྱུང་བའི་སེམས་ཅན་སྣང་བ་འདིའི་མཐུས། བདག་ཅག་གི་གནོད་པའི་ཁྱད་པར་རྣམས་རྩེ་ཞིལ་བར་གྱུར་ཏོ་སྙམ་མོ། །དེ་ནས་དེ་དག་སྤྲུལ་པ་ལ་སེམས་མངོན་པར་དགའ་བར་གྱུར་ནས། སེམས་ཅན་དམྱལ་བ་མྱོང་བར་
[92a]
[92a.1]འགྱུར་བའི་ལས་དེ་ཟད་དེ། ལྷ་དང་མི་རྣམས་ཀྱི་ནང་དུ་གང་དུ་བདེན་པ་རྣམས་ཀྱི་སྣོད་དུ་རུང་བར་འགྱུར་བ་དེར་ཉིང་མཚམས་འཛིན་པར་གྱུར་ཏོ། །སྟེང་དུ་འགྲོ་བ་གང་ཡིན་པ་དེ་དག་ནི་རྒྱལ་ཆེན་བཞིའི་རིས་རྣམས་དང་སུམ་ཅུ་རྩ་གསུམ་པ་རྣམས་དང་འཐབ་
[92a.2]བྲལ་རྣམས་དང་དགའ་ལྡན་རྣམས་དང་འཕྲུལ་དགའ་རྣམས་དང་གཞན་འཕྲུལ་དབང་བྱེད་རྣམས་དང་ཚངས་རིས་རྣམས་དང་ཚངས་པའི་མདུན་ན་འདོན་པ་རྣམས་དང་ཚངས་པ་ཆེན་པོ་རྣམས་དང་འོད་ཆུང་རྣམས་དང་ཚད་མེད་འོད་རྣམས་དང་འོད་གསལ་རྣམས་དང་དགེ་ཆུང་རྣམས་དང་།
[92a.3]ཚད་མེད་དགེ་རྣམས་དང་དགེ་རྒྱས་རྣམས་དང་སྤྲིན་མེད་རྣམས་དང་བསོད་ནམས་སྐྱེས་རྣམས་དང་འབྲས་བུ་ཆེ་རྣམས་དང་མི་ཆེ་རྣམས་དང་མི་གདུང་རྣམས་དང་གྱ་ནོམ་སྣང་རྣམས་དང་ཤིན་ཏུ་མཐོང་རྣམས་དང་འོག་མིན་གྱི་ལྷ་རྣམས་ཀྱི་བར་དུ་སོང་ནས། མི་རྟག་པ་དང་སྡུག་བསྔལ་བ་
[92a.4]དང་སྟོང་པ་དང་བདག་མེད་པའི་སྒྲ་སྒྲོགས་སོ། །ཚིགས་སུ་བཅད་པ་གཉིས་ཀྱང་རྗོད་པར་བྱེད་དེ། ངེས་པར་འབྱུང་བ་བརྩམ་པར་གྱིས། །སངས་རྒྱས་བསྟན་ལ་སྦྱོར་བར་གྱིས། །འདམ་བུའི་ཁྱིམ་ལ་གླང་ཆེན་བཞིན། །འཆི་བདག་སྡེ་ནི་གཞོམ་པར་གྱིས། །གང་
[92a.5]ཞིག་ཆོས་འདུལ་འདི་ཉིད་ལ། །བག་ཡོད་སྤྱོད་པར་བྱེད་པ་ནི། །སྐྱེ་བའི་འཁོར་བ་རབ་སྤངས་ནས། །སྡུག་བསྔལ་ཟད་པར་བྱེད་པར་འགྱུར། །ཞེས་རྗོད་པར་བྱེད་དོ། །དེ་ནས་འོད་ཟེར་དེ་དག་གིས་སྟོང་གསུམ་གྱི་སྟོང་ཆེན་པོའི་འཇིག་རྟེན་གྱི་ཁམས་བསྐོར་ནས་བཅོམ་
[92a.6]ལྡན་འདས་ཀྱི་ཕྱི་བཞིན་འབྲང་སྟེ། གལ་ཏེ་བཅོམ་ལྡན་འདས་ཀྱིས་འདས་པའི་ལས་ལུང་སྟོན་པར་བཞེད་ན་ནི་བཅོམ་ལྡན་འདས་ཀྱི་སྣམ་ལོགས་སུ་མི་སྣང་བར་འགྱུར་རོ། །མ་འོངས་པའི་ལས་ལུང་སྟོན་པར་བཞེད་ན་ནི་མདུན་ལོགས་སུ་མི་སྣང་བར་འགྱུར་རོ། །སེམས་
[92a.7]ཅན་དམྱལ་བར་སྐྱེ་བར་ལུང་སྟོན་པར་བཞེད་ན་ནི་ཞབས་ཀྱི་མཐིལ་དུ་མི་སྣང་བར་འགྱུར་རོ། །དུད་འགྲོར་སྐྱེ་བར་ལུང་སྟོན་པར་བཞེད་ན་ནི་ཞབས་ཀྱི་རྟིང་པར་མི་སྣང་བར་འགྱུར་རོ། །ཡི་དགས་སུ་སྐྱེ་བར་ལུང་སྟོན་པར་བཞེད་ན་ནི་ཞབས་ཀྱི་མཐེ་བོར་མི་སྣང་བར་འགྱུར་རོ། །
[92b]
[92b.1]མིར་སྐྱེ་བར་ལུང་སྟོན་པར་བཞེད་ན་ནི་པུས་མོ་གཉིས་སུ་མི་སྣང་བར་འགྱུར་རོ། །སྟོབས་ཀྱི་འཁོར་ལོས་སྒྱུར་བའི་རྒྱལ་པོར་ལུང་སྟོན་པར་བཞེད་ན་ནི་ཕྱག་གཡོན་པའི་མཐིལ་དུ་མི་སྣང་བར་འགྱུར་རོ། །འཁོར་ལོས་སྒྱུར་བའི་རྒྱལ་པོར་ལུང་སྟོན་པར་བཞེད་ན་ནི་ཕྱག་གཡས་
[92b.2]པའི་མཐིལ་དུ་མི་སྣང་བར་འགྱུར་རོ། །ལྷར་སྐྱེ་བར་ལུང་སྟོན་པར་བཞེད་ན་ནི་ལྟེ་བར་མི་སྣང་བར་འགྱུར་རོ། །ཉན་ཐོས་ཀྱི་བྱང་ཆུབ་ཏུ་ལུང་སྟོན་པར་བཞེད་ན་ནི་ཞལ་དུ་མི་སྣང་བར་འགྱུར་རོ། །རང་སངས་རྒྱས་ཀྱི་བྱང་ཆུབ་ཏུ་ལུང་སྟོན་པར་བཞེད་ན་ནི་སྨིན་མཚམས་ཀྱི་མཛོད་སྤུར་
[92b.3]མི་སྣང་བར་འགྱུར་རོ། །བླ་ན་མེད་པ་ཡང་དག་པར་རྫོགས་པའི་བྱང་ཆུབ་ཏུ་ལུང་སྟོན་པར་བཞེད་ན་ནི་དབུའི་གཙུག་ཏོར་དུ་མི་སྣང་བར་འགྱུར་རོ། །དེ་ནས་འོད་ཟེར་དེ་དག་གིས་བཅོམ་ལྡན་འདས་ལ་ལན་གསུམ་བསྐོར་བ་བྱས་ཏེ་བཅོམ་ལྡན་འདས་ཀྱི་སྨིན་མཚམས་ཀྱི་མཛོད་
[92b.4]སྤུར་མི་སྣང་བར་གྱུར་ཏོ། །དེ་ནས་ཚེ་དང་ལྡན་པ་ཀུན་དགའ་བོས་ཐལ་མོ་སྦྱར་ཏེ་བཅོམ་ལྡན་འདས་ལ་ཞུས་པ། ཚོན་སྣ་སྟོང་གིས་སྤེལ་བ་སྣ་ཚོགས་ཅན། །མང་པོ་ཞལ་གྱི་སྒོ་ནས་བྱུང་བར་གྱུར། །དེ་ཡིས་ཕྱོགས་རྣམས་ཀུན་ཏུ་སྣང་བར་བགྱིས། །ཉི་མ་ཤར་བས་ཇི་
[92b.5]ལྟར་བགྱིས་པ་བཞིན། །ཡང་ཚིགས་སུ་བཅད་དེ་གསོལ་བ། རྒོད་དང་བྲལ་ཞིང་རྒྱགས་དང་མི་དགྱེས་སྤངས་པ་ཡི། །སངས་རྒྱས་འགྲོ་བ་དག་གི་དམ་པའི་རྒྱུར་གྱུར་པ། །རྒྱལ་བ་དགྲ་ཐུབ་རྣམས་ནི་རྒྱུ་རྐྱེན་མ་མཆིས་པར། །པད་མའི་རྩ་དང་དུང་མདོག་ལྟ་བུའི་འཛུམ་
[92b.6]མི་སྟོན། །བརྟན་པོ་ཉིད་ཀྱི་བློ་ཡིས་དུས་བབ་མཁྱེན་ལགས་ན། །དགེ་སྦྱོང་རྒྱལ་དབང་ཉན་པ་སོམ་ཉི་འཚལ་བ་རྣམས། །ཐུབ་པ་ཁྱུ་མཆོག་གི་ནི་གསུང་མཆོག་བསྟན་པ་དང་། །བཟང་པོ་དག་གིས་ཐེ་ཚོམ་སྐྱེས་པ་བསལ་བར་གསོལ། །རྒྱ་མཚོ་དང་ནི་རི་རྒྱལ་ལྟ་བུར་
[92b.7]བརྟན་པ་ཡི། །མགོན་པོ་རྫོགས་སངས་རྒྱས་རྣམས་གྱིན་ད་འཛུམ་མི་སྟོན། །གང་གི་དོན་དུ་དཔའ་བོ་འཛུམ་པ་སྟོན་མཛད་པ། །དེ་ནི་ཁྱོད་ལ་སྐྱེ་བོ་ཕལ་ཆེན་ཉན་པར་འཚལ། །བཅོམ་ལྡན་འདས་ཀྱིས་བཀའ་སྩལ་པ། ཀུན་དགའ་བོ་དེ་ནི་དེ་བཞིན་ནོ། །དེ་
[93a]
[93a.1]ནི་དེ་བཞིན་ཏེ། ཀུན་དགའ་བོ་དེ་བཞིན་གཤེགས་པ་དགྲ་བཅོམ་པ་ཡང་དག་པར་རྫོགས་པའི་སངས་རྒྱས་རྣམས་ནི་རྒྱུ་མེད་རྐྱེན་མེད་པར་འཛུམ་པ་མི་མཛད་དེ། ཀུན་དགའ་བོ་ཁྱོད་ཀྱིས་ཁྱེའུ་འདི་གཉིས་ཀྱིས་ང་ལ་འདི་ལྟ་བུའི་བཀུར་སྟི་བྱས་
[93a.2]པ་མཐོང་ངམ། བཙུན་པ་མཐོང་ལགས་སོ། །ཀུན་དགའ་བོ་ཁྱེའུ་འདི་གཉིས་དགེ་བའི་རྩ་བ་དང་སེམས་བསྐྱེད་པ་དང་སྦྱིན་པར་བྱ་བའི་ཆོས་ཡོངས་སུ་གཏོང་བ་འདིས། བསྐལ་པ་བཅུ་གསུམ་གྱི་བར་དུ་ལོག་པར་ལྟུང་བར་མི་འགྱུར་ཏེ། བསྐལ་པ་བཅུ་གསུམ་གྱི་
[93a.3]བར་དུ་ལྷ་རྣམས་དང་མི་རྣམས་ཀྱི་ནང་དུ་ཉིང་མཚམས་སྦྱར་ཞིང་། འཁོར་བར་གྱུར་ནས་སྲིད་པ་ཐ་མ་དང་གནས་ཐ་མ་ལ་མིར་སྐྱེ་བ་ཐོབ་སྟེ་རབ་ཏུ་འབྱུང་བར་འགྱུར་ལ། དེས་སློབ་དཔོན་མེད་པ་དང་མན་ངག་མེད་པར་བྱང་ཆུབ་ཀྱི་ཕྱོགས་དང་འཐུན་པའི་ཆོས་སུམ་ཅུ་རྩ་བདུན་
[93a.4]མངོན་དུ་བྱས་ནས་རང་སངས་རྒྱས་ཀྱི་བྱང་ཆུབ་མངོན་སུམ་དུ་བྱེད་པར་འགྱུར་ཏེ། དེ་ལ་གཅིག་ནི་རང་སངས་རྒྱས་རྔ་སྒྲ་ཞེས་བྱ་བར་འགྱུར་རོ། །གཅིག་ནི་འཇིགས་མེད་ཅེས་བྱ་བར་འགྱུར་ཏེ་དེ་གཉིས་ཀྱི་སྦྱིན་པར་བྱ་བའི་ཆོས་ནི་འདི་ཡིན་ནོ།། །།