ལེ་ལོ་ཅན་ཞེས་བྱ་བ་ནི།
[37b]
[37b.1]གླེང་གཞི་མཉན་དུ་ཡོད་པ་ན་བཞུགས་ཏེ། དེའི་ཚེ་མཉན་དུ་ཡོད་པ་ན། ཁྱིམ་བདག་ཕྱུག་ཅིང་ནོར་མང་ལ་ལོངས་སྤྱོད་ཆེ་བ། ཡོངས་སུ་འཛིན་པ། ཡངས་ཤིང་རྒྱ་ཆེ་བ། རྣམ་ཐོས་ཀྱི་བུའི་ནོར་དང་མཉམ་པ། རྣམ་ཐོས་ཀྱི་བུའི་ནོར་དང་འགྲན་པ་ཞིག་གནས་པ་དེས་ཐབས་ཟླར་བབ་པ་ལས་
[37b.2]ཆུང་མ་བླངས་ནས། དེ་དེ་དང་ལྷན་ཅིག་ཏུ་རྩེ་ཞིང་དགའ་ལ་དགའ་མགུར་སྤྱོད་པ་ལས། ཕྱི་ཞིག་ན་དེའི་ཆུང་མ་ལ་བུ་ཆགས་ནས། དེ་ཟླ་བ་དགུའམ་བཅུ་ལོན་པ་དང་། ཁྱེའུ་གཟུགས་བཟང་ཞིང་བལྟ་ན་སྡུག་ལ་མཛེས་པ་ཞིག་བཙས་ཏེ། དེའི་བཙས་སྟོན་རྒྱས་པར་བྱས་ནས། རིགས་
[37b.3]དང་འཐུན་པར་མིང་བཏགས་ཏེ། འོ་མ་དང་། ཞོ་དང་། མར་དང་། ཞུན་མར་དང་། མར་གྱི་ཉིང་གུས་བསྐྱེད་བསྲིངས་ཏེ། མཚོའི་ནང་གི་པད་མ་བཞིན་དུ་སྐྱེ་དྲག་པར་གྱུར་ཏོ། །ཁྱེའུ་དེ་ལེ་ལོ་ཅན་མཆོག་ཏུ་ལེ་ལོ་ཆེ་བ་ཞིག་སྟེ། ཁྲི་ལ་ཉལ་ཞིང་ཁྲི་ལས་ལྡང་དུ་མི་བཏུབ་ནས།
[37b.4]ཕ་མ་གཉིས་ཀྱིས་དེ་ལ་དྲིས་པ། བུ་ཁྱོད་ལ་ལུས་ཀྱི་ནད་དམ། སེམས་ཀྱི་གདུང་བ་འགའ་ལྟ་ཡོད་དམ་ཞེས་བྱས་ནས། དེ་ལེ་ལོའི་དབང་གིས་དེ་དག་ལ་ཅུང་ཟད་ཀྱང་སྨྲར་མི་བཏུབ་ནས། ཕ་མ་གཉིས་ཀྱིས་དེ་སྨན་པ་ལ་བསྟན་ནས། སྨན་པ་ན་རེ། འདི་ལ་ལུས་ཀྱི་ནད་ཀྱང་ཅི་ཡང་
[37b.5]མེད་ལ། སེམས་ཀྱི་གདུང་བ་ཅི་ཡང་མེད་ཀྱིས། ལེ་ལོ་ཁོ་ནས་ཁྲི་ལས་ལྡང་དུ་མི་བཏུབ་པར་ཟད་དོ་ཞེས་ཟེར་རོ། །དེ་ནས་དེ་ལ་ཕ་མ་གཉིས་ཀྱིས་ལན་མང་དུ་བསྒོ་སྟེ། བུ་དེ་ལྟར་མ་བྱེད་ཅིག །ཁྱོད་འདི་ལྟར་འདུག་པས་བདེ་བ་ཐོབ་པར་མི་ནུས་སོ། །མི་རྣམས་ཉེ་བར་འཚོ་བ་ནི་བསྒྲུབ་
[37b.6]ཕོད་པའི་འབྲས་བུ་ཡིན་ནོ་ཞེས་ལན་མང་དུ་བརྟུན་ཀྱང་དེ་བསླང་མ་ནུས་སོ། །དེ་ནས་ཕྱི་ཞིག་ན་ཕ་མ་གཉིས་ཀྱི་སེམས་སྐྱེས་པ། ཡོན་གནས་དག་སྤྱན་དྲངས་ལ་བཤོས་གསོལ་ན། དེ་དག་མཐོང་ན་ཞེས་བསྐྱེད་དེ། ལྡང་ཡང་སྲིད་དོ་སྙམ་ནས། དེ་དག་གིས་སྟོན་པ་དྲུག་གཡར་
[37b.7]དྲངས་ཏེ་ཟན་བྱིན་ནས་ཁྱེའུ་དེས་དེ་དག་མཐོང་ཡང་མ་ལངས་སོ། །དེ་ནས་ཁྱིམ་བདག་གིས་བསམས་པ། དགེ་སྦྱོང་གཽ་ཏ་མ་ནི་བསོད་ནམས་ཅན་ཆེ་བར་གྲགས་པ། ཚིག་བཙན་པ་ཡིན་པས་ན། ཁྱེའུ་འདིས་དེ་མཐོང་ན་ཞེས་བསྐྱེད་དེ་ལྡང་བར་འགྱུར་ཡང་སྲིད་དོ་སྙམ་ནས། དེའི་
[38a]
[38a.1]ཕྱི་ཉིན་སངས་རྒྱས་ལ་སོགས་པ་དགེ་སློང་གི་དགེ་འདུན་ཁྱིམ་དུ་སྤྱན་དྲངས་ཏེ། དེ་ཉིད་ཀྱི་ནུབ་མོ་བཟའ་བ་དང་། བཅའ་བ་གཙང་མ་བཟང་པོ་མང་པོ་སྦྱར་ནས་ནང་པར་སྔར་ལངས་ཏེ། གདན་བཤམས་ལ་ཆུ་ར་བཀང་སྟེ་བཞག་ནས། བཅོམ་ལྡན་འདས་ལ་ཕྲིན་གྱིས་
[38a.2]གདུགས་ཚོད་བསྐུལ་བ། བཙུན་པ་གདུགས་ཚོད་ལ་བབ་སྟེ་བཤོས་གསོལ་ལགས་ན། བཅོམ་ལྡན་འདས་ཀྱིས་ད་དེའི་དུས་ལ་བབ་པར་དགོངས་ཏེ། གཤེགས་སུ་གསོལ་ཞེས་བསྐུལ་ཏོ། །དེ་ནས་བཅོམ་ལྡན་འདས་སྔ་དྲོའི་དུས་ཀྱི་ཚེ། ཆོས་གོས་དང་ཤམ་ཐབས་
[38a.3]གསོལ་ཏེ། ལྷུང་བཟེད་བསྣམས་ནས། དགེ་སློང་མང་པོས་ཞམ་རིང་བྱས་ནས། དགེ་སློང་གི་དགེ་འདུན་གྱིས་མདུན་དུ་བདར་ནས། ཁྱིམ་བདག་དེའི་བཀད་ས་ག་ལ་བ་དེར་གཤེགས་ཏེ་བྱོན་ནས། དགེ་སློང་གི་དགེ་འདུན་གྱི་གུང་ལ་གདན་བཤམས་པ་ལ་བཞུགས་སོ། །དེ་ནས་
[38a.4]ཁྱེའུ་དེས་ཐག་རིང་པོ་ཞིག་ནས། སངས་རྒྱས་བཅོམ་ལྡན་འདས་མཛེས་ཤིང་ཡིད་དུ་འཐད་ལ། དབང་པོ་ཞི་བ། ཐུགས་མཆོག་ཏུ་དུལ་བ། རྣམ་པར་ཞི་བ་དང་ལྡན་པ། གསེར་གྱི་མཆོད་སྡོང་ལྟར་དཔལ་འབར་བ་མཐོང་ངོ་། །མཐོང་ནས་ཀྱང་དེ་གུས་པར་སྒྲིམས་པའི་ཤུགས་ཀྱིས་
[38a.5]ལངས་ནས། བཅོམ་ལྡན་འདས་ག་ལ་བ་དེར་སོང་སྟེ་ཕྱིན་ནས། བཅོམ་ལྡན་འདས་ཀྱི་ཞབས་ལ་མགོ་བོས་ཕྱག་འཚལ་ཏེ། ཕ་མ་གཉིས་དང་ལྷན་ཅིག་ཏུ་སངས་རྒྱས་ལ་སོགས་པ་དགེ་སློང་གི་དགེ་འདུན་རྣམས་བདེ་བར་བཞུགས་པར་རིག་ནས། རང་གི་ལག་ནས་བཟའ་བ་དང་
[38a.6]བཅའ་བ་གཙང་མ་བཟང་པོ་མང་པོས་ཚིམ་པར་བྱས་ནས། ཅི་བཞེད་པ་བསྟབས་སོ། །དེ་ནས་བཅོམ་ལྡན་འདས་བཤོས་གསོལ་ཟིན་ཏེ། བསྩང་སྡེར་ནི་གྱུ། ཕྱག་ནི་བཅབས་པར་རིག་ནས། སྟན་ཆེས་དམའ་བ་དག་བླངས་ཏེ། ཆོས་ཉན་པའི་ཕྱིར་བཅོམ་ལྡན་འདས་ཀྱི་སྤྱན་
[38a.7]སྔར་འཁོད་དོ། །དེ་ནས་བཅོམ་ལྡན་འདས་ཀྱིས་ཁྱེའུ་དེ་ལ་བརྩོན་འགྲུས་ཀྱི་བསྔགས་པ་བརྗོད་དེ། བུ་བརྩོན་འགྲུས་ཀྱིས་ནི་བླ་ན་མེད་པ་ཡང་དག་པར་རྫོགས་པའི་བྱང་ཆུབ་ཐོབ་པར་འགྱུར་རོ་ཞེས་བཀའ་སྩལ་ཏོ། །དེ་ནས་ཁྱེའུ་དེས་བསམས་པ། བཅོམ་ལྡན་འདས་ཀྱིས་བཀའ་སྩལ་པ་འདི་
[38b]
[38b.1]ནི་བཟང་སྟེ། བདག་གིས་བརྩོན་འགྲུས་ཞན་པས་བླ་མའི་ཁྱད་པར་ཐོབ་པར་མི་ནུས་ཀྱིས། མ་ལ་བདག་གིས་རྒྱ་མཚོའི་ནང་དུ་འགྲོ་བ་བསྒྲུབས་ལ། སངས་རྒྱས་དང་། ཆོས་དང་། དགེ་འདུན་ལ་བཀུར་སྟི་བྱའོ་སྙམ་ནས། རྒྱ་མཚོའི་ནང་དུ་འགྲོ་བའི་ཟོང་ཁྱེར་ཏེ་རྒྱ་མཚོ་ཆེན་པོའི་ནང་དུ་
[38b.2]ཞུགས་ནས། དེས་རིན་པོ་ཆེའི་གླིང་དུ་འགྲོ་བའི་དོན་དུ་བསྒྲུབས་ཏེ། རྒྱ་མཚོའི་གྲུ་བོ་ཆེའི་དོན་གྲུབ་ནས། མཉན་དུ་ཡོད་པར་འོང་སྟེ། དེས་སངས་རྒྱས་ལ་སོགས་པ་དགེ་སློང་གི་དགེ་འདུན་ཟླ་བ་གསུམ་དུ་སྤྱན་དྲངས་ནས་ཡོ་བྱད་ཐམས་ཅད་སྦྱར་ཏེ། སངས་རྒྱས་ལ་སོགས་པ་དགེ་
[38b.3]སློང་གི་དགེ་འདུན་ལ་ཟླ་བ་གསུམ་གྱི་བར་དུ་ཡོ་བྱད་ཐམས་ཅད་ཀྱིས་བསྙེན་བཀུར་བྱས་ནས། ཐ་མའི་ཉིན་པར་སངས་རྒྱས་ལ་སོགས་པ་དགེ་སློང་གི་དགེ་འདུན་ལ་ཞལ་ཟས་རོ་བརྒྱ་དང་ལྡན་པ་གསོལ་ནས། བཅོམ་ལྡན་འདས་ལ་ན་བཟའ་འབུམ་རི་བ་ཕུལ་ལོ། །དགེ་སློང་གཞན་དག་
[38b.4]ལ་ཡང་རེ་རེ་ལ་རས་ཟུང་རེ་ཕུལ་ནས། བླ་ན་མེད་པ་ཡང་དག་པར་རྫོགས་པའི་བྱང་ཆུབ་ཏུ་སྨོན་ལམ་བཏབ་སྟེ། དགེ་བའི་རྩ་བ་འདིས་ན་བདག་འཇིག་རྟེན་ལོང་བ་འདྲེན་པ་མེད་པ་སྟོན་པ་མེད་པར། དེ་བཞིན་གཤེགས་པ་དགྲ་བཅོམ་པ་ཡང་དག་པར་རྫོགས་པའི་སངས་རྒྱས་རིག་པ་དང་།
[38b.5]ཞབས་སུ་ལྡན་པ། བདེ་བར་གཤེགས་པ། འཇིག་རྟེན་མཁྱེན་པ། སྐྱེས་བུ་འདུལ་བའི། ཁ་ལོ་སྒྱུར་བ། བླ་ན་མེད་པ། ལྷ་དང་མི་རྣམས་ཀྱི་སྟོན་པ། སངས་རྒྱས་བཅོམ་ལྡན་འདས་སུ་གྱུར་ཅིག་ཅེས་བྱས་སོ། །དེ་ནས་བཅོམ་ལྡན་འདས་ཀྱིས་ཁྱེའུ་དེ་ལ་བཀའ་སྩལ་པ། ཁྱེའུ་ལེགས་
[38b.6]སོ་ལེགས་སོ། །ཁྱེའུ་ཁྱོད་མ་འོངས་པའི་དུས་ན་འཇིག་རྟེན་ལོང་བ་འདྲེན་པ་མེད་པ་སྟོན་པ་མེད་པར་དེ་བཞིན་གཤེགས་པ་དགྲ་བཅོམ་པ་ཡང་དག་པར་རྫོགས་པའི་སངས་རྒྱས་རིག་པ་དང་ཞབས་སུ་ལྡན་པ། བདེ་བར་གཤེགས་པ། འཇིག་རྟེན་མཁྱེན་པ། སྐྱེས་བུ་འདུལ་བའི། ཁ་ལོ་
[38b.7]སྒྱུར་བ། བླ་ན་མེད་པ། ལྷ་དང་མི་རྣམས་ཀྱི་སྟོན་པ། སངས་རྒྱས་བཅོམ་ལྡན་འདས་སྟོབས་དང་བརྩོན་འགྲུས་ཀྱི་རྩལ་དང་ལྡན་པ་ཞེས་བྱ་བར་འགྱུར་རོ་ཞེས་གསུངས་སོ།། །།