ལས་བརྒྱ་ཐམ་པ། བམ་པོ་བཅུ་དགུ་
[221a]
[221a.1]པ། ལྷར་བཅས་ཞེས་བྱ་བ་ནི། ཡུལ་སེར་སྐྱའི་གནས་ན་རྒྱལ་པོ་སེང་གེ་འགྲམ་ཞེས་བྱ་བ་ནི་རྒྱལ་པོ་བྱེད་དོ། །ཡུལ་ལྷ་མཐོང་ཞེས་བྱ་བ་ན་ནི་རྒྱལ་པོ་ལེགས་རྟོགས་རྒྱལ་པོ་བྱེད་དེ། དེ་གཉིས་མཛའ་ཞིང་བཤེས་ལ་གཅུགས་པར་གྱུར་ཏོ། །དེ་ནས་རྒྱལ་
[221a.2]པོ་སེང་གེ་འགྲམ་ཡིད་སྨོན་བྱེད་པ། ཀྱེ་མ་བདག་གི་རྒྱུད་དུ་འཁོར་ལོས་སྒྱུར་བའི་རྒྱལ་པོ་བྱུང་ན་ཅི་མ་རུང་སྙམ་མོ། །དེ་ནས་མཐར་གྱིས་དེའི་བུ་བཞི་བྱུང་སྟེ། ཟས་གཙང་དང་བྲེ་བོ་ཟས་དང་བདུད་རྩི་ཟས་དང་ཟས་དཀར་རྣམས་བྱུང་ངོ་། །བུ་མོ་ཡང་བཞི་བྱུང་སྟེ། དག་
[221a.3]མ་དང་། བྲེ་མོ་མ་དང་། བདུད་རྩི་མ་དང་། དཀར་མོ་རྣམས་བྱུང་ངོ་། །དེ་ནས་རྒྱལ་པོ་ལེགས་རྟོགས་ཡིད་སྨོན་བྱེད་པ། ཀྱེ་མ་བདག་སེང་གེ་འགྲམ་དང་གཉེན་དུ་གྱུར་ཀྱང་ཅི་མ་རུང་སྙམ་མོ། །དེ་ནས་དེ་ཡང་བཙུན་མོ་དང་ལྷན་ཅིག་ཏུ་རྩེ་ཞིང་དགའ་ལ་དགའ་མགུར་སྤྱོད་
[221a.4]པ་ལས་བུ་བཙས་ཏེ་དེའི་མིང་ལྷར་བཅས་ཞེས་བཏགས་སོ། །དེ་ནས་དེ་གང་གི་ཚེ་ཆེར་སྐྱེས་པ་དེའི་ཚེ་ཁྱེའུ་དེ་ཡི་གེ་སློབ་ཏུ་བཅུག་སྟེ། རྒྱལ་རིགས་སྤྱི་བོ་ནས་དབང་བསྐུར་བའི་རྒྱལ་པོ་རྣམས་ཀྱི་བཟོའི་གནས་དང་ལས་ཀྱི་གནས་ཐ་དད་པ་འདི་ལྟ་སྟེ། གླང་པོ་ཆེ་ཞོན་པ་དང་། རྟ་ཞོན་
[221a.5]པ་དང་། མཚོན་ཆ་བཅང་བ་དང་། འཕོང་དང་མདུན་དུ་བསྣུར་བ་དང་། ཕྱིར་བསྣུར་བ་དང་། གཡུལ་ལས་འབྱུང་བར་བྱ་བ་དང་། ལྕགས་ཀྱུ་གཟུང་བ་དང་། ཞགས་པ་གཟུང་བ་དང་། མདའ་བོ་ཆེ་འཕང་བ་དང་། རྡོ་རྗེ་རྩེ་གཅིག་པ་འཕང་བ་དང་། མཚོན་རྩེ་གཅིག་པ་གདབ་
[221a.6]པ་དང་། འཁོར་ལོ་འཕང་བ་དང་། གཅད་པ་དང་། གཤེག་པ་དང་། ལག་པས་གཟུང་བ་དང་། རྐང་པའི་སྟབས་དང་། མགོ་བོ་བསྐྱབ་པ་དང་། རྒྱང་མར་འཕང་བ་དང་། སྒྲ་གྲག་པར་འཕང་བ་དང་། གནད་དུ་འཕང་བ་དང་གདོན་མི་ཟ་བར་ཕོག་པར་བྱ་བ་དང་
[221a.7]ཚབས་ཆེར་གཏང་བ་རྣམས་ཀྱང་བསླབས་ནས་གནས་ལྔ་ལ་བྱང་བར་གྱུར་ཏེ་དེ་འདྲ་བའི་ཟླ་གཞན་མེད་དོ། །དེ་ནས་ཕྱི་ཞིག་ན་རྒྱལ་པོ་ལེགས་རྟོགས་ལ་བུ་མོ་གཉིས་བྱུང་སྟེ། དེ་ལ་གཅིག་གི་མིང་ནི་སྒྱུ་འཕྲུལ་ཞེས་བཏགས་སོ། །གཅིག་གི་མིང་ནི་སྒྱུ་འཕྲུལ་ཆེན་མོ་ཞེས་བཏགས་ཏེ།
[221b]
[221b.1]དེ་གཉིས་བྲམ་ཟེ་མཚན་མཁན་བྱེ་བྲག་ཕྱེད་པ་རྣམས་ཀྱིས་ལུང་བསྟན་པ། གཅིག་ལ་ནི་འཁོར་ལོས་སྒྱུར་བའི་རྒྱལ་པོ་བཙའ་བར་འགྱུར་རོ། །ཅིག་ཤོས་ལ་ནི་གཞོན་ནུ་མཚན་དང་ལྡན་པ་བཙའ་བར་འགྱུར་རོ། །ཞེས་ལུང་བསྟན་ཏོ། །དེ་ནས་རྒྱལ་པོ་སེང་གེ་འགྲམ་གྱིས་ཐོས་ནས་
[221b.2]དེ་གཉིས་ཟས་གཙང་གི་བཙུན་མོར་བླངས་སོ། །དེ་ནས་ཕྱི་ཞིག་ན་བྱང་ཆུབ་སེམས་དཔའ་ལྷའི་རིས་དགའ་ལྡན་གྱི་གནས་ནས་ཤི་འཕོས་ནས་ཡུམ་གྱི་ལྷུམས་སུ་ཞུགས་ཏེ། དེ་ཟླ་བ་དགུའམ་བཅུ་ལོན་པ་དང་སྲས་བལྟམ་སྟེ། དེ་གང་གི་ཚེ་ཆེར་སྐྱེས་པ་དེའི་ཚེ་ཡི་གེ་སློབ་ཏུ་བཅུག་
[221b.3]ནས་དེ་ཡི་གེ་མཐར་ཕྱིན་པར་གྱུར་ཏོ། །བསྟན་བཅོས་ཐམས་ཅད་ཀྱང་དེས་རྟོགས་སོ། །གར་དང་གླུ་དང་རོལ་མོའི་སྒྲ་ཐམས་ཅད་ལ་ཡང་མཐར་ཕྱིན་ཏོ། །དེ་ནས་རྒྱལ་པོ་ཟས་གཙང་གིས་བསམས་པ། ད་ནི་གཞོན་ནུ་ལ་འཕོང་བསླབ་དགོས་སོ་སྙམ་ནས་ཤཱཀྱ་རྣམས་ལ་དྲིས་
[221b.4]པ། འདི་ན་འཕོང་གི་སློབ་དཔོན་གྱི་མཆོག་སུ་ཡོད་སུ་ལ་བསླབས་ན་གཞོན་ནུ་འཕོང་ལོབས་པར་འགྱུར་ཞེས་སྨྲས་སོ། །ཤཱཀྱ་རྣམས་ཀྱིས་སྨྲས་པ། ལྷ་འཕོང་གི་སློབ་དཔོན་གཞན་ལྟ་ཞོག་སྟེ། རྒྱལ་པོ་ལེགས་རྟོགས་ཀྱི་བུ་ལྷར་བཅས་ཞེས་བགྱི་བ་འཕོང་གི་སློབ་དཔོན་
[221b.5]གྱི་མཆོག་ཅིག་མཆིས་ཏེ། དེ་འདྲ་བའི་ཟླ་གཞན་མ་མཆིས་སོ། །དེ་ནས་དེ་ཐོས་མ་ཐག་ཏུ་རྒྱལ་པོ་ཟས་གཙང་གིས་ལྷར་བཅས་ཕོ་ཉས་བཀུག་ནས་སྨྲས་པ། ལྷར་བཅས་ཁྱོད་ཀྱིས་གཞོན་ནུ་འདི་ལ་འཕོང་སློབས་ཤིག །ལྷར་བཅས་ཀྱིས་སྨྲས་པ། ཇི་ལྟར་ལྷས་དགོངས་
[221b.6]པ་བཞིན་དུ་བགྱིའོ་ཞེས་བྱས་ནས་དེ་གཞོན་ནུ་འཕོང་སློབ་པ་ལ་ཞུགས་ཏེ། །དེས་བྱང་ཆུབ་སེམས་དཔའ་ལ་ཅི་བྱའོ་ཅོག་བསྟན་ནས་ཐམས་ཅད་ལོབས་སོ། །བྱང་ཆུབ་སེམས་དཔས་ཀྱང་གང་ལ་ལྷར་བཅས་ཀྱི་ཡུལ་མ་ཡིན་པའི་ཐབས་གཞན་དག་བསྟན་ཏོ། །དེ་ནས་ལྷར་བཅས་
[221b.7]ཀྱིས་བྱང་ཆུབ་སེམས་དཔའི་བརྩོན་པ་དང་སྔོན་མ་བྱུང་བའི་ཐབས་རྣམས་མཐོང་ནས་ངོ་མཚར་དུ་གྱུར་ཏེ། དེས་འཕོང་གི་ཐབས་དེ་དག་གི་སློབ་མ་བྱས་ནས་བྱང་ཆུབ་སེམས་དཔའ་ལས་བསླབས་སོ། །དེས་གང་གི་ཚེ་བྱང་ཆུབ་སེམས་དཔས་རྒན་པོ་དང་ནད་པ་དང་ཤི་བ་མཐོང་ནས།
[222a]
[222a.1]ནགས་ཀྱི་ནང་དུ་གནས་བཅས་པ་དེའི་ཚེ། ལྷར་བཅས་ནི་ཡངས་པ་ཅན་དུ་སོང་ནས་དེ་ན་འདུག་པ་དང་ཡངས་པ་ཅན་གྱི་མི་རྣམས་ཀྱིས་དེ་ལ་གཞོན་ནུ་ལྔ་བརྒྱ་གཏད་དེ། ཁྱོད་ཀྱིས་གཞོན་ནུ་འདི་རྣམས་གནས་ལྔ་པོ་རྣམས་སློབས་ཤིག་ཅེས་བྱས་ནས།
[222a.2]དེས་རིང་པོ་མ་ཐོགས་པར་གཞོན་ནུ་ལྔ་བརྒྱ་པོ་རྣམས་ལ་འཕོང་བསླབས་ཏེ། དེ་དག་གནས་ལྔའི་མཐར་ཕྱིན་པར་གྱུར་ཏོ། །དེ་ནས་དེ་དག་འདི་ལྟ་བུའི་རྒྱགས་པ་སྐྱེས་ཏེ། སུ་ཡང་བདག་ཅག་ལས་གཟུགས་དང་སྟོབས་དང་ཤེས་པས་མཚུངས་པ་ཡང་མེད་ན་ལྷག་པ་ལྟ་ཅི་
[222a.3]སྨོས་སྙམ་མོ། །དེ་ནས་དེ་དག་ལ་ལྷར་བཅས་ཀྱིས་སྨྲས་པ། བུ་དག་རྒྱགས་པར་མ་བྱེད་ཅིག །ཁྱོད་ནི་ཤཱཀྱ་དག་གི་ནང་དུ་གཞོན་ནུ་སྐྱེས་པ་དེའི་རྐང་པའི་རྡུལ་དང་ཡང་མི་མཚུངས་ན། བྱད་གཟུགས་སམ་སྟོབས་སམ་ཤེས་པས་མཉམ་པ་ལྟ་ཅི་སྨོས་ཞེས་བྱས་སོ། །དེ་
[222a.4]ནས་དེ་ཐོས་མ་ཐག་ཏུ་གཞོན་ནུ་དེ་དག་ལྟ་འདོད་པར་གྱུར་ཏེ། བདག་ཅག་དོང་ལ་གཞོན་ནུ་དེ་བལྟ་བར་བྱའོ་ཞེས་ཟེར་ཏོ། །དེ་ནས་ལྷར་བཅས་ཀྱིས་སྨྲས་པ། གཞོན་ནུ་དེས་ནི་ནགས་ཀྱི་ནང་དུ་གནས་བཅས་ཏེ། ད་ཁྱོད་ཀྱིས་དེ་མཐོང་བར་མི་འགྱུར་རོ་ཞེས་བྱས་སོ། །དེ་ནས་
[222a.5]དེའི་བར་སྐབས་སུ་བཅོམ་ལྡན་འདས་གདུལ་བར་བྱ་བའི་དོན་མཛད་ཅིང་། མཐར་གྱིས་ཡངས་པ་ཅན་དུ་གཤེགས་སོ། །དེ་ནས་ལྷར་བཅས་ཀྱིས་དེ་ཐོས་ནས་གཞོན་ནུ་དེ་དག་ལ་སྦྲན་ཏེ། དེ་ཐོས་མ་ཐག་ཏུ་གཞོན་ནུ་ལྔ་བརྒྱ་པོ་དེ་དག་ལྟ་འདོད་ཆེས་ནས། ལྷར་བཅས་དང་ལྷན་ཅིག་
[222a.6]ཏུ་བཅོམ་ལྡན་འདས་ག་ལ་བ་དེར་དོང་ནས། གཞོན་ནུ་ལྔ་བརྒྱ་པོ་དེ་དག་གིས་བཅོམ་ལྡན་འདས་མཛེས་ཤིང་ཡིད་དུ་འཐད་ལ་དབང་པོ་ཞི་བ་ཐུགས་ཞི་བ་ཐུགས་མཆོག་ཏུ་དུལ་བ་དང་རྣམ་པར་ཞི་བ་དང་ལྡན་པ་གསེར་གྱི་མཆོད་སྡོང་ལྟར་དཔལ་དང་གཟི་བརྗིད་འབར་བ་མཐོང་ངོ་། །
[222a.7]མཐོང་ནས་ཀྱང་དེ་དག་གི་གཟུགས་ཀྱི་རྒྱགས་པ་གང་ཡིན་པ་དེ་དག་མེད་པར་གྱུར་ཏེ། དེ་རྣམས་ཀྱིས་བསམས་པ། འདི་བདག་ཅག་ལས་བྱད་གཟུགས་ཀྱིས་ནི་ཆེས་ལྷག་མོད་ཀྱི་སྟོབས་ཀྱིས་ནི་དེ་ལྟ་མ་ཡིན་ནོ་སྙམ་དུ་བསམས་ནས། བཅོམ་ལྡན་འདས་ག་ལ་བ་དེར་དོང་
[222b]
[222b.1]སྟེ་ལྷགས་ནས། བཅོམ་ལྡན་འདས་ཀྱི་ཞབས་ལ་མགོ་བོས་ཕྱག་འཚལ་ཏེ་སྤྱན་སྔར་འཁོད་དོ། །དེ་ནས་བཅོམ་ལྡན་འདས་ཀྱིས་དགོངས་པ། འདི་རྣམས་ཀྱི་ང་རྒྱལ་བཅག་དགོས་སོ་སྙམ་དུ་དགོངས་ནས། དེ་ནས་བཅོམ་ལྡན་འདས་ཀྱིས་འཇིག་རྟེན་པའི་དགོངས་པ་བསྐྱེད་
[222b.2]དེ། ཀྱེ་མ་ལྷའི་དབང་པོ་བརྒྱ་བྱིན་གྱིས་མདའ་གཞུ་བླངས་ཏེ་ང་ལ་ལྟར་འོངས་ན་ལེགས་སོ་སྙམ་དུ་དགོངས་ནས། བཅོམ་ལྡན་འདས་ཀྱིས་དགོངས་པ་བསྐྱེད་པའི་མོད་ལ། ལྷའི་དབང་པོ་བརྒྱ་བྱིན་གྱིས་མདའ་གཞུ་བླངས་ཏེ། བཅོམ་ལྡན་འདས་ག་ལ་བ་དེར་འོངས་སོ། །
[222b.3]དེ་ནས་བཅོམ་ལྡན་འདས་ཀྱིས་གཞོན་ནུ་དེ་དག་གི་ང་རྒྱལ་བཅག་པའི་ཕྱིར། རང་བཞིན་གྱི་སྐུ་མི་སྣང་བར་མཛད་དེ་ལྷའི་ལུས་ལྟ་བུར་སྤྲུལ་ནས། གཞོན་ནུ་དེ་དག་དང་ཐག་མི་རིང་བ་ཞིག་ཏུ་ལྕགས་ཀྱི་ཏ་ལ་བདུན་དང་། འཁོར་ལོ་བདུན་དང་། རྔ་བོ་ཆེ་བདུན་དང་། ཕག་བདུན་
[222b.4]སྤྲུལ་ནས། བཅོམ་ལྡན་འདས་ཀྱིས་གཞོན་ནུ་དེ་དག་ལ་བཀའ་སྩལ་པ། བུ་དག་ཁྱེད་ཀྱིས་མདའ་གཞུ་འདི་ལོང་ལ་འབེན་འདི་ལ་མདའ་འཕོངས་ཤིག་ཅེས་གསུངས་ནས་དེ་ཐོས་མ་ཐག་ཏུ་གཞོན་ནུ་དེ་དག་གིས་གཞུ་བླངས་ཏེ་བདུང་ཞེས་བྱས་ན། བདུང་ཡང་མ་ནུས་ནས་བཅོམ་
[222b.5]ལྡན་འདས་ཀྱིས་བདེ་བླག་ཏུ་བདུངས་ཏེ། མདའ་ཡང་བླངས་ནས་མདའ་དེ་འབེན་དེ་དག་ལ་འཕངས་ཏེ། དེས་ལྕགས་ཀྱི་ཏ་ལ་བདུན་དང་། འཁོར་ལོ་བདུན་དང་། རྔ་བོ་ཆེ་བདུན་དང་། ཕག་བདུན་ལས་ཐལ་ནས་མདའ་དེ་སའི་འོག་ཏུ་སོང་ངོ་། །དེ་ནས་དེ་མཐོང་མ་ཐག་ཏུ་
[222b.6]གཞོན་ནུ་དེ་དག་གི་སྟོབས་ཀྱིས་རྒྱགས་པར་གྱུར་པ་གང་ཡིན་པ་དེ་ཡང་མེད་པར་གྱུར་ཏོ། །བཅོམ་ལྡན་འདས་ལ་ཡང་དགའ་བར་གྱུར་ཏེ། བཅོམ་ལྡན་འདས་ཀྱིས་དེ་དག་ཡིད་དགའ་བར་གྱུར་པར་ཐུགས་སུ་ཆུད་ནས། དེ་དང་འཐུན་པའི་ཆོས་བསྟན་ཏེ། དེ་ནས་གཞོན་ནུ་
[222b.7]ལྔ་བརྒྱ་པོ་དེ་དག་གིས་སྟན་དེ་ཁོ་ན་ལ་འཁོད་བཞིན་དུ་འཇིག་ཚོགས་ལ་ལྟ་བའི་རིའི་རྩ་མོ་མཐོན་པོ་ཉི་ཤུ་ཡེ་ཤེས་རྡོ་རྗེས་བཅོམ་ནས་རྒྱུན་དུ་ཞུགས་པའི་འབྲས་བུ་མངོན་སུམ་དུ་བྱས་ཏེ། དེ་དག་གིས་བདེན་པ་མཐོང་ནས། སྟན་ལས་ལངས་ཏེ་བླ་གོས་ཕྲག་པ་གཅིག་ཏུ་གཟར་
[223a]
[223a.1]ནས་བཅོམ་ལྡན་འདས་ག་ལ་བ་དེ་ལོགས་སུ་ཐལ་མོ་སྦྱར་བ་བཏུད་དེ། བཅོམ་ལྡན་འདས་ལ་འདི་སྐད་ཅེས་གསོལ་ཏོ། །བཙུན་པ་བདག་ཅག་ལེགས་པར་གསུངས་པའི་ཆོས་འདུལ་བ་ལ་རབ་ཏུ་འབྱུང་བ་དང་བསྙེན་པར་རྫོགས་ཤིང་དགེ་སློང་གི་དངོས་པོ་འཐོབ་ཏུ་
[223a.2]རུང་ན། བདག་ཅག་ཀྱང་བཅོམ་ལྡན་འདས་ཀྱི་ཐད་དུ་ཚངས་པར་སྤྱོད་པ་སྤྱད་པར་འཚལ་ལོ། །དེ་ནས་དེ་དག་ལ་བཅོམ་ལྡན་འདས་ཀྱིས་དགེ་སློང་ཚུར་ཤོག་ཅེས་བྱ་བའི་ཚིག་གིས་རབ་ཏུ་ཕྱུང་སྟེ། བསྙེན་པར་རྫོགས་པར་མཛད་ནས་དེ་དག་ལ་ལུང་ཡང་ཕོག་གོ། །དེ་དག་གིས་
[223a.3]ཀྱང་བརྩོན་པ་དང་བསྒྲུབ་པ་དང་འབད་པས་ཉོན་མོངས་པ་ཐམས་ཅད་སྤངས་ནས། དགྲ་བཅོམ་པ་ཉིད་མངོན་སུམ་དུ་བྱས་ཏེ། དེ་དག་དགྲ་བཅོམ་པ་ཁམས་གསུམ་པའི་འདོད་ཆགས་དང་བྲལ་བར་གྱུར་ནས། གསེར་དང་བོང་བར་མཉམ་པ། ནམ་མཁའ་དང་ལག་མཐིལ་
[223a.4]དུ་འདྲ་བའི་སེམས་དང་ལྡན་པ། ཙན་དན་སྦངས་པ་ལྟ་བུར་བསིལ་བར་གྱུར་པ། རིག་པས་སྒོ་ངའི་སྦུབས་བཅོམ་པ་རིག་པ་དང་མངོན་པར་ཤེས་པ་དང་སོ་སོ་ཡང་དག་པར་རིག་པ་ཐོབ་པ་སྲིད་པའི་རྙེད་པ་དང་ཆགས་པ་དང་བཀུར་སྟི་ལ་མི་ལྟ་བ་དབང་པོ་དང་ཉེ་དབང་དང་བཅས་
[223a.5]པའི་ལྷ་རྣམས་ཀྱིས་མཆོད་ཅིང་རྗེད་པ་དང་གུས་པར་སྨྲ་བའི་གནས་སུ་གྱུར་ཏོ། །དེ་ནས་དགེ་སློང་རྣམས་ཀྱིས་བཅོམ་ལྡན་འདས་ལ་གསོལ་པ། བཙུན་པ་བཅོམ་ལྡན་འདས་ཀྱིས་གཞོན་ནུ་ལྔ་བརྒྱ་པོ་རྣམས་ལྷར་བཅས་ལས་བརྟེན་ཏེ། ང་རྒྱལ་བཅག་ནས་གཡུང་དྲུང་གི་
[223a.6]མཐར་ཕྱིན་པ་དང་། གྲུབ་པ་དང་བདེ་བའི་མྱ་ངན་ལས་འདས་པ་ལ་གཞག་པ་གཟིགས། བཅོམ་ལྡན་འདས་ཀྱིས་བཀའ་སྩལ་པ། ད་ལྟར་འབའ་ཞིག་མ་ཡིན་ཏེ། འདས་པའི་དུས་ན་ཡང་འདི་རྣམས་ལྷར་བཅས་ལས་བརྟེན་ཏེ། དྲེགས་པ་བཅོམ་ནས། བསམ་གཏན་
[223a.7]བཞི་དང་མངོན་པར་ཤེས་པ་ལྔ་ལ་བཀོད་པ་དེ་ཉོན་ཅིག །དགེ་སློང་དག་སྔོན་བྱུང་བ་འདས་པའི་དུས་ན་གྲོང་ཁྱེར་ཙམ་པ་ཞེས་བྱ་བ་ན། རྒྱལ་པོ་གང་ཆེན་མཚོའི་ལྷ་ཞེས་བྱ་བ་རྒྱལ་པོ་བྱེད་དེ། ཕྱི་ཞིག་ན་དེའི་བཙུན་མོ་ལ་བུ་ཆགས་ནས། དེ་ཟླ་བ་དགུའམ་ཟླ་བ་བཅུ་ལོན་
[223b]
[223b.1]པ་དང་བུ་གཟུགས་བཟང་ཞིང་བལྟ་ན་སྡུག་ལ་མཛེས་པ་ཚན་པོ་ཆེའི་སྟོབས་དང་ལྡན་པ་ཞིག་བཙས་ཏེ། དེའི་བཙས་སྟོན་རྒྱས་པར་བྱས་ནས། ཁྱེའུ་འདིའི་མིང་ཇི་སྐད་གདགས་ཞེས་མིང་འདོགས་པར་བྱེད་དེ། ཁྱེའུ་འདི་གང་ཆེན་མཚོའི་ལྷའི་བུ་ཡིན་པས་ན་ཁྱེའུ་འདིའི་
[223b.2]མིང་རྒྱ་མཚོའི་ལྷ་ཞེས་གདགས་སོ་ཞེས་ཟེར་ཏོ། །དེ་ནས་ཁྱེའུ་རྒྱ་མཚོའི་ལྷ་འོ་མ་དང་ཞོ་དང་མར་དང་ཞུན་མར་དང་མར་གྱི་ཉིང་གུ་རྣམས་ཀྱིས་བསྐྱེད་བསྲིངས་ཏེ། དེ་གང་གི་ཚེ་ཆེར་སྐྱེས་པ་དེའི་ཚེ་ཁྱེའུ་དེ་ཡི་གེ་སློབ་ཏུ་བཅུག་སྟེ། རྒྱལ་རིགས་སྤྱི་བོ་ནས་དབང་བསྐུར་བའི་
[223b.3]རྒྱལ་པོ་རྣམས་ཀྱིས་བཟོའི་གནས་དང་ལས་ཀྱི་གནས་ཐ་དད་པ་འདི་ལྟ་སྟེ། གླང་པོ་ཆེ་ཞོན་པ་དང་། རྟ་ཞོན་པ་དང་། མཚོན་ཆ་བཅང་བ་དང་། འཕོང་བ་དང་། མདུན་དུ་བསྣུར་བ་དང་། ཕྱིར་བསྣུར་བ་དང་། གཡུལ་ལས་འབྱུང་བར་བྱ་བ་དང་། ལྕགས་ཀྱུ་གཟུང་བ་དང་། ཞགས་
[223b.4]པ་གཟུང་བ་དང་། མདའ་བོ་ཆེ་འཕང་བ་དང་། རྡོ་རྗེ་རྩེ་གཅིག་པ་འཕང་བ་དང་། མཚོན་རྩེ་གཅིག་པ་གདབ་པ་དང་། འཁོར་ལོ་འཕང་བ་དང་། གཅད་པ་དང་། གཤེག་པ་དང་། ལག་པས་གཟུང་བ་དང་། རྐང་པའི་སྟབས་དང་། མགོ་བོ་བསྐྱབ་པ་དང་། རྒྱང་མར་འཕང་བ་དང་།
[223b.5]སྒྲ་གྲག་པར་འཕང་བ་དང་། གནད་དུ་འཕང་བ་དང་། གདོན་མི་ཟ་བར་ཕོག་པར་བྱ་བ་དང་། ཚབས་ཆེར་གཏང་བ་རྣམས་ཀྱང་བསླབས་ནས་གནས་ལྔ་ལ་བྱང་བར་གྱུར་ཏོ། །དེ་ནས་དེས་བལྟས་ན། ཕ་ཆོས་བཞིན་དང་། ཆོས་བཞིན་མ་ཡིན་པར་རྒྱལ་སྲིད་བྱེད་པ་མཐོང་ནས་
[223b.6]དེའི་བློ་སྐྱེས་པ། ཕ་འདས་པའི་འོག་ཏུ་བདག་གིས་རྒྱལ་སྲིད་ཀྱི་དབང་ཕྱུག་ལ་དབང་བྱ་དགོས་པར་འགྱུར་གྱིས། བདག་གིས་ཁྱིམ་ན་གནས་པ་བཏང་ལ་ནགས་ཀྱི་ནང་དུ་གནས་བཅའ་བར་བྱའོ་སྙམ་དུ་བསམས་ནས། ཡབ་ལ་གསོལ་ཏེ་ནགས་ཀྱི་ནང་དུ་གནས་བཅས་
[223b.7]སོ། །དེས་དེར་སོང་ནས་བསམ་གཏན་བཞི་དང་མངོན་པར་ཤེས་པ་ལྔ་བསྐྱེད་དོ། །དེ་རབ་ཏུ་བྱུང་བ་དང་རྒྱལ་པོའི་བློན་པོ་ལྔ་བརྒྱའི་བུ་བཙས་ནས། དེ་དག་གང་གི་ཚེ་ཆེར་སྐྱེས་པ་དེའི་ཚེ། དེ་དག་ཡི་གེ་སློབ་ཏུ་བཅུག་སྟེ་གནས་ལྔའི་བར་དུ་བྱང་བར་གྱུར་ཏོ། །དེ་དག་བློ་
[224a]
[224a.1]འདི་ལྟ་བུ་སྐྱེས་ཏེ་གཞན་སུ་ཡང་བྱད་གཟུགས་དང་སྟོབས་དང་ཤེས་པས་བདག་ཅག་དང་མཉམ་པ་ཡང་མེད་ན་ལྷག་པ་ལྟ་ཅི་སྨོས་སྙམ་མོ། །དེ་ནས་འཕོང་གི་སློབ་དཔོན་གྱིས་དེ་དག་ལ་སྨྲས་པ། བུ་དག་དེ་སྐད་མ་ཟེར་ཅིག །ཁྱོད་ནི་རྒྱལ་པོ་འདི་ཉིད་ཀྱི་བུ་རབ་
[224a.2]ནགས་ཀྱི་ནང་དུ་གནས་བཅས་པ་དེའི་བྱད་གཟུགས་དང་སྟོབས་དང་ཤེས་པའི་བརྒྱའི་ཆར་ཡང་མི་ཕོད་སྟོང་གི་ཆར་ཡང་མི་ཕོད་དོ་ཞེས་བྱས་ནས། དེ་ཐོས་མ་ཐག་ཏུ་གཞོན་ནུ་དེ་དག་དྲང་སྲོང་དེ་ལྟ་འདོད་པར་གྱུར་ཏེ། འཕོང་གི་སློབ་དཔོན་དེ་ཉིད་དང་ལྷན་ཅིག་ཏུ་དྲང་སྲོང་དེ་ག་ལ་བ་དེར་དོང་
[224a.3]ནས། གཞོན་ནུ་ལྔ་བརྒྱ་པོ་དེ་དག་གིས་ཐག་རིང་པོ་ཞིག་ནས་དྲང་སྲོང་མཛེས་ཤིང་ཡིད་དུ་འཐད་ལ་དབང་པོ་ཞི་ཞིང་ཡིད་ཞི་བ་དེ་མཐོང་ངོ་། །མཐོང་ནས་ཀྱང་དེ་དག་གི་གཟུགས་ཀྱི་རྒྱགས་པ་གང་ཡིན་པ་དེ་མེད་པར་གྱུར་ཏེ། དེ་དག་གིས་བསམས་པ། བདག་ཅག་གི་སློབ་དཔོན་གྱིས་
[224a.4]འདིའི་བྱད་གཟུགས་མཛེས་པ་དང་ཡོན་ཏན་རྣམས་བསྔགས་པ་ལས། འདིའི་བྱད་གཟུགས་དེ་ཁོ་ན་བཞིན་དུ་གྱུར་པ་ལས་ན། འདིའི་ཡོན་ཏན་རྣམས་ཀྱང་དེ་ཁོ་ན་བཞིན་དུ་ཡོད་པར་ངེས་ཀྱིས། བདག་ཅག་ཁྱིམ་ན་གནས་པ་བཏང་ལ་འདི་ཉིད་ཀྱི་ཐད་དུ་ཚངས་པར་སྤྱོད་པར་སྤྱད་
[224a.5]པར་བྱའོ་སྙམ་དུ་བསམས་ནས་དེ་ཉིད་ཀྱི་ཐད་དུ་རབ་ཏུ་བྱུང་སྟེ། དེ་དག་དེར་རབ་ཏུ་བྱུང་ནས་བསམ་གཏན་བཞི་དང་མངོན་པར་ཤེས་པ་ལྔ་བསྐྱེད་དོ། །དགེ་སློང་དག་ཇི་སྙམ་དུ་སེམས། དེའི་ཚེ་དྲང་སྲོང་དུ་གྱུར་པ་བྱང་ཆུབ་སེམས་དཔའི་སྤྱོད་པ་ལ་གནས་པ་གང་ཡིན་པ་དེ་ནི་ང་ཉིད་
[224a.6]ཡིན་ནོ། །དེའི་ཚེ་གཞོན་ནུ་ལྔ་བརྒྱར་གྱུར་པ་གང་ཡིན་པ་དེ་དག་ནི་འདི་དག་ཉིད་ཡིན་ནོ། །དེའི་ཚེ་འཕོང་གི་སློབ་དཔོན་དུ་གྱུར་པ་གང་ཡིན་པ་དེ་ནི་ལྷར་བཅས་འདི་ཁོ་ན་ཡིན་ཏེ། དེའི་ཚེ་ཡང་འདི་རྣམས་ལྷར་བཅས་འདི་ཁོ་ན་ལ་བརྟེན་ཏེ། ངས་དྲེགས་པ་བཅོམ་ནས་བསམ་གཏན་
[224a.7]བཞི་དང་མངོན་པར་ཤེས་པ་ལྔ་ལ་བཀོད་དོ། །ད་ལྟར་ཡང་འདི་རྣམས་ལྷར་བཅས་ཁོ་ན་ལས་བརྟེན་ཏེ། ངས་གཡུང་དྲུང་གི་མཐར་ཐུག་པ་གྲུབ་པ་དང་བདེ་བའི་མྱ་ངན་ལས་འདས་པ་ལ་བཀོད་དོ། །གཞན་ཡང་ཡང་དག་པར་རྫོགས་པའི་སངས་རྒྱས་འོད་སྲུང་གི་གསུང་རབ་ལ་འདི་
[224b]
[224b.1]དག་ཐམས་ཅད་རབ་ཏུ་བྱུང་སྟེ། དེར་འདི་རྣམས་ཀྱིས་ཚེ་གཅིག་ཏུ་ཚངས་པར་སྤྱོད་པ་སྤྱད་ནས་འཆི་ཀར་སྨོན་ལམ་བཏབ་པ། ཡང་དག་པར་རྫོགས་པའི་སངས་རྒྱས་འོད་སྲུང་གིས་བྲམ་ཟེའི་ཁྱེའུ་བླ་མ་ལུང་བསྟན་པ་གང་ཡིན་པའི་སངས་རྒྱས་བཅོམ་ལྡན་འདས་དེ་བདག་ཅག་གིས་
[224b.2]མཉེས་པར་བྱེད་པར་གྱུར་ཅིག །མི་མཉེས་པར་བྱེད་པར་མ་གྱུར་ཅིག །དེ་ཁོ་ནའི་བསྟན་པ་ལ་རབ་ཏུ་བྱུང་ནས་ཉོན་མོངས་པ་ཐམས་ཅད་སྤངས་ཏེ་དགྲ་བཅོམ་པ་ཉིད་མངོན་སུམ་དུ་བྱེད་པར་ཤོག་ཅིག་ཅེས་བྱས་སོ། །དགེ་སློང་དག་ཇི་སྙམ་དུ་སེམས་དེའི་ཚེ། ཡང་དག་པར་
[224b.3]རྫོགས་པའི་སངས་རྒྱས་འོད་སྲུང་གི་གསུང་རབ་ལ་རབ་ཏུ་བྱུང་བའི་དགེ་སློང་ལྔ་བརྒྱ་པོ་གང་ཡིན་པ་དེ་དག་ནི། ད་ལྟར་རབ་ཏུ་བྱུང་བ་འདི་དག་ཉིད་ཡིན་ཏེ། དེ་དག་གིས་དེར་རབ་ཏུ་བྱུང་ནས་ཚེ་གཅིག་གི་བར་དུ་ཚངས་པར་སྤྱོད་པ་སྤྱད་ནས་འཆི་ཀར་སྨོན་ལམ་བཏབ་སྟེ། ཡང་དག་
[224b.4]པར་རྫོགས་པའི་སངས་རྒྱས་འོད་སྲུང་གིས་བྲམ་ཟེའི་ཁྱེའུ་བླ་མ་ལུང་བསྟན་པ་གང་ཡིན་པའི་སངས་རྒྱས་བཅོམ་ལྡན་འདས་དེ་བདག་ཅག་གིས་མཉེས་པར་བྱེད་པར་གྱུར་ཅིག །མི་མཉེས་པ་བྱེད་པར་མ་གྱུར་ཅིག །དེ་ཁོ་ནའི་བསྟན་པ་ལ་རབ་ཏུ་བྱུང་ནས་ཉོན་མོངས་པ་ཐམས་
[224b.5]ཅད་སྤངས་ཏེ། དགྲ་བཅོམ་པ་ཉིད་མངོན་སུམ་དུ་བྱེད་པར་ཤོག་ཅིག་ཅེས་བྱས་པ་དེས་ན། དགེ་སློང་དག་ང་ཡང་དག་པར་རྫོགས་པའི་སངས་རྒྱས་འོད་སྲུང་དང་ཤིན་ཏུ་མཉམ་པ་དང་། ཤུགས་མཉམ་པ་དང་། མཛད་པ་མཉམ་པ་དང་། ཐབས་མཉམ་པ་བརྙེས་པར་གྱུར་
[224b.6]ནས། འདི་རྣམས་ཀྱིས་ང་མཉེས་པར་བྱས་ཏེ་མི་མཉེས་པར་མ་བྱས་ལ་ང་ཉིད་ཀྱི་བསྟན་པ་ལ་རབ་ཏུ་བྱུང་ནས་ཉོན་མོངས་པ་ཐམས་ཅད་སྤངས་ཏེ་དགྲ་བཅོམ་པ་ཉིད་མངོན་སུམ་དུ་བྱས་སོ།། །།