སྙིང་རྗེ་བཟང་པོ་ཞེས་བྱ་བ་ནི། གླེང་གཞི་ཡངས་པ་ཅན་ན་བཞུགས་ཏེ། དེའི་ཚེ་ཡངས་པ་ཅན་ན་སྡེ་དཔོན་སེང་
[227a.2]གེ་ཞེས་བྱ་བ་ཞིག་འདུག་སྟེ། ཕྱི་ཞིག་ན་དེའི་ཆུང་མ་ལ་བུ་ཆགས་ནས་དེ་ཟླ་བ་དགུའམ་བཅུ་ལོན་པ་དང་ཁྱེའུ་གཟུགས་བཟང་ཞིང་བལྟ་ན་སྡུག་ལ་མཛེས་པ་ཚན་པོ་ཆེའི་སྟོབས་དང་ལྡན་པ་ཞིག་བཙས་ཏེ། དེའི་བཙས་སྟོན་རྒྱས་པར་བྱས་ནས་མིང་སྙིང་རྗེ་བཟང་པོ་ཞེས་བཏགས་སོ། །དེ་ནས་ཁྱེའུ་
[227a.3]སྙིང་རྗེ་བཟང་པོ་འོ་མ་དང་ཞོ་དང་མར་དང་ཞུན་མར་དང་མར་གྱི་ཉིང་གུ་རྣམས་ཀྱིས་བསྐྱེད་བསྲིངས་ཏེ། དེ་གང་གི་ཚེ་ཆེར་སྐྱེས་པ་དེའི་ཚེ་ཁྱེའུ་དེ་ཡི་གེ་སློབ་ཏུ་བཅུག་སྟེ། རྒྱལ་རིགས་སྤྱི་བོ་ནས་དབང་བསྐུར་བའི་རྒྱལ་པོ་རྣམས་ཀྱིས་བཟོའི་གནས་དང་། ལས་ཀྱི་གནས་ཐ་དད་པ་འདི་ལྟ་
[227a.4]སྟེ་གླང་པོ་ཆེ་ཞོན་པ་དང་། རྟ་ཞོན་པ་དང་། མཚོན་ཆ་བཅང་བ་དང་། འཕོང་དང་མདུན་དུ་བསྣུར་བ་དང་། ཕྱིར་བསྣུར་བ་དང་། གཡུལ་ལས་འབྱུང་བར་བྱ་བ་དང་། ལྕགས་ཀྱུ་གཟུང་བ་དང་། ཞགས་པ་གཟུང་བ་དང་། མདའ་བོ་ཆེ་འཕང་བ་དང་། རྡོ་རྗེ་རྩེ་གཅིག་པ་འཕང་
[227a.5]བ་དང་། མཚོན་རྩེ་གཅིག་པ་གདབ་པ་དང་། འཁོར་ལོ་འཕང་བ་དང་། གཅད་པ་དང་། གཤེག་པ་དང་། ལག་པས་གཟུང་བ་དང་། རྐང་པའི་སྟབས་དང་། མགོ་བོ་བསྐྱབ་པ་དང་། རྒྱང་མར་འཕང་བ་དང་། སྒྲ་གྲག་པར་འཕང་བ་དང་། གནད་དུ་འཕང་བ་དང་། གདོན་མི་ཟ་བར་ཕོག་
[227a.6]པར་བྱ་བ་དང་། ཚབས་ཆེར་གཏང་བ་རྣམས་ཀྱང་བསླབས་ནས་གནས་ལྔ་ལ་བྱང་བར་གྱུར་ཏོ། །དེ་ནས་དེ་མ་གྲངས་ནས་འཕྱོན་མ་རྣམས་ལ་ཡང་ཞུགས་སོ། །ཕྱིས་རེ་ཞིག་ན་དེ་ཕས་མཛའ་སྡེའི་ཁྲོད་དུ་བཏང་ནས་མཛའ་སྡེ་དེ་དག་དཔྱིད་ཀྱི་དུས་སུ་ཤིང་གྲིབ་མེ་ཏོག་རྒྱས་པ། ནེ་ཙོ་དང་རི་སྐེགས་
[227a.7]དང་རྨ་བྱ་དང་ཁུ་བྱུག་དང་ཤང་ཤང་ཏེའུ་རྣམས་སྐད་འབྱིན་པའི། སྐྱེད་མོས་ཚལ་གྱི་ནགས་ཁྲོད་དུ་སྨད་འཚོང་མའི་གཙོ་མོ་ཁྲིད་དེ་སོང་ནས་དེ་དག་དེ་ན་འཁོད་པ་ལས་སྨད་འཚོང་མའི་ཕྱིར་ཐབ་མོ་བྱུང་སྟེ། ཁྱེའུ་སྙིང་རྗེ་བཟང་པོ་ཁྲོས་པས་མཛའ་སྡེ་གསུམ་བསད་ནས། མཛའ་སྡེ་
[227b]
[227b.1]རྣམས་དོང་སྟེ་སྡེ་དཔོན་སེང་གེ་ལ་སྨྲས་སོ། །དེ་ནས་སྡེ་དཔོན་སེང་གེས་དེ་ཐོས་ནས་བུ་དེ་བུ་མ་ཡིན་པར་བསྒྲགས་ཏེ་ཁྱིམ་ནས་ཀྱང་བསྐྲད་དོ། །དེ་ནས་ཡངས་པ་ཅན་གྱི་ལིཙྪ་བཱི་རྣམས་ཀྱིས་དེ་གསོད་དུ་བཏང་སྟེ། ཀ་ར་བཱི་རའི་མེ་ཏོག་གི་ཕྲེང་བས་མགུལ་པ་དཀྲིས་ནས། གཤེད་མ་ལ་
[227b.2]གཏད་དེ། གཤེད་མའི་མི་གོས་སྔོན་པོ་བགོས་ལ་རལ་གྲི་ཕྱུང་སྟེ་རྔ་སྒྲ་དྲག་པོ་སྒྲོགས་པ་དག་གིས། ཁྲིད་ནས་ལམ་པོ་ཆེའི་མདོ་རྣམས་སུ་བསྒྲགས་ཏེ། གསད་པའི་སར་ཕྱིན་ཏུ་ཉེ་བ་དང་དེ་སྲོག་གི་ཕྱིར་འཇིགས་ཤིང་སྐྲག་ནས་ཕན་ཚུན་དུ་ལྟ་སྟེ། བདག་ཕོངས་ཤིང་དཀོས་ཐག་པ་དང་
[227b.3]སྡུག་པའི་སྐྱབས་བྱེད་པ་དང་སྲོག་ཕངས་པ་སྦྱིན་པ་སུ་ཞིག་ཡོད་ཞིག་གུ་སྙམ་མོ། །སངས་རྒྱས་བཅོམ་ལྡན་འདས་བགྲོད་པ་གཅིག་པུའི་ལམ་སྟོན་པ། རྣམ་པ་གཉིས་ཀྱི་ཤེས་བྱ་དང་ཡེ་ཤེས་ལ་མངའ་བརྙེས་པ། མ་འདྲེས་པའི་དྲན་པ་ཉེ་བར་གཞག་པ་གསུམ་ལ་མཁས་པ།
[227b.4]མི་འཇིགས་པ་བཞིས་མི་འཇིག་པ། འགྲོ་བ་ལྔར་འགྲོ་བ་ལས་རྣམ་པར་གྲོལ་བ། སྐྱེ་མཆེད་དྲུག་ལ་མཁས་པ། བྱང་ཆུབ་ཀྱི་ཡན་ལག་བདུན་ལ་སྤྱོད་ཡུལ་བ། རྣམ་པར་ཐར་པ་བརྒྱད་ལ་བསམ་གཏན་པ། མཐར་གྱིས་གནས་པའི་སྙོམས་པར་འཇུག་པ་དགུ་ལ་སྙོམས་པར་
[227b.5]འཇུག་པ། སྟོབས་བཅུའི་སྟོབས་དང་ལྡན་པ། ཡང་དག་པའི་སེང་གེའི་སྒྲ་ཆེན་པོ་སྒྲོགས་པ་རྣམས་ནི་ཆོས་ཉིད་ཀྱིས་ཉིན་དུས་གསུམ་མཚན་དུས་གསུམ་སྟེ། ཉིན་མཚན་དུས་དྲུག་ཏུ་སངས་རྒྱས་ཀྱི་སྤྱན་གྱིས་འཇིག་རྟེན་ལ་གཟིགས་ཏེ། སུ་ནི་རྒུད། སུ་ནི་དར། སུ་ནི་ཕོངས་
[227b.6]ཤིང་འདུག །སུ་ནི་ཉམ་ང་བར་གྱུར། སུ་ནི་གནོད་པ་དང་ལྡན། སུ་ནི་ཕོངས་པ་དང་ཉམ་ང་བ་དང་གནོད་པ་དང་ལྡན། སུ་ནི་ངན་སོང་དུ་གཞོལ། སུ་ནི་ངན་སོང་དུ་འབབ། སུ་ནི་ངན་སོང་དུ་བབ། སུ་ནི་ངས་ངན་སོང་ནས་ཕྱུང་སྟེ། མཐོ་རིས་དང་ཐར་པ་དང་འབྲས་བུ་ལ་གཞག་པར་བྱ།
[227b.7]སུ་ནི་ཉེས་པར་སྤྱོད་པའི་འདམ་དུ་བྱིང་བ་ལས་ལག་ནས་དྲང་བར་བྱ། སུ་ནི་འཕགས་པའི་ནོར་བདུན་མེད་པ་ལས་འཕགས་པའི་ནོར་བདུན་གྱི་དབང་ཕྱུག་ལ་དབང་བྱེད་དུ་གཞུག་པར་བྱ། སུ་ནི་དགེ་བའི་རྩ་བ་རྣམས་མ་བསྐྱེད་པ་ལས་བསྐྱེད་པར་བྱ། སུ་ནི་དགེ་བའི་རྩ་བ་རྣམས་བསྐྱེད་
[228a]
[228a.1]ཟིན་པ་ལས་ཡོངས་སུ་སྨིན་པར་བྱ། སུ་ནི་དགེ་བའི་རྩ་བ་རྣམས་ཡོངས་སུ་སྨིན་ཟིན་པ་ལས་ཡེ་ཤེས་ཀྱི་མཚོན་གྱིས་བརྟོལ་བར་བྱ། སུ་ལ་ནི་སངས་རྒྱས་བྱུང་བས་བརྒྱན་པའི་འཇིག་རྟེན་འབྲས་བུ་དང་བཅས་པར་བྱ་སྙམ་དུ་ཡེ་ཤེས་གཟིགས་པ་འཇུག་གོ། །རྒྱ་མཚོ་ཆུ་
[228a.2]སྲིན་རྣམས་ཀྱི་གནས། །དུས་རླབས་ཡོལ་བར་འགྱུར་ཡང་སྲིད། །གདུལ་བར་བྱ་བའི་སྲས་རྣམས་ལ། །སངས་རྒྱས་དུས་ལས་ཡོལ་བ་མེད། །དེ་ནས་བཅོམ་ལྡན་འདས་ཀྱིས་དགོངས་པ། ཁྱེའུ་སྙིང་རྗེ་བཟང་པོ་གདུལ་བའི་དུས་ལ་བབ་བོ་སྙམ་དུ་དགོངས་ནས་སྤྲེའུ་རྫིང་གི་
[228a.3]འགྲམ་ནས་མི་སྣང་བར་གྱུར་ཏེ། ཁྱེའུ་སྙིང་རྗེ་བཟང་པོའི་མདུན་དུ་བཞུགས་སོ། །དེ་ནས་ཁྱེའུ་སྙིང་རྗེ་བཟང་པོས་ཐག་རིང་པོ་ཞིག་ནས་བཅོམ་ལྡན་འདས་མཐོང་ངོ་། །མཐོང་ནས་ཀྱང་ཞབས་ལ་ཕྱག་འཚལ་ཏེ་གསོལ་པ། བཅོམ་ལྡན་འདས་བདག་ལ་དཀའ་བ་མཛད་ཅིང་སྲོག་
[228a.4]ཕངས་པའི་སྦྱིན་པ་མཛད་དུ་གསོལ། བཅོམ་ལྡན་འདས་ཀྱིས་བཀའ་སྩལ་པ། གཞོན་ནུ་ཁྱོད་ད་ནི་སྲོག་ཆུད་ཟ་བར་འགྱུར་བའི་འཇིགས་པ་མེད་ཀྱིས་མ་སྐྲག་ཤིག་ཅེས་བཀའ་སྩལ་ནས། བཅོམ་ལྡན་འདས་ཀྱིས་ཡངས་པ་ཅན་གྱི་མི་རྣམས་ལ་བཀའ་སྩལ་པ། བཞིན་
[228a.5]བཟངས་དག་ཁྱེའུ་འདི་བསད་དེ་ཅི་རུང་གིས་ཐོང་ཤིག །ཡངས་པ་ཅན་གྱི་མི་རྣམས་ཀྱིས་གསོལ་པ། བཙུན་པ་གལ་ཏེ་རབ་ཏུ་བྱུང་ན་ནི་བཏང་བར་འཚལ་ལོ་ཞེས་གསོལ་ཏོ། །བཅོམ་ལྡན་འདས་ཀྱིས་ཁྱེའུ་དེ་རབ་ཏུ་ཕྱུང་ཞིང་བསྙེན་པར་རྫོགས་པར་མཛད་ནས། དེ་ལ་ལུང་ཡང་ཕོག་སྟེ།
[228a.6]དེས་ཀྱང་བརྩོན་པ་དང་བསྒྲུབ་པ་དང་འབད་པས་ཉོན་མོངས་པ་ཐམས་ཅད་སྤངས་ནས་དགྲ་བཅོམ་པ་ཉིད་མངོན་སུམ་དུ་བྱས་སོ། །དེ་ནས་དགེ་སློང་རྣམས་ཀྱིས་བཅོམ་ལྡན་འདས་ལ་གསོལ་པ། བཙུན་པ་ཁྱེའུ་སྙིང་རྗེ་བཟང་པོ་མ་གྲངས་པའི་སླད་དུ། ཡངས་པ་ཅན་གྱི་མི་རྣམས་ཀྱིས་གསོད་
[228a.7]དུ་བཏང་བ་ལས་བཅོམ་ལྡན་འདས་ཀྱིས་ཐར་བར་མཛད་དེ། གཡུང་དྲུང་གི་མཐར་ཐུག་པ། གྲུབ་པ་དང་བདེ་བའི་མྱ་ངན་ལས་འདས་པ་ལ་བཞག་པ་ལ་གཟིགས། བཅོམ་ལྡན་འདས་ཀྱིས་བཀའ་སྩལ་པ། ད་ལྟར་འབའ་ཞིག་མ་ཡིན་ཏེ། འདས་པའི་དུས་ན་ཡང་འདི་མ་གྲངས་
[228b]
[228b.1]ཤིང་གཡེམ་པར་གྱུར་ནས་སྐྱེ་བོ་ཕལ་པོ་ཆེས་གསོད་དུ་བཏང་བ་ལས། ངས་སྐྱབས་བྱས་ཏེ། བསམ་གཏན་བཞི་དང་མངོན་པར་ཤེས་པ་ལྔ་ལ་ཇི་ལྟར་བཞག་པ་ཉོན་ཅིག །དགེ་སློང་དག་སྔོན་བྱུང་བ་འདས་པའི་དུས་ན་རི་ཁྲོད་ཀྱི་གྲོང་ཞིག་ན། ཡུལ་མི་ཁ་མི་མཁས་ཤིང་གཡེམ་པ་ཞིག་
[228b.2]འདུག་ནས། སྐྱེ་བོ་མང་པོ་གླགས་ཚོལ་ཞིང་འདུག་པ་ལས། དེ་དག་གིས་གླགས་རྙེད་ནས་གཞན་གྱི་ཆུང་མ་ལ་བྱི་པོ་བྱེད་པ་ལས་བཟུང་སྟེ། རྒྱལ་པོ་ལ་ཕུལ་ནས་རྒྱལ་པོས་དེ་གསོད་དུ་བཏང་སྟེ། དེ་གཤེད་མ་རྣམས་ཀྱིས་ཁྲིད་དེ་གསད་པའི་སར་ཕྱིན་དུ་ཉེ་བ་དང་། རི་ཁྲོད་ཀྱི་གྲོང་དེ་ནས་ཐག་མི་
[228b.3]རིང་བ་དཀའ་ཐུབ་ཀྱི་གནས་ཞིག་ན་དྲང་སྲོང་ཞིག་གནས་ཏེ། དྲང་སྲོང་དེ་སྤྱོད་ཡུལ་ལ་ཆས་ནས་མི་དེ་དེས་མཐོང་ནས། མཐོང་མ་ཐག་ཏུ་རྐང་པ་ལ་ཕྱག་འཚལ་ཏེ། སྨྲས་པ་དྲང་སྲོང་བདག་ལ་དཀའ་བ་མཛད་པ་དང་། སྲོག་གི་སྦྱིན་པ་མཛད་དུ་གསོལ། དེ་ནས་དྲང་སྲོང་དེས་རྒྱལ་པོ་ལ་
[228b.4]གཏོད་དུ་བཅུག་ནས། དཀའ་ཐུབ་ཀྱི་གནས་སུ་ཁྲིད་དེ་རབ་ཏུ་ཕྱུང་ནས། དེར་བསམ་གཏན་བཞི་དང་མངོན་པར་ཤེས་པ་ལྔ་བསྐྱེད་དོ། །དགེ་སློང་དག་ཇི་སྙམ་དུ་སེམས། དེའི་ཚེ་དྲང་སྲོང་དུ་གྱུར་པ་བྱང་ཆུབ་སེམས་དཔའི་སྤྱོད་པ་ལ་གནས་པ་གང་ཡིན་པ་དེ་ནི་ང་ཡིན་ནོ། །དེའི་ཚེ་མི་དེ་ནི་
[228b.5]ཁྱེའུ་སྙིང་རྗེ་བཟང་པོ་འདི་ཁོ་ན་ཡིན་ཏེ། དེའི་ཚེ་ཡང་འདི་སྐྱེ་བོ་ཕལ་པོ་ཆེས་གསོད་དུ་བཏང་བ་ལས། ངས་སྐྱབས་བྱས་ནས་བསམ་གཏན་བཞི་དང་མངོན་པར་ཤེས་པ་ལྔ་ལ་བཞག་གོ། །ད་ལྟར་ཡང་འདི་མ་གྲངས་པའི་ཕྱིར་ཡངས་པ་ཅན་གྱི་མི་རྣམས་ཀྱིས་གསོད་དུ་བཏང་བ་ལས་
[228b.6]ངས་དེ་ལས་ཐར་བར་བྱས་ནས་གཡུང་དྲུང་གི་མཐར་ཕྱིན་པ་གྲུབ་པ་དང་བདེ་བའི་མྱ་ངན་ལས་འདས་པ་ལ་བཞག་གོ། །གཞན་ཡང་ཡང་དག་པར་རྫོགས་པའི་སངས་རྒྱས་འོད་སྲུང་གི་གསུང་རབ་ལ་འདི་རབ་ཏུ་བྱུང་ནས། དེར་འདིས་ཚེ་གཅིག་ཏུ་ཚངས་པར་སྤྱོད་པ་སྤྱད་ནས་འཆི་
[228b.7]ཀར་སྨོན་ལམ་བཏབ་པ། ཡང་དག་པར་རྫོགས་པའི་སངས་རྒྱས་འོད་སྲུང་གིས་བྲམ་ཟེའི་ཁྱེའུ་བླ་མ་ལུང་བསྟན་པ་གང་ཡིན་པའི་སངས་རྒྱས་བཅོམ་ལྡན་འདས་དེ་བདག་གིས་མཉེས་པར་བྱེད་པར་གྱུར་ཅིག །མི་མཉེས་པར་བྱེད་པར་མ་གྱུར་ཅིག །དེ་ཁོ་ནའི་བསྟན་པ་ལ་རབ་ཏུ་བྱུང་
[229a]
[229a.1]ནས་ཉོན་མོངས་པ་ཐམས་ཅད་སྤངས་ཏེ་དགྲ་བཅོམ་པ་ཉིད་མངོན་སུམ་དུ་བྱེད་པར་གྱུར་ཅིག་ཅེས་བྱས་སོ། །དགེ་སློང་དག་ཇི་སྙམ་དུ་སེམས། དེའི་ཚེ་དགེ་སློང་དུ་གྱུར་པ་གང་ཡིན་པ་དེ་ནི་སྙིང་རྗེ་བཟང་པོ་འདི་ཁོ་ན་ཡིན་ཏེ། དེས་དེར་ཚེ་གཅིག་ཏུ་ཚངས་པར་སྤྱོད་པ་སྤྱད་
[229a.2]ནས་འཆི་ཀར་སྨོན་ལམ་བཏབ་སྟེ། ཡང་དག་པར་རྫོགས་པའི་སངས་རྒྱས་འོད་སྲུང་གིས་བྲམ་ཟེའི་ཁྱེའུ་བླ་མ་ལུང་བསྟན་པ་གང་ཡིན་པའི་སངས་རྒྱས་བཅོམ་ལྡན་འདས་དེ་བདག་གིས་མཉེས་པར་བྱེད་པར་གྱུར་ཅིག །མི་མཉེས་པར་བྱེད་པར་མ་གྱུར་ཅིག །དེ་ཁོ་ནའི་བསྟན་
[229a.3]པ་ལ་རབ་ཏུ་བྱུང་ནས་ཉོན་མོངས་པ་ཐམས་ཅད་སྤངས་ཏེ་དགྲ་བཅོམ་པ་ཉིད་མངོན་སུམ་དུ་བྱེད་པར་གྱུར་ཅིག་ཅེས་བྱས་པ་དེས་ན། དགེ་སློང་དག་ང་ཡང་དག་པར་རྫོགས་པའི་སངས་རྒྱས་འོད་སྲུང་དང་ཤིན་ཏུ་མཉམ་པ་དང་། ཤུགས་མཉམ་པ་དང་། མཛད་པ་མཉམ་པ་དང་།
[229a.4]ཐབས་མཉམ་པ་བརྙེས་པར་གྱུར་ནས། འདིས་ང་མཉེས་པར་བྱས་ཏེ་མི་མཉེས་པར་མ་བྱས་ལ་ང་ཉིད་ཀྱི་བསྟན་པ་ལ་རབ་ཏུ་བྱུང་ནས་ཉོན་མོངས་པ་ཐམས་ཅད་སྤངས་ཏེ་དགྲ་བཅོམ་པ་ཉིད་མངོན་སུམ་དུ་བྱས་སོ།། །།