ཉམ་ཆུང་བ་ཞེས་བྱ་བ་ནི། གླེང་གཞི་མཉན་དུ་ཡོད་པ་ན་བཞུགས་ཏེ། ཁྱིམ་བདག་མགོན་མེད་ཟས་སྦྱིན་ལ་མཐར་གྱི་བུ་བདུན་བྱུང་ནས། དེ་དག་རིགས་དང་འཐུན་པར་མིང་བཏགས་ཏེ། འོ་མ་དང་།
[40b.6]ཞོ་དང་། མར་དང་། ཞུན་མར་དང་། མར་གྱི་ཉིང་གུས་བསྐྱེད་བསྲིངས་ཏེ། མཚོའི་ནང་གི་པད་མ་བཞིན་དུ་སྐྱེ་དྲག་པར་གྱུར་ཏོ། །དེ་ནས་ཕྱི་ཞིག་ན་ཁྱིམ་བདག་མགོན་མེད་ཟས་སྦྱིན་གྱིས་བསམས་པ། བདག་གི་བྱིས་པ་འདི་དག་མཛའ་སྡེ་དག་གི་ནང་དུ་གཟུད་པར་བྱའོ། །དེ་ཡང་དད་པ་དང་ལྡན་
[40b.7]པ་རྣམས་ཀྱི་ནང་དུ་གཟུད་པར་བྱའི། མ་དད་པ་རྣམས་ཀྱི་ནང་དུ་ནི་གཟུད་པར་མི་བྱའོ། །གལ་ཏེ་མ་དད་པ་རྣམས་ཀྱི་ནང་དུ་བཙུད་པར་གྱུར་ན་ནི། འདི་དག་ཀྱང་དེ་དག་གི་བསྟན་པས་སངས་རྒྱས་ཀྱི་བསྟན་པ་ལ་མི་ལྟ་བར་འགྱུར་སྲིད་དོ་སྙམ་ནས། སངས་རྒྱས་པའི་མཛའ་སྡེའི་ནང་དུ་བཙུད་དོ། །དེ་
[41a]
[41a.1]ལ་མ་དད་པའི་མཛའ་སྡེ་གང་ཡིན་པ་དེ་དག་ནི་གར་ཐབས་དང་གྲོང་རྒྱུ་བ་དང་། སྨད་འཚོང་མ་རྣམས་ལ་ཆགས་ཤིང་འཁོད་དོ། །ཁྱིམ་བདག་མགོན་མེད་ཟས་སྦྱིན་གྱི་བུ་རྣམས་ནི། དགེ་བསྙེན་གྱི་མཛའ་སྡེ་རྣམས་དང་། སངས་རྒྱས་དང་། ཆོས་དང་། དགེ་འདུན་ལ་
[41a.2]ལྷག་པར་བྱ་བ་བྱེད་པ་དང་། བསྙེན་གནས་དང་། ཆོས་མཉན་པ་ལ་ཆགས་ཤིང་འཁོད་དོ། །མཉན་དུ་ཡོད་པ་དེ་ན་བྲམ་ཟེའི་ཁྱེའུ་དབུལ་ཞིང་འཚོ་བས་ཕོངས་པ་ཞིག་འདུག་པ་དེས་བསམས་པ་བདག་མཛའ་སྡེ་དག་གི་ནང་དུ་ཞུགས་ལ། བདག་གིས་དེ་དག་ལ་བརྟེན་ནས་འཚོ་བ་བཙལ་བར་
[41a.3]བྱའོ་སྙམ་ནས། དགེ་བསྙེན་གྱི་མཛའ་སྡེའི་ནང་དུ་འཇུག་པར་འདོད་དེ་དྲིས་པ། ནོར་གྱི་བུངས་ཅི་ཙམ་གྱིས་ན་ཁྱོད་ཀྱི་ནང་དུ་འཇུག་ཏུ་དབང་། དེ་དག་གིས་སྨྲས་པ། ཀཱར་ཥཱ་པ་ཎ་ལྔ་བརྒྱས་ངེད་ཀྱི་ནང་དུ་འཇུག་ཏུ་དབང་ངོ་། །བྲམ་ཟེའི་ཁྱེའུ་དེས་སྨྲས་པ། བདག་ལ་ཀཱར་ཥཱ་པ་ཎ་ལྔ་བརྒྱ་ལྟ་
[41a.4]ག་ལ་ཡོད། དེའི་སྟེང་དུ་ཁྱེད་ནི་དབང་ཕྱུག་གིས་ཆོག་པར་འདུག་ལ་སྦྱིན་པ་ལ་སྲེད་པ་ཡིན་ན། བདག་ནི་དབུལ་པོ་འཚོ་བས་ཕོངས་པ་ཞིག་ཡིན་པས་ན། བདག་གིས་ཁྱོད་ལ་ནོར་དེ་སྙེད་དབུལ་མི་ནུས་སོ། །དེ་ནས་ཁྱིམ་བདག་མགོན་མེད་ཟས་སྦྱིན་གྱི་བུ་རྣམས་ཀྱིས་སྨྲས་པ། གལ་ཏེ་ཁྱོད་
[41a.5]བཅོམ་ལྡན་འདས་ཀྱི་བསྟན་པ་ལ་དད་པར་བྱེད་ན་ནི། ངེད་ཀྱིས་ཁྱོད་ལ་ཀཱར་ཥཱ་པ་ཎ་ལྔ་བརྒྱ་སྦྱིན་ནོ། །བྲམ་ཟེའི་ཁྱེའུས་སྨྲས་པ། དགེ་སྦྱོང་གཽ་ཏ་མ་དེའི་ཡོན་ཏན་རྣམས་བདག་གིས་མི་ཤེས་ན། དགེ་སྦྱོང་གཽ་ཏ་མ་དེའི་ཡོན་ཏན་རྣམས་ཅི་ལྟ་བུ་ཡིན། དེ་ནས་ཁྱིམ་བདག་མགོན་མེད་ཟས་སྦྱིན་གྱི་
[41a.6]བུ་རྣམས་ཀྱིས་བྲམ་ཟེའི་ཁྱེའུ་དེ་ལ་སངས་རྒྱས་ཀྱི་བསྔགས་པ་བརྗོད་དོ། །དེ་ནས་དེ་ཐོས་མ་ཐག་ཏུ་བྲམ་ཟེའི་ཁྱེའུ་དེ། སངས་རྒྱས་ལ་ཤིན་ཏུ་དགའ་བར་གྱུར་ཏོ། །དགའ་བར་གྱུར་ནས་སྨྲས་པ། བདག་ཀྱང་ཁྱེད་ཀྱི་ནང་དུ་འཇུག་པར་བགྱིའོ། །བདག་ཀྱང་སངས་རྒྱས་བཅོམ་ལྡན་འདས་དང་།
[41a.7]ཆོས་དང་། དགེ་འདུན་ལ་སྐྱབས་སུ་མཆི་བར་བགྱིའོ། །དེ་ནས་ཁྱིམ་བདག་མགོན་མེད་ཟས་སྦྱིན་གྱི་བུ་དེ་རྣམས་ཀྱིས་བྲམ་ཟེའི་ཁྱེའུ་དེས་ཚིག་དེ་ལྟ་བུ་བརྗོད་པ་ཐོས་སོ། །ཐོས་ནས་ཀྱང་དེ་རྣམས་ཀྱིས་དེ་ལ་ཀཱར་ཥཱ་པ་ཎ་བརྒྱ་ཕྲག་དུ་མ་བྱིན་ནོ། །བྲམ་ཟེའི་ཁྱེའུ་དེ་ཡང་དེ་རྣམས་ཀྱི་ནང་དུ་ཞུགས་
[41b]
[41b.1]སོ། །དེ་ནས་ཕྱི་ཞིག་ན་མཛའ་སྡེ་བོ་དེ་རྣམས་ཀྱི་བློ་སྐྱེས་པ། སངས་རྒྱས་ལ་སོགས་པ་དགེ་སློང་གི་དགེ་འདུན་ཟླ་བ་གསུམ་གྱི་བར་དུ་སྤྱན་དྲངས་ལ་ཡོ་བྱད་ཐམས་ཅད་ཀྱིས་བསྙེན་བཀུར་བྱའོ་ཞེས་ཟེར་རོ། །དེའི་ནང་ན་ཁ་ཅིག་ན་རེ་བདག་ཅག་ཀུན་གྱིས་ཟླ་བ་གསུམ་ཐོག་ཐག་ཏུ་དེ་འབའ་ཞིག་བྱེད་ཅིང་
[41b.2]འདུག་མི་ནུས་ཀྱི། ཉིན་རེས་ཀྱིས་བཤོས་གསོལ་བར་བྱའོ་ཞེས་ཟེར་རོ། །བྲམ་ཟེའི་ཁྱེའུས་སྨྲས་པ། བདག་ནི་དབུལ་ལ་འཚོ་བས་ཕོངས་ཏེ། ཉིན་རེས་གཟུང་བ་དེ་ལྟ་བུ་བདག་གིས་མི་ནུས་སོ་ཞེས་ཟེར་རོ། །དེར་ཁ་ཅིག་ན་རེ་སུ་སངས་རྒྱས་ལ་སོགས་པ་དགེ་སློང་གི་དགེ་འདུན་ལ་བཤོས་གསོལ་
[41b.3]མི་ནུས་པ་དེ་ནི། བདག་ཅག་གི་ནང་ནས་གུད་དུ་བྱུང་ཅིག་ཅེས་ཟེར་རོ། །དེ་ནས་བྲམ་ཟེའི་ཁྱེའུས་བསམས་པ། བདག་གི་འདི་རྣམས་ཀྱི་ནང་དུ་དེའུ་མ་ཆུད་དེ་ཆུད་ན། བདག་འདི་རྣམས་ཀྱི་ནང་ནས་འབྱུང་བ་ནི་ཆ་མ་ཡིན་ནོ་སྙམ་ནས་སྨྲས་པ། བདག་གིས་ཉིན་རེས་མཇུག་ཏུ་གྱིས་ལ། ཁྱོད་ཀྱི་
[41b.4]ལྷག་རོལ་ཅི་ཡོད་པ་དེ་དག་ཐམས་ཅད་ཀྱང་བདག་ལ་བྱིན་ཅིག །མཛའ་སྡེ་བོ་རྣམས་ཀྱིས་སྨྲས་པ། ཁྱོད་ཅི་ལྟར་དགའ་བ་དེ་བཞིན་དུ་བྱའོ་ཞེས་བྱས་ནས། དེ་རྣམས་ཀྱིས་སངས་རྒྱས་ལ་སོགས་པ་དགེ་སློང་གི་དགེ་འདུན་ཟླ་བ་གསུམ་གྱི་བར་དུ་སྤྱན་དྲངས་ནས། ཉིན་རེས་ཀྱིས་སངས་རྒྱས་ལ་སོགས་པ་དགེ་
[41b.5]སློང་གི་དགེ་འདུན་ལ་ཡོ་བྱད་ཐམས་ཅད་ཀྱིས་ཟླ་བ་གསུམ་གྱི་བར་དུ་བསྙེན་བཀུར་བྱས་སོ། །དེར་དེ་དག་གི་ལྷག་རོལ་ཅི་ཡོད་པ་དེ་དག་ཐམས་ཅད་བྲམ་ཟེའི་ཁྱེའུ་དེ་ལ་བྱིན་ནས། བྲམ་ཟེའི་ཁྱེའུས་དེ་དག་ཐམས་ཅད་བསྡུས་ཏེ། གཞན་དག་ཀྱང་ཀཱར་ཥཱ་པ་ཎ་གཞན་དག་འབུལ་དུ་བཅུག་ནས། ཐ་མའི་
[41b.6]ཉིན་པར་དེས་སངས་རྒྱས་ལ་སོགས་པ་དགེ་སློང་གི་དགེ་འདུན་ཁྱིམ་དུ་སྤྱན་དྲངས་ཏེ། རྒྱལ་པོ་གསལ་རྒྱལ་དང་། ཁྱིམ་བདག་མགོན་མེད་ཟས་སྦྱིན་ལ་ཡང་བསྐུལ་ནས། དེས་དེ་ཉིད་ཀྱི་མཚན་མོ་ལམ་ཡང་མཛེས་པར་བྱས། གྲོང་ཁྱེར་ཡང་མཛེས་པར་བྱས་ནས། དེ་ཉིད་ཀྱི་མཚན་མོ་
[41b.7]བཟའ་བ་དང་བཅའ་བ་གཙང་མ་བཟང་པོ་མང་པོ་སྦྱར་རོ། །ནང་པར་སྔར་ལངས་ནས་གདན་བཤམས་ཏེ། ཆུ་ར་བཀང་ནས་བཅོམ་ལྡན་འདས་ལ་ཕྲིན་གྱིས་གདུགས་ཚོད་བསྐུལ་བ། བཙུན་པ་གདུགས་ཚོད་ལ་བབ་སྟེ་བཤོས་ལགས་ན། བཅོམ་ལྡན་འདས་ཀྱིས་ད་དེའི་དུས་ལ་བབ་པར་དགོངས་
[42a]
[42a.1]ཏེ། གཤེགས་སུ་གསོལ་ཞེས་བསྐུལ་ཏོ། །དེ་ནས་བཅོམ་ལྡན་འདས་སྔ་དྲོ་ཤམ་ཐབས་དང་ཆོས་གོས་གསོལ་ཏེ། ལྷུང་བཟེད་བསྣམས་ནས། དགེ་སློང་མང་པོས་ཞབས་འབྲིང་བྱས་ཏེ། དགེ་སློང་གི་དགེ་འདུན་གྱིས་མདུན་དུ་བདར་ནས། བྲམ་ཟེའི་ཁྱེའུ་དེའི་བཀད་ས་
[42a.2]ག་ལ་བ་དེར་གཤེགས་ཏེ་ཕྱིན་ནས། དགེ་སློང་གི་དགེ་འདུན་གྱི་གུང་ལ་གདན་བཤམས་པ་ལ་བཞུགས་སོ། །དེ་ནས་བྲམ་ཟེའི་ཁྱེའུ་དེས་སངས་རྒྱས་ལ་སོགས་པ་དགེ་སློང་གི་དགེ་འདུན་རྣམས་བདེ་བར་བཞུགས་པར་རིག་ནས། རང་གི་ལག་ནས་བཟའ་བ་དང་བཅའ་བ་གཙང་མ་བཟང་པོ་མང་
[42a.3]པོས་ཚིམ་པར་བྱས་ཏེ། ཅི་བཞེད་པ་བསྟབས་ནས། བཅོམ་ལྡན་འདས་ལ་ཆེ་བ་ལ་འོས་པའི་ན་བཟའ་ཕུལ་ལོ། །དགེ་སློང་གཞན་དག་ལ་ཡང་རེ་རེ་ལ་རས་ཟུང་རེ་ཕུལ་ནས། བླ་ན་མེད་པ་ཡང་དག་པར་རྫོགས་པའི་བྱང་ཆུབ་ཏུ་སྨོན་ལམ་བཏབ་པ། ཀྱེ་མ་དགེ་བའི་རྩ་བ་འདིས་ན། བདག་
[42a.4]འཇིག་རྟེན་ལོང་བ་འདྲེན་པ་མེད་པ་སྟོན་པ་མེད་པར། དེ་བཞིན་གཤེགས་པ་དགྲ་བཅོམ་པ་ཡང་དག་པར་རྫོགས་པའི་སངས་རྒྱས་རིག་པ་དང་ཞབས་སུ་ལྡན་པ། བདེ་བར་གཤེགས་པ་འཇིག་རྟེན་མཁྱེན་པ། སྐྱེས་བུ་འདུལ་བའི་ཁ་ལོ་སྒྱུར་བ། བླ་ན་མེད་པ་ལྷ་དང་མི་རྣམས་ཀྱི་སྟོན་པ།
[42a.5]སངས་རྒྱས་བཅོམ་ལྡན་འདས་སུ་གྱུར་ཅིག་ཅེས་བྱས་སོ། །དེ་ནས་བཅོམ་ལྡན་འདས་ཀྱིས་བྲམ་ཟེའི་ཁྱེའུ་དེ་ལ་བཀའ་སྩལ་པ། བྲམ་ཟེའི་ཁྱེའུ་ལེགས་སོ། །ལེགས་སོ། །མ་འོངས་པའི་དུས་ན་བྲམ་ཟེའི་ཁྱེའུ་ཁྱོད། འཇིག་རྟེན་ལོང་བ་འདྲེན་པ་མེད་པ་སྟོན་པ་མེད་པར། དེ་བཞིན་གཤེགས་
[42a.6]པ་དགྲ་བཅོམ་པ་ཡང་དག་པར་རྫོགས་པའི་སངས་རྒྱས་རིག་པ་དང་ཞབས་སུ་ལྡན་པ། བདེ་བར་གཤེགས་པ། འཇིག་རྟེན་མཁྱེན་པ། སྐྱེས་བུ་འདུལ་བའི་ཁ་ལོ་སྒྱུར་བ། བླ་ན་མེད་པ་ལྷ་དང་མི་རྣམས་ཀྱི་སྟོན་པ། སངས་རྒྱས་བཅོམ་ལྡན་འདས་འཐུན་མཛད་ཅེས་བྱ་བར་འགྱུར་རོ། །ཞེས་གསུངས་
[42a.7]སོ།། །།