པད་མའི་མདོག་ཅེས་བྱ་བ་ནི། གླེང་གཞི་
[68b.3]མཉན་དུ་ཡོད་པ་ན་བཞུགས་ཏེ། དེའི་ཚེ་ཚེ་དང་ལྡན་པ་ཉེ་སྡེ་ཡུལ་སྲུང་བྱེད་དུ་ལྗོངས་རྒྱུ་ཞིང་སོང་བ་ལས་རི་ཁྲོད་ཅིག་ཏུ་ཕྱིན་ཏེ་དེའི་ཚེ་རི་ཁྲོད་དེ་ན། ཁྱིམ་བདག་ཕྱུག་ཅིང་ནོར་མང་ལ་ལོངས་སྤྱོད་ཆེ་བ། ཡོངས་སུ་འཛིན་པ་ཡངས་ཤིང་རྒྱ་ཆེ་བ། རྣམ་ཐོས་བུའི་ནོར་དང་ལྡན་པ། རྣམ་
[68b.4]ཐོས་ཀྱི་བུའི་ནོར་དང་འགྲན་པ་ཞིག་གནས་པ་དེས་ཐབས་ཟླར་བབ་པ་ལས་ཆུང་མ་བླངས་ནས། དེ་དེ་དང་ལྷན་ཅིག་ཏུ་རྩེ་ཞིང་དགའ་ལ་དགའ་མགུར་སྤྱོད་དོ། །དེ་རྩེ་ཞིང་དགའ་ལ་དགའ་མགུར་སྤྱོད་ཀྱང་ཁྱིམ་བདག་དེ་བུ་མེད་ནས་དེ་ལག་པ་ལ་རྐོམ་ཚུགས་བཅས་ཏེ་བསམས་པ། བདག་གི་
[68b.5]ཁྱིམ་ནོར་དུ་མ་དང་ལྡན་དུ་ཟིན་ཀྱང་བདག་ལ་བུ་ཡང་མེད་བུ་མོ་ཡང་མེད་པས། བདག་འདས་པའི་འོག་ཏུ་ནི་བུ་མེད་པའི་ཕྱིར་ཅི་བདོག་པ་ཐམས་ཅད་རྒྱལ་པོ་དབང་བར་འགྱུར་རོ་སྙམ་སྟེ་སེམས་ཁོང་དུ་ཆུད་ཅིང་འདུག་གོ། །དེ་ནས་དགེ་སྦྱོང་དང་། བྲམ་ཟེ་དང་། ལྟས་མཁན་དང་།
[68b.6]མཛའ་བོ་དང་། གཉེན་དང་། རྩ་ལག་གཞན་དག་གིས་ལྷ་ལ་གསོལ་བ་ཐོབ་ཤིག་ཅེས་དེ་ལ་བསྒོའོ། །དེ་ནས་དེ་བུ་མེད་དེ་བུ་འདོད་པའི་ཕྱིར་ལྷ་གུ་ལང་དང་། ཆུ་ལྷ་དང་། ཀུ་བེ་ར་དང་། བརྒྱ་བྱིན་དང་། ཚངས་པ་ལ་སོགས་པ་དང་། ལྷའི་ཁྱད་པར་གཞན་དག་ལ་ཡང་གསོལ་
[68b.7]བ་འདེབས་ཏེ། འདི་ལྟ་སྟེ། ཀུན་དགའ་ར་བའི་ལྷ་དང་། ནགས་ཚལ་གྱི་ལྷ་དང་། ལམ་གྱི་བཞི་མདོའི་ལྷ་དང་། སུམ་མདོའི་ལྷ་དང་། གཏོར་མ་ལེན་པའི་ལྷ་དང་། ལྷན་ཅིག་སྐྱེས་པ་དང་། ཆོས་འཐུན་པ་དང་། རྟག་ཏུ་ཕྱི་བཞིན་འབྲང་བའི་ལྷ་རྣམས་ལ་
[69a]
[69a.1]ཡང་གསོལ་བ་འདེབས་ཏེ། འཇིག་རྟེན་ན་ཡང་གསོལ་བ་བཏབ་པའི་རྒྱུས་བུ་དང་བུ་མོ་སྐྱེ་བར་འགྱུར་རོ་ཞེས་བགྱི་བའི་གཏམ་དེ་ཡོད་མོད་ཀྱི་དེ་ཡང་དེ་ལྟ་ནི་མ་ཡིན་ཏེ། གལ་ཏེ་གསོལ་བ་བཏབ་པའི་རྒྱུས་བུ་དང་བུ་མོ་སྐྱེ་བར་འགྱུར་དུ་ཟིན་ན། འཁོར་ལོས་སྒྱུར་བའི་རྒྱལ་པོ་
[69a.2]བཞིན་དུ་རེ་རེ་ལ་ཡང་བུ་སྟོང་སྟོང་ཡོད་པར་འགྱུར་བའི་རིགས་སོ། །ཡེ་ནི་གནས་གསུམ་ཚོགས་པ་ལས་བུ་དང་བུ་མོ་སྐྱེ་བར་འགྱུར་ཏེ། གསུམ་གང་ཞེ་ན། ཕ་མ་གཉིས་འདོད་ཆགས་ལངས་ཏེ་ཕྲད་པ་དང་། མ་དུས་ལ་བབ་ཅིང་ཟླ་མཚན་དང་ལྡན་པ་དང་དྲི་ཟ་འོངས་པ་སྟེ། གནས་འདི་
[69a.3]གསུམ་ཚོགས་པ་ལས་བུ་དང་བུ་མོ་སྐྱེ་བར་འགྱུར་རོ། །དེ་ནས་དེ་ཡང་གསོལ་བ་འདེབས་པ་ལྷུར་བྱེད་ཅིང་འདུག་ལ། སེམས་ཅན་ཞིག་ཀྱང་སེམས་ཅན་གྱི་རིས་ཤིག་ནས་ཤི་འཕོས་ཏེ། དེའི་ཆུང་མའི་ལྟོར་ཞུགས་སོ། །བུད་མེད་མཁས་པའི་རང་བཞིན་ཅན་ཁ་ཅིག་ལ་ནི་ཐུན་མོང་
[69a.4]མ་ཡིན་པའི་ཆོས་ལྔ་ཡོད་དེ། ལྔ་གང་ཞེ་ན། སྐྱེས་པ་ཆགས་པ་ཡང་ཤེས་ལ་མ་ཆགས་པ་ཡང་ཤེས་པ་དང་། དུས་ཀྱང་ཤེས་ལ་ཟླ་མཚན་ཡང་ཤེས་པ་དང་བུ་ཆགས་པ་ཤེས་པ་དང་། གང་ལས་བུ་ཆགས་པར་ཤེས་པ་དང་ཁྱེའུ་ཡང་ཤེས་ལ་བུ་མོ་ཡང་ཤེས་པ་སྟེ། གལ་ཏེ་ཁྱེའུ་
[69a.5]ཡིན་ན་ནི། ལྟོ་གཡས་ལོགས་སུ་རྟེན་ཅིང་གནས་སོ། །གལ་ཏེ་བུ་མོ་ཡིན་ན་ནི་ལྟོ་གཡོན་ལོགས་སུ་རྟེན་ཅིང་གནས་སོ། །དེ་ནས་དེ་དགའ་ཆེས་ནས་ཁྱིམ་ཐབ་ལ་སྦྲན་པ། ཇོ་བོ་བདག་ལ་སྲས་ཆགས་ཏེ། བདག་གི་རུམ་གཡས་ལོགས་སུ་རྟེན་ཅིང་གནས་པ་ལས་ན་ཁྱེའུར་འགྱུར་བར་
[69a.6]ངེས་ཀྱིས་དགྱེས་པ་བསྐྱེད་དུ་གསོལ་ཞེས་བྱས་ནས། དེ་ཡང་དགའ་ཆེས་ཏེ་རོ་སྟོད་ནི་བཏེག་ལག་པ་གཡས་པ་ནི་བརྐྱང་ནས་བདག་གིས་ཡུན་རིང་པོ་ནས་སྨོན་སྨོན་པའི་བུའི་ངོ་མཐོང་བར་འོང་ངོ་། །བདག་གི་བུ་རུང་བར་གྱུར་ཅིག །མི་རུང་བར་མ་གྱུར་ཅིག །བདག་གི་བྱ་བ་དག་བྱེད་པར་
[69a.7]ཤོག་ཅིག །གསོས་པའི་ལན་ཕྱིར་གསོ་བར་ཤོག་ཅིག །ནོར་སྐལ་ལ་སྤྱོད་པར་ཤོག་ཅིག །བདག་གི་རིགས་རྒྱུད་རིང་དུ་གནས་པར་ཤོག་ཅིག །བདག་ཅག་འདས་ཏེ་ཤི་བའི་འོག་ཏུ་ཡང་བདག་ཅག་གི་ཕྱིར་མང་ཡང་རུང་ཉུང་ཡང་རུང་སྟེ། སྦྱིན་པ་དག་བྱིན་ལ་བསོད་ནམས་དག་
[69b]
[69b.1]བྱས་ནས། དེ་གཉིས་གང་དང་གང་དུ་སྐྱེས་ཤིང་འགྲོ་བ་དེར་འདི་སོང་ཅིག་ཅེས་ཡོན་སྔོ་བར་ཤོག་ཅིག་ཅེས་དགའ་བའི་ཚིག་བརྗོད་དོ། །དེ་ནས་དེས་བུ་ཆགས་པར་རིག་ནས་བུའི་རིམ་གྲོ་བྱ་བའི་ཕྱིར་ཁང་བཟངས་ཀྱི་སྟེང་དུ་ཉམ་རངས་སུ་བཞག་སྟེ་གྲང་བའི་ཚེ་གྲང་བའི་ཡོ་བྱད་རྣམས་དང་ཚ་བའི་ཚེ་ཚ་བའི་ཡོ་
[69b.2]བྱད་རྣམས་དང་། སྨན་པས་བསྟན་པའི་ཟས་རྣམས་དང་། ཧ་ཅང་ཁ་བ་མ་ཡིན་པ་རྣམས་དང་། ཧ་ཅང་སྐྱུར་བ་མ་ཡིན་པ་རྣམས་དང་། ཧ་ཅང་ལན་ཚྭ་ཆེ་བ་མ་ཡིན་པ་རྣམས་དང་། ཧ་ཅང་མངར་བ་མ་ཡིན་པ་རྣམས་དང་། ཧ་ཅང་རོ་ཚ་བ་མ་ཡིན་པ་རྣམས་དང་། ཧ་ཅང་བསྐ་
[69b.3]བ་མ་ཡིན་པ་རྣམས་ཏེ། ཁ་བ་དང་། སྐྱུར་བ་དང་། ལན་ཚྭ་དང་། མངར་བ་དང་། ཚ་བ་དང་། བསྐ་བ་མེད་པའི་ཟས་རྣམས་ཀྱིས་བསྟེན་ཅིང་དོ་ཤལ་དང་། སེ་མོ་དོས་ལུས་རྣམ་པར་བཀླུབས་ཏེ། ལྷའི་བུ་མོ་དགའ་བའི་ཚལ་ན་རྣམ་པར་རྒྱུ་བ་བཞིན་དུ་ཁྲིའི་སྟེང་ནས་ཁྲིའི་སྟེང་དང་།
[69b.4]ཁྲིའུའི་སྟེང་ནས་ཁྲིའུའི་སྟེང་དུ་རྒྱུ་ཞིང་འོག་གི་ས་གཞི་ལ་མི་འབབ་པ་དང་དེས་ཡིད་དུ་མི་འོང་བའི་སྒྲ་སྐད་ཅི་ཡང་མི་ཐོས་པར་བྱས་སོ། །དེ་ནས་དེ་ཟླ་བ་དགུའམ་བཅུ་ལོན་པ་དང་བུ་བྱུང་སྟེ། ཁྱེའུ་གཟུགས་བཟང་ཞིང་བལྟ་ན་སྡུག་ལ་མཛེས་པ་མདོག་བཟང་བ་པད་མའི་སྙིང་པོའི་མདོག་
[69b.5]འདྲ་བ། མགོ་བོ་གདུགས་ལྟར་འདུག་པ། ལག་པ་རིང་བ་དང་དཔྲལ་བའི་དབྱེས་ཆེ་བ། སྣ་མཐོ་བ། སྣ་ལེགས་པ། སྨིན་མ་སྟུག་པ་ཞིག་བཙས་ནས། དེའི་ཚེ་བཙས་སྟོན་རྒྱས་པར་བྱས་ཏེ། ཁྱེའུ་འདིའི་མིང་ཇི་སྐད་གདགས་ཞེས་མིང་འདོགས་པར་བྱེད་དེ། ཁྱེའུ་འདི་
[69b.6]པད་མའི་སྙིང་པོའི་མདོག་འདྲ་བས་ན་དེའི་ཕྱིར་ཁྱེའུ་འདིའི་མིང་པད་མའི་མདོག་ཅན་ཞེས་གདགས་སོ་ཞེས་ཟེར་རོ། །དེ་ནས་ཁྱེའུ་པད་མའི་མདོག་འོ་མ་དང་། ཞོ་དང་། མར་དང་། ཞུན་མར་དང་། མར་གྱི་ཉིང་གུས་བསྐྱེད་བསྲིངས་ཏེ། མཚོའི་ནང་གི་པད་མ་བཞིན་དུ་སྐྱེ་དྲག་པར་
[69b.7]གྱུར་ཏོ། །དེ་ནས་དེ་གང་གི་ཚེ་ཆེར་སྐྱེས་པ་དེའི་ཚེ་ཡི་གེ་དང་ཁོང་རྩིས་དང་། ཤོད་དགོད་དང་། ལག་རྩིས་དང་། དབྱུང་བ་དང་། སྦ་བ་དང་། དགྲམ་པ་དང་། གོས་བརྟག་པ་དང་། ནོར་བུ་བརྟག་པ་དང་། རིན་པོ་ཆེ་བརྟག་པ་དང་། སྤོས་བརྟག་པ་དང་། སྨན་བརྟག་
[70a]
[70a.1]པ་དང་། གླང་པོ་ཆེ་བརྟག་པ་དང་། རྟ་བརྟག་པ་དང་། གོ་མཚོན་བརྟག་པ་བསླབས་ཏེ། ཡི་གེ་མཁས་པ་དང་། ཀློག་མཁས་པ་དང་། མཛངས་པ་དང་། བྱ་བ་ལ་གསལ་བ་དང་། ཡིད་གཞུངས་པ་དང་། བརྟག་པ་རྣམ་པ་བརྒྱད་ལ་བྱང་བར་གྱུར་ཏོ། །
[70a.2]ཁྱིམ་བདག་དེའི་གཉེན་ནི་ཚེ་དང་ལྡན་པ་ཉེ་སྡེ་ཡིན་ཏེ། ཁྱེའུ་པད་མའི་མདོག་གིས་དེ་ལ་བརྟེན་ནས་བཅོམ་ལྡན་འདས་ཀྱི་བསྟན་པ་ལ་དད་པ་རྙེད་དེ། དེས་ཕ་མ་ལ་གསོལ་ནས་ཚེ་དང་ལྡན་པ་ཉེ་སྡེ་ཉིད་ཀྱི་ཐད་དུ་རབ་ཏུ་བྱུང་སྟེ་བསྙེན་པར་རྫོགས་སོ། །དེ་ནས་དེ་ཕྱི་ཞིག་ན་དེ་མཁན་པོ་ལ་
[70a.3]མ་ཞུས་པར་དོན་ཞིག་ལ་རི་ཁྲོད་དེ་ནས་སོང་ནས། དེ་མཐར་གྱིས་ལྗོངས་རྒྱུ་ཞིང་སོང་སོང་བ་ལས་ཡུལ་བཅོམ་བརླག་ཅེས་བྱ་བར་ཕྱིན་ཏེ། བཅོམ་བརླག་ན་བོང་བུའི་ཀུན་དགའ་ར་བ་ན་གནས་སོ། །དེ་ནས་ཚེ་དང་ལྡན་པ་པད་མའི་མདོག་སྔ་དྲོ་ཤམ་ཐབས་དང་ཆོས་གོས་བགོས་ཏེ་ལྷུང་
[70a.4]བཟེད་ཐོགས་ནས། ཡུལ་བཅོམ་བརླག་ཏུ་བསོད་སྙོམས་ལ་སོང་བ་དང་། ཚེ་དང་ལྡན་པ་དེ་སྤྱོད་ཡུལ་གྱི་རྒྱུས་མི་ཤེས་བཞིན་དུ་མཐར་གྱིས་བསོད་སྙོམས་བྱེད་པ་ལས་སྨད་འཚོང་མའི་ཁྱིམ་དུ་སོང་ངོ་། །སྨད་འཚོང་མ་དེ་ཡང་གཟུགས་བཟང་ཞིང་བལྟ་ན་སྡུག་པ་མཛེས་པ་རོ་རྩ་ལ་གཡེམ་པ་
[70a.5]ཞིག་གོ། །དེ་ནས་བུད་མེད་དེས་ཚེ་དང་ལྡན་པ་པད་མའི་མདོག་རྒྱང་ནས་མཐོང་ངོ་། །མཐོང་ནས་ཀྱང་འདོད་ཆགས་ཀྱི་མདའ་དྲག་པོས་ཕོག་སྟེ། དེ་འདོད་ཆགས་ཀྱི་དབང་དུ་གྱུར་ནས་ཚམ་ཚོམ་མེད་པར་ལངས་ཏེ་ཚེ་དང་ལྡན་པ་པད་མའི་མདོག་ག་ལ་བ་དེར་སོང་སྟེ། ཕྱིན་ནས་སྨྲས་པ།
[70a.6]འཕགས་པ་གདན་བཤམས་པ་འདི་ལ་བཞུགས་སུ་གསོལ། དེ་ནས་ཚེ་དང་ལྡན་པ་པད་མའི་མདོག་གིས་བསམས་པ། ཅི་འདི་དགེ་བསྙེན་མ་ཅིག་ཡིན་ནམ་སྙམ་ནས་སྟན་བཤམས་པ་དེ་ལ་འདུག་པ་དང་། བུད་མེད་དེས་འདོད་ཆགས་ཀྱི་ཤུགས་ཀྱིས་མི་བཟོད་ཆེས་ནས་པད་མའི་
[70a.7]མདོག་ལ་སྨྲས་པ། བཙུན་པ་ཁྱོད་ཀྱང་གཟུགས་དང་ལང་ཚོ་ཕུན་སུམ་ཚོགས་པ་ལགས་ལ། བདག་ཀྱང་ཡན་ལག་ཐམས་ཅད་སྡུག་པ་ལགས་ཀྱིས་བདག་དང་གཟིམས་པར་གསོལ་ཞེས་བྱས་སོ། །དེ་ནས་དེ་ཐོས་མ་ཐག་ཏུ་ཚེ་དང་ལྡན་པ་པད་མའི་མདོག་གིས་རྣ་བ་གཉིས་བཀག་
[70b]
[70b.1]སྟེ་འདུག་ནས། བདག་ནི་སྡིག་པ་འདི་ལྟ་བུ་མི་བྱེད་དེ་བཅོམ་ལྡན་འདས་ཀྱི་བསྟན་པ་ཉམས་པར་བྱེད་མི་ཕོད་དོ་ཞེས་བྱས་སོ། །བུད་མེད་དེས་སྨྲས་པ། གནོད་ཅང་འདི་ལྟ་བུ་ཅི་འཚལ་གལ་ཏེ་ཁྱོད་འདོད་པ་རྣམས་མི་བཞེད་ན་སྨད་འཚོང་མའི་ཁྱིམ་དུ་བྱོན་ཏེ་ཅི་བགྱི། པད་མའི་མདོག་གིས་སྨྲས་
[70b.2]པ། བདག་གསར་དུ་འོངས་པས་སྤྱོད་ཡུལ་གྱི་རྒྱུས་མི་ཤེས་ཏེ་དེའི་ཕྱིར་འདིར་འོངས་པར་ཟད་ཀྱི་བདག་ནི་འདོད་པ་རྣམས་དོན་དུ་གཉེར་བ་མ་ཡིན་ཏེ་བདག་གིས་བྱ་བ་མ་ཡིན་པ་འདི་ལྟར་བྱར་མི་རུང་ངོ་། །མོས་སྨྲས་པ། ཁྱོད་མི་བཞེད་ན་ཡང་བདག་གིས་ཁྱོད་མཐུ་ཀར་བོར་ཏེ་ཉལ་དུ་
[70b.3]གཞུག་གོ། །དེ་ནས་དེ་ཐོས་མ་ཐག་ཏུ་ཚེ་དང་ལྡན་པ་པད་མའི་མདོག་དངངས་ནས་སྟན་ལས་ལངས་ཏེ། ཕྱིར་བྱུང་ནས་བསོད་སྙོམས་མ་བྱས་པར་གཙུག་ལག་ཁང་དུ་སོང་ངོ་། །དེའི་ཕྱིར་བྱུང་སྟེ་སོང་ནས་སྨད་འཚོང་མ་དེ་འདོད་ཆགས་ཀྱི་མེས་ཡོངས་སུ་གདུངས་ཏེ། རིགས་ངན་
[70b.4]མོ་སྔགས་ཀྱི་མཐུ་ཡོད་པ་ཞིག་བཀུག་ནས་དེ་ལ་གཏམ་དེ་རྒྱས་པར་བསྙད་དེ་སྨྲས་པ། བདག་དགེ་སློང་དེ་དང་ཕྲད་པར་གྱིས་ཤིག་དང་བདག་གིས་ཁྱོད་ལ་གསེར་མང་དུ་སྦྱིན་ནོ་ཞེས་བྱས་སོ། །དེ་ནས་དེས་དེ་ལྟར་བགྱིའོ་ཞེས་སྨྲས་ནས། རིགས་ངན་མོ་དེས་བུད་མེད་དེ་རྒྱན་ཐམས་
[70b.5]ཅད་ཀྱིས་བཀླུབས་ཏེ་ཁྱིམ་དེ་ལྷ་ཁང་བཞིན་དུ་བྱས་ཏེ་བཞག་ནས། དཀྱིལ་འཁོར་བ་ལང་གི་ལྕི་བས་བྱུགས་ཏེ་བདུག་སྤོས་དང་མེ་ཏོག་དང་ལྷ་བཤོས་ཀྱི་ཆོ་ག་རྣམས་བཤམས་ནས་མེ་སྦར་ཏེ་ཡུངས་ཀར་ལ་སྔགས་ཀྱིས་བཏབ་ཅིང་མེའི་ནང་དུ་འདེབས་སོ། །ཚེ་དང་ལྡན་པ་དེ་ཡང་སྔགས་ཀྱི་
[70b.6]མཐུས་དྲངས་ནས་ཕྱིར་སྨད་འཚོང་མའི་ཁྱིམ་དེ་ཉིད་དུ་འོངས་སོ། །དེ་ནས་རིགས་ངན་མོ་དེས་ཚེ་དང་ལྡན་པ་པད་མའི་མདོག་ཁྱིམ་དེར་འོངས་པར་མཐོང་ངོ་། །མཐོང་ནས་སྨྲས་པ། བཙུན་པ་ཁྱོད་ཁྱིམ་འདིར་འོངས་པ་ལ་བྱ་བ་གཉིས་ཡོད་དེ་ཡང་ན་ནི་སྨད་འཚོང་མ་འདི་དང་ལྷན་ཅིག་ཏུ་
[70b.7]ཉོལ་ཅིག །ཡང་ན་ནི་མེ་འདིའི་ནང་དུ་མཆོངས་ཤིག་ཅེས་བྱས་སོ། །དེ་ནས་དེ་ཐོས་མ་ཐག་ཏུ་ཚེ་དང་ལྡན་པ་པད་མའི་མདོག་གིས་བསམས་པ། དེ་བཞིན་གཤེགས་པ་ནི་འཇིག་རྟེན་དུ་བརྒྱ་ལམ་བརྒྱ་ལམ་ན་འབྱུང་བར་ཟད་དེ་དཔེར་ན་ཨུ་དུམ་བཱ་རའི་མེ་ཏོག་དང་འདྲ་ལ། མིར་སྐྱེ་བ་
[71a]
[71a.1]འཐོབ་པ་དང་ཡུལ་དབུས་སུ་སྐྱེ་བ་ཡང་རྙེད་པར་དཀའ་བས་ན། མེའི་ནང་དུ་མཆོང་བ་ནི་ལེགས་པ་ཡིན་གྱིས་འདི་དང་ཕྲད་པར་བྱ་བ་ནི་དེ་ལྟ་མ་ཡིན་ནོ་སྙམ་དུ་བསམས་ནས། གོས་རྣམས་ཕུད་དེ་རིགས་ངན་མོ་ལ་གཏད་ནས་སྨྲས་པ། ཆེ་ཞེ་གོས་འདི་རྣམས་གཙུག་ལག་ཁང་
[71a.2]དུ་ཁྱེར་ལ་བདག་གི་ཚངས་པ་མཚུངས་པར་སྤྱོད་པ་རྣམས་ལ་ཕུལ་ཅིག །རིགས་ངན་མོས་སྨྲས་པ། བཙུན་པ་ཁྱོད་ཅི་བྱེད། པད་མའི་མདོག་གིས་སྨྲས་པ། མེའི་ནང་དུ་མཆོང་བར་ཆད་དོ། །དེས་དེའི་ཚིག་དེ་ཐོས་ནས་རིགས་ངན་མོ་མི་དགའ་བར་གྱུར་ཏེ་བསམས་པ། ཀྱེ་མ་བདག་
[71a.3]དབུལ་བས་བདག་གིས་འདི་ལྟ་བུའི་ཡོན་གནས་དག་ལ་ཉེས་པ་བྱེད་ཅིང་འདུག་སྟེ་བདག་གིས་འདི་ལྟ་བུའི་སེམས་ཅན་དག་པ་མི་དགའ་བར་བྱ་བ་ནི་བདག་གི་ཆ་མ་ཡིན་ནོ་སྙམ་ནས། དེས་ཆོ་ག་ཐམས་ཅད་བཏང་སྟེ་གུས་པར་བསྒྲིམ་པས་རྐང་པ་ལ་ཕྱག་འཚལ་ནས་སེམས་ཅན་དག་པ་བཟོད་པར་
[71a.4]གསོལ། བདག་ཉེས་པར་སྤྱོད་པའི་འདམ་དུ་བྱིང་བ་ལས་ལག་ནས་དྲང་བར་གསོལ། པད་མའི་མདོག་གིས་སྨྲས་པ་ངས་ནི་བཟོད་ན་ཁྱོད་བདག་གི་ལས་རྣམས་ཀྱིས་མི་བཟོད་དོ། །དེ་ནས་སྨད་འཚོང་མ་དེ་ཡང་མཐོང་མ་ཐག་ཏུ་འདོད་པའི་འདོད་ཆགས་དང་བྲལ་བར་གྱུར་ནས་དེ་ལ་དགའ་བ་སྐྱེས་སོ། །
[71a.5]དགའ་བ་སྐྱེས་ནས་རྐང་པ་ལ་ཕྱག་འཚལ་ཏེ་སྨྲས་པ། སྐལ་བ་ཆེན་པོ་དང་ལྡན་པ་བདག་འདོད་པའི་འདོད་ཆགས་ཀྱི་དབང་དུ་གྱུར་པས་ཁྱོད་མི་དགྱེས་པར་བགྱིས་པ་བཟོད་པར་གསོལ་ཞེས་སྨྲས་ནས། བུ་མོ་སྨད་འཚོང་མ་དེ་དང་རིགས་ངན་མོ་དེ་གཉིས་ཆོས་མཉན་པའི་ཕྱིར་ཚེ་དང་ལྡན་པ་པད་
[71a.6]མའི་མདོག་གི་མདུན་དུ་འདུག་གོ། །དེ་ནས་ཚེ་དང་ལྡན་པ་པད་མའི་མདོག་གིས་དེ་གཉིས་ལ་དེ་དང་འཐུན་པའི་ཆོས་བསྟན་ནས། དེ་གཉིས་ཀྱིས་སྟན་དེ་ལ་འདུག་བཞིན་དུ་རྒྱུན་དུ་ཞུགས་པའི་འབྲས་བུ་མངོན་སུམ་དུ་བྱས་ཏེ། དེ་གཉིས་ཀྱིས་བདེན་པ་མཐོང་ནས་སྨྲས་པ། བཙུན་པ་
[71a.7]བདག་ཅག་གཉིས་ལེགས་པར་གསུངས་པའི་ཆོས་འདུལ་བ་ལ་རབ་ཏུ་འབྱུང་བ་དང་བསྙེན་པར་རྫོགས་ཤིང་དགེ་སློང་མའི་དངོས་པོ་འཐོབ་ཏུ་རུང་ན། བདག་ཅག་གཉིས་ཀྱང་བཅོམ་ལྡན་འདས་ཀྱི་ཐད་དུ་ཚངས་པར་སྤྱོད་པ་སྤྱད་པར་འཚལ་ལོ། །དེ་ནས་ཚེ་དང་ལྡན་པ་པད་མའི་མདོག་གིས་དེ་
[71b]
[71b.1]གཉིས་དགེ་སློང་མའི་གཙུག་ལག་ཁང་དུ་ཁྲིད་དེ། དགེ་སློང་མ་རྣམས་ལ་གཏད་ནས་དགེ་སློང་མ་རྣམས་ཀྱིས་དེ་གཉིས་རབ་ཏུ་ཕྱུང་སྟེ། བསྙེན་པར་རྫོགས་པར་བྱས་ནས། དེ་གཉིས་ལ་ལུང་ཡང་ཕོག་གོ། །དེ་གཉིས་ཀྱིས་ཀྱང་བརྩོན་པ་དང་བསྒྲུབ་པ་དང་འབད་པས་ཉོན་མོངས་པ་ཐམས་
[71b.2]ཅད་སྤངས་ནས། དགྲ་བཅོམ་པ་ཉིད་མངོན་སུམ་དུ་བྱས་ཏེ། དེ་གཉིས་དགྲ་བཅོམ་པ་ཁམས་གསུམ་པའི་འདོད་ཆགས་དང་བྲལ་བར་གྱུར་ནས་གསེར་དང་བོང་བར་མཉམ་པ། ནམ་མཁའ་དང་ལག་མཐིལ་དུ་འདྲ་བའི་སེམས་དང་ལྡན་པ། ཙན་དན་སྦངས་པ་ལྟ་བུར་བསིལ་བར་གྱུར་
[71b.3]པ། རིག་པས་སྒོ་ངའི་སྦུབས་བཅོམ་པ། རིག་པ་དང་མངོན་པར་ཤེས་པ་དང་སོ་སོ་ཡང་དག་པར་རིག་པ་ཐོབ་པ། སྲིད་པའི་རྙེད་པ་དང་ཆགས་པ་དང་བཀུར་སྟི་ལ་རྒྱབ་ཀྱིས་ཕྱོགས་པ་དབང་པོ་དང་ཉེ་དབང་དང་བཅས་པའི་ལྷ་རྣམས་ཀྱིས་མཆོད་ཅིང་། རྗེད་པ་དང་གུས་པར་སྨྲ་
[71b.4]བའི་གནས་སུ་གྱུར་ཏོ། །དེ་ནས་ཚེ་དང་ལྡན་པ་པད་མའི་མདོག་གིས་བསམས་པ། འདི་ལྟར་བདག་གིས་གཞན་གྱི་རྒྱུད་ནི་དག་པར་བྱེད་ནུས་ན་བདག་གི་རྒྱུད་དག་པར་བྱེད་མ་ནུས་སོ། །བཅོམ་ལྡན་འདས་ཀྱིས་ཀྱང་མང་དུ་ཐོས་པ་ལ་ཕན་ཡོན་རྣམ་པ་ལྔ་ཡོད་དེ། ཕུང་པོ་
[71b.5]ལ་མཁས་པ་དང་ཁམས་ལ་མཁས་པ་དང་སྐྱེ་མཆེད་ལ་མཁས་པ་དང་རྟེན་ཅིང་འབྲེལ་པར་འབྱུང་བ་ལ་མཁས་པ་དང་། གནས་དང་གནས་མ་ཡིན་པ་ལ་མཁས་པར་འགྱུར་རོ་ཞེས་གསུངས་ཀྱིས། བདག་གིས་ཀྱང་ཉོན་མོངས་པ་ཟད་པར་བྱ་བའི་ཕྱིར་བརྩམ་པར་བྱའོ་སྙམ་ནས།
[71b.6]དེས་བརྩོན་པ་དང་བསྒྲུབ་པ་དང་འབད་པས་ཉོན་མོངས་པ་ཐམས་ཅད་སྤངས་ནས་དགྲ་བཅོམ་པ་ཉིད་མངོན་སུམ་དུ་བྱས་ཏེ། དེ་དགྲ་བཅོམ་པ་ཁམས་གསུམ་པའི་འདོད་ཆགས་དང་བྲལ་བར་གྱུར་ནས་གསེར་དང་བོང་བར་མཉམ་པ། ནམ་མཁའ་དང་ལག་མཐིལ་དུ་འདྲ་བའི་སེམས་
[71b.7]དང་ལྡན་པ། ཙན་དན་སྦངས་པ་ལྟ་བུར་བསིལ་བར་གྱུར་པ། རིག་པས་སྒོ་ངའི་སྦུབས་བཅོམ་པ། རིག་པ་དང་མངོན་པར་ཤེས་པ་དང་སོ་སོ་ཡང་དག་པར་རིག་པ་ཐོབ་པ། སྲིད་པའི་རྙེད་པ་དང་ཆགས་པ་དང་བཀུར་སྟི་ལ་རྒྱབ་ཀྱིས་ཕྱོགས་པ། དབང་པོ་དང་ཉེ་དབང་དང་
[72a]
[72a.1]བཅས་པའི་ལྷ་རྣམས་ཀྱིས་མཆོད་ཅིང་རྗེད་པ་དང་གུས་པར་སྨྲ་བའི་གནས་སུ་གྱུར་ཏོ། །དེས་དགྲ་བཅོམ་པ་ཉིད་ཐོབ་ནས་ཡུལ་བཅོམ་བརླག་ཏུ་ཇི་སྲིད་དགའ་བའི་བར་དུ་འདུག་འདུག་ནས་མཉན་དུ་ཡོད་པར་སོང་ངོ་། །དེ་དེར་སོང་ནས་གཏམ་དེ་རྒྱས་པར་དགེ་སློང་རྣམས་
[72a.2]ལ་བསྙད་དོ། །དེ་ནས་དགེ་སློང་རྣམས་ཀྱིས་བཅོམ་ལྡན་འདས་ལ་ཞུས་པ། བཙུན་པ་བུ་མོ་སྨད་འཚོང་མ་འདོད་པའི་འདོད་ཆགས་ཀྱི་དབང་དུ་གྱུར་པས། ཚེ་དང་ལྡན་པ་པད་མའི་མདོག་ཇི་ལྟར་མི་དགའ་བར་བགྱིས་པ་དང་སླར་དེ་ཉིད་ལ་བརྟེན་ནས་རབ་ཏུ་བྱུང་སྟེ། ཉོན་མོངས་
[72a.3]པ་ཐམས་ཅད་སྤངས་ནས་དགྲ་བཅོམ་པ་ཉིད་མངོན་སུམ་དུ་བགྱིས་པ་ལ་གཟིགས། བཅོམ་ལྡན་འདས་ཀྱིས་བཀའ་སྩལ་པ། འདི་ནི་ཚེ་རབས་ལྔ་བརྒྱའི་བར་དུ་འདིའི་ཆུང་མར་གྱུར་ཏེ། དེའི་སྔོན་གྱི་བག་ཆགས་ཀྱི་གཞི་ཡོད་པས་ན་མཐོང་མ་ཐག་ཏུ་ཀུན་ཏུ་ཆགས་པར་གྱུར་
[72a.4]ཏོ། །བཙུན་པ་ཚེ་དང་ལྡན་པ་པད་མའི་མདོག་གིས་ལས་ཅི་བགྱིས་ན། ལས་དེའི་རྣམ་པར་སྨིན་པས་ཕྱུག་ཅིང་ནོར་མང་ལ་ལོངས་སྤྱོད་ཆེ་བའི་རིགས་སུ་སྐྱེས་ལ། བཅོམ་ལྡན་འདས་ཀྱང་འདིས་མཉེས་པར་བགྱིས་ནས། བཅོམ་ལྡན་འདས་ཀྱི་བསྟན་པ་ལ་རབ་ཏུ་བྱུང་སྟེ།
[72a.5]ཉོན་མོངས་པ་ཐམས་ཅད་སྤངས་ནས་དགྲ་བཅོམ་པ་ཉིད་མངོན་སུམ་དུ་བགྱིས་ལགས། བཅོམ་ལྡན་འདས་ཀྱིས་བཀའ་སྩལ་པ། སྨོན་ལམ་གྱི་དབང་ལས་གྱུར་ཏོ། །བཙུན་པ་འདིས་གང་དུ་སྨོན་ལམ་བཏབ་ལགས། དགེ་སློང་དག་སྔོན་བྱུང་བ་འདས་པའི་དུས་ན་བསྐལ་པ་བཟང་པོ་འདི་
[72a.6]ཉིད་ལ་སྐྱེ་དགུའི་ཚེ་ལོ་ཉི་ཁྲི་ཐུབ་པ་ན། དེ་བཞིན་གཤེགས་པ་དགྲ་བཅོམ་པ་ཡང་དག་པར་རྫོགས་པའི་སངས་རྒྱས་རིག་པ་དང་ཞབས་སུ་ལྡན་པ། བདེ་བར་གཤེགས་པ། འཇིག་རྟེན་མཁྱེན་པ། སྐྱེས་བུ་གདུལ་བྱའི་ཁ་ལོ་སྒྱུར་བ། བླ་ན་མེད་པ། ལྷ་དང་མི་རྣམས་ཀྱི་
[72a.7]སྟོན་པ། སངས་རྒྱས་བཅོམ་ལྡན་འདས་འོད་སྲུང་ཞེས་བྱ་བ་འཇིག་རྟེན་དུ་བྱུང་སྟེ། དེའི་ཚེ་བཱ་རཱ་ཎ་སཱི་ན་ཁྱིམ་བདག་ཅིག་གནས་པ་ལས་ཆུང་མ་གཉིས་ཡོད་དོ། །དེ་ནས་ཕྱི་ཞིག་ན་ཁྱིམ་བདག་དེས་ཡང་དག་པར་རྫོགས་པའི་སངས་རྒྱས་འོད་སྲུང་གི་བསྟན་པ་ལ་དད་པ་རྙེད་ནས་
[72b]
[72b.1]དེས་ཆུང་མ་གཉིས་ལ་སྨྲས་པ། བཟང་མོ་གཉིས་ང་ནི། བཅོམ་ལྡན་འདས་འོད་སྲུང་གི་བསྟན་པ་ལ་རབ་ཏུ་འབྱུང་དུ་འགྲོ། བག་དང་ལྡན་པར་ཁྱིམ་ན་གནས་པར་གྱིས་ཤིག །དེ་གཉིས་ཀྱིས་སྨྲས་པ། ཇོ་བོ་གལ་ཏེ་དེ་ལྟ་ན་བདག་ཅག་གཉིས་ཀྱང་ཇོ་བོ་རབ་ཏུ་འབྱུང་བའི་སླད་བཞིན་
[72b.2]དུ་རབ་ཏུ་འབྱུང་བར་འཚལ་ལོ། །ཁྱིམ་བདག་དེས་སྨྲས་པ། གལ་ཏེ་ཁྱེད་གཉིས་ཀྱང་རབ་ཏུ་འབྱུང་བར་འདོད་ན་ཁྱེད་གཉིས་ཇེ་རབ་ཏུ་འབྱུང་བར་གྱིས་ཤིག་དང་དེའི་འོག་ཏུ་ང་རབ་ཏུ་འབྱུང་བར་བྱའོ་ཞེས་དེ་སྐད་སྨྲས་ནས། ཁྱིམ་བདག་དེས་ཆུང་མ་དེ་གཉིས་དགེ་སློང་མའི་གཙུག་
[72b.3]ལག་ཁང་དུ་ཁྲིད་དེ་དགེ་སློང་མ་རྣམས་ལ་གཏད་དོ། །དགེ་སློང་མ་རྣམས་ཀྱིས་ཀྱང་དེ་གཉིས་རབ་ཏུ་ཕྱུང་སྟེ་བསྙེན་པར་རྫོགས་པར་བྱས་སོ། །དེ་གཉིས་རབ་ཏུ་བྱུང་ནས་ཁྱིམ་བདག་དེ་ཡང་སྦྱིན་པ་དག་སྦྱིན་ཞིང་བསོད་ནམས་དག་བྱས་ནས། བཅོམ་ལྡན་འདས་འོད་སྲུང་གི་བསྟན་
[72b.4]པ་ལ་རབ་ཏུ་བྱུང་ངོ་། །དེ་རབ་ཏུ་བྱུང་ནས་སྡེ་སྣོད་གསུམ་བསླབས་ཏེ། རིག་པ་དང་གྲོལ་བའི་སྤོབས་པ་དང་ལྡན་པའི་ཆོས་སྨྲ་བ། གོས་དང་ཟས་དང་མལ་ཆ་དང་སྟན་དང་ནད་གསོས་དང་སྨན་ཟོང་རྣམས་རྙེད་པར་གྱུར་ཏོ། །དགེ་སློང་མ་དེ་གཉིས་ནི་རབ་ཏུ་བྱུང་ནས། འཐབ་
[72b.5]ཀྲོལ་ཅན་ཁ་ཚས་ངན་པར་གྱུར་ཏེ། དེ་གཉིས་ལས་གཅིག་གིས་ནི་དགེ་སློང་མ་རྣམས་ལ་རིགས་ངན་མོ་ཞེས་བྱ་བའི་ཚིག་སྨྲས་སོ། །གཅིག་གིས་ནི་སྨད་འཚོང་མ་ཞེས་བྱ་བའི་ཚིག་སྨྲས་སོ། །དེ་ནས་དགེ་སློང་དེས་དེ་གཉིས་འཐབ་ཀྲོལ་ཅན་དུ་གྱུར་པ་དེ་ལས་བཀག་ནས།
[72b.6]སྦྱིན་པ་དང་སྦྱིན་པའི་བགོ་བཤའ་བྱེད་པ་ལ་བཙུད་དོ། །དེ་ནས་ཕྱིས་དགེ་སློང་དེས་སངས་རྒྱས་ལ་སོགས་པ་དགེ་སློང་གི་དགེ་འདུན་བཤོས་གསོལ་ཏེ། དབུ་སྐྲ་དང་སེན་མོའི་མཆོད་རྟེན་དག་ལ་ཡང་བཀུར་སྟི་བྱས་ནས་སྨོན་ལམ་བཏབ་པ། ཀྱེ་མ་དགེ་བའི་རྩ་བ་འདིས་བདག་
[72b.7]གང་དང་གང་དུ་སྐྱེ་བ་དེ་དང་དེར་ཕྱུག་ཅིང་ནོར་མང་ལ་ལོངས་སྤྱོད་ཆེ་བའི་རིགས་སུ་སྐྱེ་བར་ཤོག་ཅིག །གཟུགས་བཟང་ཞིང་བལྟ་ན་སྡུག་ལ་མཛེས་པར་ཡང་གྱུར་ཅིག །ཡང་དག་པར་རྫོགས་པའི་སངས་རྒྱས་འོད་སྲུང་གིས་བྲམ་ཟེའི་ཁྱེའུ་བླ་མ་ལུང་བསྟན་པ་གང་ཡིན་པའི་སངས་
[73a]
[73a.1]རྒྱས་བཅོམ་ལྡན་འདས་དེ་བདག་གིས་མཉེས་པར་བྱེད་པར་གྱུར་ཅིག །མི་མཉེས་པར་བྱེད་པར་མ་གྱུར་ཅིག །དེ་ཁོ་ནའི་བསྟན་པ་ལ་རབ་ཏུ་བྱུང་ནས་ཉོན་མོངས་པ་ཐམས་ཅད་སྤངས་ཏེ་དགྲ་བཅོམ་པ་ཉིད་མངོན་སུམ་དུ་བྱེད་པར་གྱུར་ཅིག་ཅེས་བྱས་སོ། །དེ་ནས་
[73a.2]དགེ་སློང་མ་དེ་གཉིས་ཀྱིས་དེ་མཐོང་ནས་འཕགས་པ་ཁྱོད་ཀྱིས་སྨོན་ལམ་ཇི་ལྟ་བུ་ཅིག་བཏབ་ཅེས་དྲིས་སོ། །དེས་ཀྱང་དེ་གཉིས་ལ་རྒྱས་པར་བསྙད་ནས། དེ་གཉིས་ཀྱིས་ཀྱང་དེ་ཐོས་ནས་སྨོན་ལམ་བཏབ་པ། བདག་ཅག་གཉིས་ཀྱིས་ཀྱང་འཕགས་པ་ཁྱོད་ཉིད་ལས་བརྟེན་ཏེ་སངས་
[73a.3]རྒྱས་བཅོམ་ལྡན་འདས་དེ་མཉེས་པར་བྱེད་པར་གྱུར་ཅིག །མི་མཉེས་པར་བྱེད་པར་མ་གྱུར་ཅིག །དེ་ཁོ་ནའི་བསྟན་པ་ལ་རབ་ཏུ་བྱུང་ནས་ཉོན་མོངས་པ་ཐམས་ཅད་སྤངས་ཏེ་དགྲ་བཅོམ་པ་ཉིད་མངོན་སུམ་དུ་བྱེད་པར་གྱུར་ཅིག །བདག་ཅག་གཉིས་ཀྱིས་དགེ་སློང་མ་མང་པོ་ཞིག་ལ་ཚིག་རྩུབ་
[73a.4]པོ་སྨྲས་པའི་ལས་དེའི་རྣམ་པར་སྨིན་པའི་སྐལ་བ་ཅན་དུ་བདག་ཅག་གཉིས་མ་གྱུར་ཅིག་ཅེས་བྱས་སོ། །དགེ་སློང་དག་ཇི་སྙམ་དུ་སེམས། དེའི་ཚེ་དགེ་སློང་དུ་གྱུར་པ་གང་ཡིན་པ་དེ་ནི་པད་མའི་མདོག་འདི་ཉིད་ཡིན་ནོ། །དེའི་ཚེ་དགེ་སློང་མ་གཉིས་སུ་གྱུར་པ་གང་ཡིན་པ་དེ་གཉིས་ནི་
[73a.5]དགེ་སློང་མ་འདི་གཉིས་ཁོ་ན་ཡིན་ནོ། །དགེ་སློང་དེས་དེར་སངས་རྒྱས་ལ་སོགས་པ་དགེ་སློང་གི་དགེ་བདུན་བཤོས་གསོལ་ཏེ། དབུ་སྐྲ་དང་སེན་མོའི་མཆོད་རྟེན་རྣམས་ལ་བཀུར་སྟི་བྱས་ནས། སྨོན་ལམ་བཏབ་པའི་ལས་དེའི་རྣམ་པར་སྨིན་པས་ཕྱུག་ཅིང་ནོར་མང་ལ་ལོངས་སྤྱོད་ཆེ་
[73a.6]བའི་རིགས་སུ་སྐྱེས་ཏེ། དགེ་སློང་དག་ང་ཡང་དག་པར་རྫོགས་པའི་སངས་རྒྱས་འོད་སྲུང་དང་ཤིན་ཏུ་མཉམ་པ་དང་ཤུགས་མཉམ་པ་དང་མཛད་པ་མཉམ་པ་དང་ཐབས་མཉམ་པ་བརྙེས་པར་གྱུར་ནས། འདིས་ང་མཉེས་པར་བྱས་ཏེ་མི་མཉེས་པར་མ་བྱས་ལ། ང་ཉིད་ཀྱི་བསྟན་པ་ལ་
[73a.7]རབ་ཏུ་བྱུང་ནས་ཉོན་མོངས་པ་ཐམས་ཅད་སྤངས་ཏེ་དགྲ་བཅོམ་པ་ཉིད་མངོན་སུམ་དུ་བྱས་སོ། །དགེ་སློང་མ་དེ་གཉིས་ཀྱིས་དེར་སྨོན་ལམ་བཏབ་སྟེ། བདག་ཅག་གཉིས་ཀྱིས་འདི་ཉིད་ལ་བརྟེན་ཏེ་སངས་རྒྱས་བཅོམ་ལྡན་འདས་དེ་མཉེས་པར་བྱེད་པར་གྱུར་ཅིག །མི་མཉེས་པར་བྱེད་པར་
[73b]
[73b.1]མ་གྱུར་ཅིག །དེ་ཁོ་ནའི་བསྟན་པ་ལ་རབ་ཏུ་བྱུང་ནས་ཉོན་མོངས་པ་ཐམས་ཅད་སྤངས་ཏེ་དགྲ་བཅོམ་པ་ཉིད་མངོན་སུམ་དུ་བྱེད་པར་གྱུར་ཅིག་ཅེས་བྱས་པས་ནི། འདི་གཉིས་ཀྱིས་འདི་ལས་བརྟེན་ནས་ད་ལྟར་ང་མཉེས་པར་བྱས་ཏེ་མི་མཉེས་པར་མ་བྱས་ལ། ང་ཉིད་ཀྱི་བསྟན་པ་ལ་རབ་ཏུ་བྱུང་
[73b.2]ནས་ཉོན་མོངས་པ་ཐམས་ཅད་སྤངས་ཏེ་དགྲ་བཅོམ་པ་ཉིད་མངོན་སུམ་དུ་བྱས་སོ། །དེ་གཉིས་ཀྱིས་དེར་དགེ་སློང་མ་མང་པོ་ཞིག་ལ་གཅིག་གིས་ནི་རིགས་ངན་མོ་ཞེས་བྱ་བའི་ཚིག་བརྗོད་ལ། གཅིག་གིས་ནི་སྨད་འཚོང་མ་ཞེས་བྱ་བའི་ཚིག་བརྗོད་པའི་ལས་དེའི་རྣམ་པར་སྨིན་པས་ནི།
[73b.3]གཅིག་རིགས་ངན་མོའི་རིགས་སུ་སྐྱེས་ལ་གཅིག་ནི་སྨད་འཚོང་མར་གྱུར་ཏོ། །བཙུན་པ་པད་མའི་མདོག་གིས་ལས་ཅི་ཞིག་བགྱིས་ན་ལས་དེའི་རྣམ་པར་སྨིན་པས་ཕྱུག་ཅིང་ནོར་མང་ལ་ལོངས་སྤྱོད་ཆེ་བའི་རིགས་སུ་སྐྱེས་ལ། གཟུགས་བཟང་ཞིང་བལྟ་ན་སྡུག་ལ་མཛེས་པར་གྱུར་ཏེ་
[73b.4]པད་མའི་སྙིང་པོའི་མདོག་འདྲ་བར་གྱུར་ལགས། བཅོམ་ལྡན་འདས་ཀྱིས་བཀའ་སྩལ་པ། སྨོན་ལམ་གྱི་དབང་ལས་གྱུར་ཏོ། །བཙུན་པ་འདིས་གང་དུ་སྨོན་ལམ་བཏབ་ལགས། དགེ་སློང་དག་སྔོན་བྱུང་བ་འདས་པའི་དུས་ན་རི་ཁྲོད་ཅིག་ན་ཀུན་དགའ་ར་བའི་སྲུངས་མ་ཞིག་
[73b.5]གནས་པ་དེའི་ཀུན་དགའ་ར་བ་མེ་ཏོག་ཕུན་སུམ་ཚོགས་པ་དང་། འབྲས་བུ་ཕུན་སུམ་ཚོགས་པ་དང་། བསིལ་གྲིབ་ཕུན་སུམ་ཚོགས་པ་དང་། རྫིང་བུ་ཕུན་སུམ་ཚོགས་པ་དང་ལྡན་ཏེ། རྫིང་དེ་དག་ཀྱང་མེ་ཏོག་ཨུད་པ་ལ་དང་པད་མ་དང་ཀུ་མུ་ད་དང་། པད་མ་དཀར་པོས་
[73b.6]གང་བ་དང་ངང་པ་དང་ངུར་པ་དང་ཟལ་མོ་རྣམས་སྐད་འབྱིན་པ་དང་ལྡན་པར་འདུག་གོ། །སངས་རྒྱས་བཅོམ་ལྡན་འདས་མི་བཞུགས་པའི་ཚེ། རང་སངས་རྒྱས་སྡུག་ཅིང་ཕོངས་པ་རྣམས་ལ་སྙིང་བརྩེ་བ། བས་མཐའི་གནས་མལ་གྱིས་འཚོ་བ། བསེ་རུ་ལྟ་བུའི་འཇིག་རྟེན་
[73b.7]གྱི་ཡོན་གནས་གཅིག་པུ་རྣམས་འཇིག་རྟེན་དུ་འབྱུང་སྟེ། རང་སངས་རྒྱས་གཅིག་གིས་ཀུན་དགའ་ར་བ་དེར་གནས་བཅས་སོ། །དེ་ནས་ཀུན་དགའ་ར་བའི་སྲུངས་མ་དེ་ནང་པར་སྔར་ལངས་ཏེ་ཀུན་དགའ་ར་བ་དེར་སོང་བ་ལས། ཀུན་དགའ་ར་བའི་སྲུངས་མ་དེས་རང་སངས་རྒྱས་དེ་
[74a]
[74a.1]ཀླུའི་རྒྱལ་པོ་ལུས་བསྐྱིལ་ཏེ་དེ་གཉིད་ཀྱིས་ལོག་པ་བཞིན་དུ་སྐྱིལ་མོ་ཀྲུང་བཅས་ཏེ་འདུག་པ་མཐོང་ངོ་། །མཐོང་ནས་ཀྱང་མཆོག་ཏུ་དགའ་བ་སྐྱེས་སོ། །དགའ་བ་སྐྱེས་ནས་རང་སངས་རྒྱས་དེ་ཀུན་དགའ་ར་བ་དེ་ཉིད་དུ་བཤོས་གསོལ་ནས་ན་བཟའ་ཡང་ཕུལ་ཏེ། མེ་ཏོག་
[74a.2]ཨུད་པ་ལ་དང་པད་མ་དང་ཀུ་མུ་ད་དང་པད་མ་དཀར་པོ་རྣམས་ཀྱིས་གཏོར་ནས་སྨོན་ལམ་བཏབ་པ། ཀྱེ་མ་དགེ་བའི་རྩ་བ་འདིས་བདག་གང་དང་གང་དུ་སྐྱེ་བ་དེ་དང་དེར་ཕྱུག་ཅིང་ནོར་མང་ལ་ལོངས་སྤྱོད་ཆེ་བའི་རིགས་སུ་སྐྱེ་བར་ཤོག་ཅིག །གཟུགས་བཟང་ཞིང་བལྟ་ན་སྡུག་ལ་མཛེས་པར་
[74a.3]ཡང་གྱུར་ཅིག །བདག་གི་ལུས་མདོག་པད་མའི་སྙིང་པོའི་ཁ་དོག་ལྟ་བུར་གྱུར་ཅིག །འདི་བས་ཀྱང་ཁྱད་པར་དུ་འཕགས་པའི་སྟོན་པ་མཉེས་པར་བྱེད་པར་གྱུར་ཅིག །མི་མཉེས་པར་བྱེད་པར་མ་གྱུར་ཅིག །ཡོན་ཏན་གྱི་ཚོགས་འདི་ལྟ་བུ་དག་ཀྱང་ཐོབ་པར་གྱུར་ཅིག་ཅེས་བྱས་སོ། །
[74a.4]དགེ་སློང་དག་ཇི་སྙམ་དུ་སེམས། དེའི་ཚེ་ཀུན་དགའ་ར་བའི་སྲུངས་མར་གྱུར་པ་དེ་ནི་པད་མའི་མདོག་འདི་ཉིད་ཡིན་ཏེ། དེས་རང་སངས་རྒྱས་དེ་ལ་བཀུར་སྟི་བྱས་ནས་སྨོན་ལམ་བཏབ་པའི་ལས་དེའི་རྣམ་པར་སྨིན་པས་ཕྱུག་ཅིང་ནོར་མང་ལ་ལོངས་སྤྱོད་ཆེ་བའི་རིགས་སུ་སྐྱེས་ནས་གཟུགས་
[74a.5]བཟང་ཞིང་བལྟ་ན་སྡུག་ལ་མཛེས་པར་གྱུར་ཏེ་ལུས་ཀྱི་མདོག་པད་མའི་སྙིང་པོའི་ཁ་དོག་ལྟ་བུར་གྱུར་ཏེ། དགེ་སློང་དག་རང་སངས་རྒྱས་བྱེ་བ་ཕྲག་འབུམ་བས་ཀྱང་ཆེས་ལྷག་པར་ཁྱད་པར་དུ་འཕགས་པ་ང་ལྟ་བུ་འདིས་མཉེས་པར་བྱས་ཏེ་མི་མཉེས་པར་མ་བྱས་ལ། ང་ཉིད་ཀྱི་བསྟན་
[74a.6]པ་ལ་རབ་ཏུ་བྱུང་ནས་ཉོན་མོངས་པ་ཐམས་ཅད་སྤངས་ཏེ། དགྲ་བཅོམ་པ་ཉིད་མངོན་སུམ་དུ་བྱས་སོ།། །།