ཀཽ་ཤཱཾ་བཱི་ཞེས་བྱ་བ་ནི། སངས་རྒྱས་བཅོམ་
[124b.6]ལྡན་འདས་ཡུལ་ཀཽ་ཤཱཾ་བཱི་ན། ཁྱིམ་བདག་གདངས་ཅན་གྱི་ཀུན་དགའ་ར་བ་ན་བཞུགས་ཏེ། དེའི་ཚེ་ཀཽ་ཤཱཾ་བཱིའི་དགེ་སློང་མ་རུངས་པ་མཐུ་རྩལ་ཆེ་བ། མདོ་སྡེ་འཛིན་པ། འདུལ་བ་འཛིན་པ། མ་མོ་འཛིན་པ། རྩ་འཇིང་ཆེ་བ། གཡོག་འཁོར་མང་བ་ཞིག་གནས་ཏེ། དེའི་
[124b.7]དགེ་སློང་གྲོགས་པོ་མང་པོ་གཞན་དག་ཀྱང་ཡོད་ལ། དེ་དག་ཀྱང་མ་རུངས་བ། མཐུ་རྩལ་ཆེ་བ། མདོ་སྡེ་འཛིན་པ། འདུལ་བ་འཛིན་པ། མ་མོ་འཛིན་པ། རྩ་འཇིང་ཆེ་བ། གཡོག་འཁོར་མང་བ་ཤ་སྟག་གོ། །ཡུལ་ཡངས་པ་ཅན་གྱི་དགེ་སློང་ཞིག་ཀྱང་ཡུལ་ཀཽ་ཤཱཾ་བཱིར་
[125a]
[125a.1]འོངས་ཏེ། དེ་ཡང་མ་རུངས་པ། མཐུ་རྩལ་ཆེ་བ། མདོ་སྡེ་འཛིན་པ། འདུལ་བ་འཛིན་པ། མ་མོ་འཛིན་པ། རྩ་འཇིང་ཆེ་བ། གཡོག་འཁོར་མང་བ་ཞིག་ཡིན་ལ། དེའི་དགེ་སློང་གྲོགས་པོ་གཞན་དག་ཀྱང་ཡོད་ལ། དེ་དག་ཀྱང་མ་རུངས་པ། མཐུ་རྩལ་
[125a.2]ཆེ་བ། མདོ་སྡེ་འཛིན་པ། འདུལ་བ་འཛིན་པ། མ་མོ་འཛིན་པ། རྩ་འཇིང་ཆེ་བ། གཡོག་འཁོར་མང་བ་ཤ་སྟག་གོ། །དེ་ནས་དེ་དེ་དག་དབྱར་གནས་བཅས་ནས། ནང་ཁྲིམས་བཅས་ཏེ། བདག་ཅག་གི་ནང་ནས་གང་གིས་ཆུ་ར་སྟོང་པ་ཅི་ཡང་མེད་པ། ཆུ་མེད་པ་མཐོང་ན་དེ་ཉིད་
[125a.3]ཀྱིས་དགང་བར་བྱའོ། །ཡང་ན་ཡོ་བྱད་ཀྱི་ཞལ་ཏ་བྱེད་པ་ལ་སྦྲན་པར་བྱའོ། །བདག་གིས་ཀྱང་མ་བཀང་ཡོ་བྱད་ཀྱི་ཞལ་ཏ་བྱེད་པ་ལ་ཡང་མ་སྦྲན་ན། དེ་བདག་ཅག་གིས་གཞི་དེ་ལས་ཉེས་པ་འཆགས་སུ་གཞུག་གོ་ཞེས་ཟེར་རོ། །དེ་ནས་དེར་དབྱར་གནས་བཅས་པ་རྣམས་ཡང་
[125a.4]དག་པའི་གཏམ་གཏན་ལ་འབེབས་པ་ན། ཚིག་རྩུབ་པོས་འདྲེས་ནས་གཅིག་ལ་གཅིག་གླགས་འབའ་ཞིག་ལྟ་ཞིང་འཁོད་དོ། །དེའི་ཚེ་ཁྱིམ་བདག་ཅིག་གིས་སངས་རྒྱས་ལ་སོགས་པ་དགེ་སློང་གི་དགེ་འདུན་ཁྱིམ་དུ་བཤོས་ལ་སྤྱན་དྲངས་ནས། བཅོམ་ལྡན་འདས་དགེ་སློང་མང་པོས་
[125a.5]ཞམ་རིང་བྱས་ཏེ། ཁྱིམ་བདག་དེའི་ཁྱིམ་དུ་གཤེགས་སོ། །བཅོམ་ལྡན་འདས་གཤེགས་ནས། ཡངས་པ་ཅན་གྱི་དགེ་སློང་དེ་ཆབ་ཁུང་སར་སོང་སྟེ། བཀྲུ་བཤལ་བྱས་ནས། ཆུ་རའི་ནང་དུ་ཆུ་ཉུང་ངུ་ཞིག་ལས་མ་ལུས་པར་མཐོང་ནས་བསམས་པ། དགེ་སློང་ཐམས་ཅད་
[125a.6]དོང་ཟིན་པས། ད་ནི་སུ་ཡང་ཆབ་ཁུང་སར་འགྲོ་བ་མེད་ཀྱིས། ཆུ་ར་འདི་རང་གིས་དགང་བར་ཡང་མི་དགོས། ཡོ་བྱད་ཀྱི་ཞལ་ཏ་བྱེད་པ་ལ་སྦྲན་ཡང་མི་དགོས་སོ་སྙམ་ནས། དེས་ཆུ་ཉུང་བཞིན་དུ་བོར་ཏེ་སོང་ངོ་། །དེ་སོང་ནས་རིང་ཞིག་ལོན་པའི་འོག་ཏུ་ཀཽ་ཤཱཾ་བཱིའི་དགེ་སློང་དེ་ཆབ་
[125a.7]ཁུང་སར་འགྲོ་བར་ཆས་པ་ལས། དེས་བལྟས་ན་ཆུ་རའི་ནང་ན་ཆུ་ཉུང་ངུ་ཞིག་ལས་མེད་པ་མཐོང་ནས། དེས་ཀྱང་སྔར་ཡངས་པ་ཅན་གྱི་དགེ་སློང་དེས་བཀྲུ་བཤལ་བྱས་ཏེ་སོང་བ་མཐོང་ནས། དེས་བསམས་པ། དགེ་སློང་འདི་ནི་ལས་རྣམ་གཉིས་བྱེད་པར་འགྱུར་ཏེ། ཡང་ན་ནི་བདག་ཉིད་
[125b]
[125b.1]ཀྱིས་ཆུར་འགེངས་པར་བྱེད་པར་འགྱུར་རོ། །ཡང་ན་ནི་ཡོ་བྱད་ཀྱི་ཞལ་ཏ་བྱེད་པ་ལ་སྦྲོན་པར་བྱེད་དོ་སྙམ་ནས་དེ་ལ་སྡོད་ཅིང་འདུག་གོ། །དེ་ནས་དེ་ལ་ལྷན་ཅིག་འཁོད་པའི་སློབ་མ་རྣམས་ཀྱིས་སྨྲས་པ། མཁན་པོ་དགེ་སློང་ཐམས་ཅད་ནི་དོང་ལགས་ན། ཁྱོད་འདི་ན་ཅི་ལ་གཞེས།
[125b.2]དེས་སྨྲས་པ། བཀྲུ་བཤལ་བྱ་བར་འདོད་དེ། ཡངས་པ་ཅན་གྱི་དགེ་སློང་དེས་བཀྲུ་བཤལ་བྱས་ཏེ་སོང་བས་ན། དེ་འོངས་ཏེ་ཡང་ན་ནི་ཁོ་བདག་གིས་ཆུ་ར་འགེངས་པར་བྱེད་པར་འགྱུར་རོ། །ཡང་ན་ནི་ཡོ་བྱད་ཀྱི་ཞལ་ཏ་བྱེད་པ་ལ་སྦྲོན་པར་འགྱུར་རོ། །དེ་དག་གིས་སྨྲས་པ། མཁན་
[125b.3]པོ་དེ་འཁོར་དང་བཅས་པ་ནི་དོང་ལགས་ཀྱིས། འདིར་མ་གཞེས་ཤིག །དེ་ནས་དེས་ཆུ་ར་དེ་དགེ་སློང་རྣམས་ལ་བསྟན་ཏེ། ཁྱོད་ལྟོས་ཤིག་ཆུ་འདི་ཙམ་གྱིས་བཀྲུ་བཤལ་བྱ་བར་རུང་ངམ། དེ་དག་གིས་སྨྲས་པ། མཁན་པོ་ཁྱོད་ཀྱིས་འདི་ན་ཆུ་མེད་དོ་ཞེས་དེ་ཉི་ཚེ་ཞིག་གསུངས་ཤིག་དང་།
[125b.4]བདག་ཅག་གིས་ཁྱོད་ཀྱི་རྩ་འཇིང་དང་། མཐུ་དང་གྲོགས་བགྱིའོ་ཞེས་བྱས་ནས་དོང་ངོ་། །ཡངས་པ་ཅན་གྱི་དགེ་སློང་དེ་ཡང་འགྱོད་པ་སྐྱེས་ནས། དེས་ལྷན་ཅིག་གནས་པའི་སློབ་མ་རྣམས་ལ་སྨྲས་པ། ཀྱེ་བདག་གིས་འདིར་བཀྲུ་བཤལ་བྱས་པ་ལས། ཆུ་རའི་ནང་ན་ཆུ་ཉུང་ཤས་ཅིག་
[125b.5]ལས་མ་ལུས་བཞིན་དུ་བོར་ཏེ་འོངས་ལ། དགེ་འདུན་གྱི་ནང་ཁྲིམས་བཅས་པ་ནི་ཡང་ན་བདག་ཉིད་ཀྱིས་དགང་བར་བྱ་བ་དང་། ཡང་ན་ཡོ་བྱད་ཀྱི་ཞལ་ཏ་བྱེད་པ་ལ་སྦྲན་དགོས་པ་ཡིན་ན། དེ་བདག་རང་གིས་ཀྱང་མ་བཀང་ལ། ཡོ་བྱད་ཀྱི་ཞལ་ཏ་བྱེད་པ་ལ་ཡང་མ་སྦྲན་ན། བདག་འདིར་འོངས་
[125b.6]པའི་འོག་ཏུ་དགེ་སློང་འགའ་ཞིག་བཀྲུ་བཤལ་བྱེད་པར་མི་འགྱུར་གྲང་ཞེས་བྱས་སོ། །དེ་ནས་དེ་དག་གིས་སྨྲས་པ། མཁན་པོ་ཁྱོད་ཀྱིས་འདི་སྐད་དུ། དེའི་ནང་ན་ཆུ་ཡོད་དོ་ཞེས་ཉི་ཚེ་ཞིག་གསུངས་ཤིག་དང་། བདག་གིས་ཁྱོད་ཀྱི་རྩ་འཇིང་དང་། མཐུ་དང་གྲོགས་བགྱིའོ་ཞེས་བྱས་ནས་དོང་ངོ་། །
[125b.7]དེ་ནས་དེ་དག་ཁྱིམ་དེར་ཟན་ཟོས་ནས་ཕྱིར་དོང་ངོ་། །དེ་དག་གི་ནང་ནས་ཀཽ་ཤཱཾ་བཱི་པ་རྣམས་ཀྱིས་བསམས་པ། ཡངས་པ་ཅན་གྱི་དགེ་སློང་དེས་དགེ་འདུན་གྱི་ནང་ཁྲིམས་ལས་འགལ་བར་བྱས་ཀྱིས། དེས་ཉེས་པར་བྱས་པའི་ཕྱིར། བདག་ཅག་གི་ཉེས་པ་འཆགས་སུ་གཞུག་གོ་སྙམ་སྟེ། གདན་
[126a]
[126a.1]བཤམས་ནས་གཎྜཱི་བརྡུངས་ཏེ། དགེ་འདུན་ཐམས་ཅད་འདུས་ཤིང་འཁོད་པར་གྱུར་ནས། ཀཽ་ཤཱཾ་བཱིའི་དགེ་སློང་དེས་ཡངས་པ་ཅན་གྱི་དགེ་སློང་དེ་ལ་གླེང་བ་དང་། དེས་སྨྲས་པ། འདིའི་ནང་ན་ཆུ་ཡོད་དོ། །དེས་སྨྲས་པ། ཆུ་དེ་ཙམ་གྱིས་བཀྲུ་བཤལ་བྱར་ཆོག་གམ་ཞེས་བྱས་
[126a.2]ནས་དེ་དག་གིས་དེ་ལ་ཡུས་མེད་པར་བསྙོན་པའི་ཕྱིར་དགར་བའི་ལས་བྱས་སོ། །དེ་ནས་ཡངས་པ་ཅན་གྱི་དགེ་སློང་དེ་དག་གིས་ལས་དེ་བཤིག་སྟེ། གྱེས་ནས་གསོ་སྦྱོང་གི་ལས་ལོགས་ཤིག་ཏུ་བྱས་སོ། །དེ་ནས་གཞི་དེ་ལས་དེ་དག་འཐབ་པ་དང་། མཚང་འདྲུ་བ་དང་། འགྱེད་པ་དང་། རྩོད་
[126a.3]པར་གྱུར་ནས་དེ་དག་འཐབ་ཅིང་མཚང་བྲུས་ལ། བཀྱེ་ཞིང་རྩོད་ནས་འཁོད་དོ། །དེ་ནས་བཅོམ་ལྡན་འདས་ཀྱིས་དགར་བར་བཅད་པའི་དགེ་སློང་དང་། དགར་བར་བཅད་པའི་རྗེས་སུ་འབྲང་བ་དང་། དགར་བར་བཅད་པའི་རྗེས་སུ་འབྲང་བའི་རྗེས་སུ་འབྲང་བ་རྣམས་བཀུག་ནས་བཀའ་སྩལ་པ། དགེ་སློང་དག་
[126a.4]ཁྱེད་འཐབ་སྟེ་མཚང་འདྲུ་ཞིང་འགྱེད་ལ་རྩོད་པར་གྱུར་པ་བདེན་ནམ། གསོལ་པ། བཅོམ་ལྡན་འདས་མད་ལགས་སོ། །བཀའ་སྩལ་པ། དགེ་སློང་དག་ཁྱེད་འཐབ་སྟེ། མཚང་འདྲུ་ཞིང་འགྱེད་ལ་རྩོད་ཅིང་མ་འཁོད་ཅིག །དགེ་སློང་དག་ཁྱོད་འཐབ་སྟེ། མཚང་འདྲུ་ཞིང་འགྱེད་ལ་རྩོད་པར་གྱུར་ཅིང་
[126a.5]འཁོད་ན་ནི་དགེ་བའི་ཆོས་རྣམས་འགྲིབ་པར་འགྱུར་གྱིས། འཕེལ་བར་མི་འགྱུར་བར་རིག་པར་གྱིས་ཤིག །དགེ་སློང་དག་ཁྱེད་མི་འཐབ་སྟེ། མཚང་མི་འདྲུ་ཞིང་མི་འགྱེད་ལ། མི་རྩོད་པར་འཁོད་ན་ནི། དགེ་བའི་ཆོས་རྣམས་འཕེལ་བ་འབའ་ཞིག་ཏུ་འགྱུར་གྱིས་འགྲིབ་པར་མི་འགྱུར་བར་རིག་པར་གྱིས་ཤིག །
[126a.6]དགེ་སློང་དག་གཞན་ཡང་དགར་བར་བཅད་པའི་དགེ་སློང་གིས་ནི་འདི་ལྟར་བྱ་དགོས་ཏེ། དགར་བར་བཅད་པའི་དགེ་སློང་ནི་མ་རུངས་པ། མཐུ་རྩལ་ཆེ་བ། མདོ་སྡེ་འཛིན་པ། འདུལ་བ་འཛིན་པ། མ་མོ་འཛིན་པ། རྩ་འཇིང་ཆེ་བ། གཡོག་འཁོར་མང་བ་ཡིན་ལ། དགེ་སློང་གྲོགས་པོ་མང་པོ་
[126a.7]གཞན་དག་ཀྱང་མ་རུངས་པ་མཐུ་རྩལ་ཆེ་བ། མདོ་སྡེ་འཛིན་པ། འདུལ་བ་འཛིན་པ། མ་མོ་འཛིན་པ། རྩ་འཇིང་ཆེ་བ་གཡོག་འཁོར་མང་བ་ཡིན་ན། དེ་དག་གིས་བདག་ལ་འདོད་པ་མ་ཡིན་པས་གླེང་བར་བྱེད། འདོད་པ་མ་ཡིན་པས་དྲན་པར་བྱེད་ཀྱིས། བདག་གིས་ཀྱང་དེ་དག་གི་ཉེས་པ་
[126b]
[126b.1]གླེང་བ་དེ་ཆོས་བཞིན་དུ་མཉན་པར་མི་བྱའོ། །དེ་དག་གིས་ཀྱང་བདག་མི་སྣང་བར་དགར་བར་བྱེད་དོ། །ཕྱིར་བཅོས་སུ་མེད་པ་དང་། ཕྱིར་འབྱུང་དུ་མེད་པར་སྡིག་པའི་ལྟ་བས་དགར་བར་བྱེད་དེ། གཞི་དེས་ན་དགེ་འདུན་གྱི་འཐབ་མོ་དང་། མཚང་འདྲུ་བ་དང་། འགྱེད་པ་དང་རྩོད་པ་འབྱུང་བར་འགྱུར་
[126b.2]རོ་སྙམ་དུ་རིག་ནས། གླེང་བའི་དགེ་སློང་གི་ཉེས་པ་ཆོས་བཞིན་དུ་ཕྱིར་བཅོས་ན་ནི་ལེགས། དེ་ལྟར་ཕྱིར་མ་བཅོས་ན་ནི་འགལ་བར་འགྱུར་རོ། །དེ་ནས་བཅོམ་ལྡན་འདས་ཀྱིས་དགར་བར་བཅད་པའི་དགེ་སློང་དང་། དགར་བར་བཅད་པའི་རྗེས་སུ་འབྲང་བ་དང་། དགར་བར་བཅད་པའི་རྗེས་སུ་
[126b.3]འབྲང་བའི་རྗེས་སུ་འབྲང་བ་རྣམས་བཏང་ནས། དགར་བར་བྱེད་པའི་དགེ་སློང་དང་། དགར་བར་བྱེད་པའི་རྗེས་སུ་འབྲང་བ་དང་། དགར་བར་བྱེད་པའི་རྗེས་སུ་འབྲང་བར་བྱེད་པའི་རྗེས་སུ་འབྲང་བ་རྣམས་བཀུག་ནས་བཀའ་སྩལ་པ། དགེ་སློང་དག་ཁྱེད་འཐབ་སྟེ། མཚང་འདྲུ་ཞིང་འགྱེད་
[126b.4]ལ་རྩོད་པར་གྱུར་པ་བདེན་ནམ། གསོལ་པ་བཅོམ་ལྡན་འདས་མད་ལགས་སོ། །བཀའ་སྩལ་པ། དགེ་སློང་དག་ཁྱེད་འཐབ་སྟེ། མཚང་འདྲུ་ཞིང་འགྱེད་ལ་རྩོད་ཅིང་མ་འཁོད་ཅིག །དགེ་སློང་དག་ཁྱེད་འཐབ་སྟེ། མཚང་འདྲུ་ཞིང་འགྱེད་ལ་རྩོད་ཅིང་འཁོད་ན་ནི། དགེ་བའི་ཆོས་
[126b.5]རྣམས་འགྲིབ་པར་འགྱུར་གྱིས་འཕེལ་བར་མི་འགྱུར་བར་རིག་པར་གྱིས་ཤིག །དགེ་སློང་དག་ཁྱེད་མི་འཐབ་སྟེ། མཚང་མི་འདྲུ་ཞིང་མི་འགྱེད་ལ། མི་རྩོད་པར་འཁོད་ན་ནི། དགེ་བའི་ཆོས་རྣམས་འཕེལ་བ་འབའ་ཞིག་ཏུ་འགྱུར་གྱིས། འགྲིབ་པར་མི་འགྱུར་བར་རིག་པར་གྱིས་ཤིག །དགེ་སློང་
[126b.6]དག་གཞན་ཡང་དགར་བར་བྱེད་པའི་དགེ་སློང་གིས་འདི་ལྟར་བྱ་དགོས་སོ། །དགར་བར་བྱེད་པའི་དགེ་སློང་ནི་མ་རུངས་པ། མཐུ་རྩལ་ཆེ་བ། མདོ་སྡེ་འཛིན་པ། འདུལ་བ་འཛིན་པ། མ་མོ་འཛིན་པ། རྩ་འཇིང་ཆེ་བ། གཡོག་འཁོར་མང་བ་ཡིན་ལ། དགེ་སློང་གྲོགས་པོ་མང་པོ་གཞན་དག་ཀྱང་མ་
[126b.7]རུངས་པ། མཐུ་རྩལ་ཆེ་བ། མདོ་སྡེ་འཛིན་པ། འདུལ་བ་འཛིན་པ། མ་མོ་འཛིན་པ། རྩ་འཇིང་ཆེ་བ། གཡོག་འཁོར་མང་བ་ཡིན་ཏེ། བདག་གིས་དེ་ལ་འདོད་པ་མ་ཡིན་པས་གླེང་བར་བྱས། འདོད་པ་མ་ཡིན་པས་དྲན་པར་བྱས་ནས། དེས་ཉེས་པ་དེ་ཆོས་བཞིན་དུ་མཉན་པར་མི་བྱེད་ན། དེ་བདག་གིས་
[127a]
[127a.1]མི་སྣང་བར་དགར་བར་བྱས་ཏེ། ཕྱིར་བཅོས་སུ་མེད་པ་དང་། ཕྱིར་འབྱུང་དུ་མེད་པར་སྡིག་པའི་ལྟ་བས་དགར་བར་བྱས་ཏེ། གཞི་དེས་ན་དགེ་འདུན་གྱི་འཐབ་མོ་དང་། མཚང་འདྲུ་བ་དང་འགྱེད་པ་དང་། རྩོད་པ་འབྱུང་བར་འགྱུར་རོ་སྙམ་དུ་རིག་ནས། འདོད་པ་མ་ཡིན་པས་གླེང་བར་མ་བྱེད་ཅིག །
[127a.2]འདོད་པ་མ་ཡིན་པས་དྲན་པར་མ་བྱེད་ཅིག །གལ་ཏེ་འདོད་པ་མ་ཡིན་པས་གླེང་བར་བྱེད་ན་འགལ་བར་འགྱུར་རོ། །དེ་ལྟར་དེ་དག་ལ་བཅོམ་ལྡན་འདས་ཀྱིས་བཀའ་སྩལ་ཀྱང་། དེ་བཞིན་དུ་འཐབ་ཅིང་མཚང་འདྲུ་ལ་འགྱེད་ཅིང་རྩོད་དེ་འཁོད་ནས་ད་དུང་ཡང་གསོ་སྦྱོང་བྱས་པར་མི་རྩི་ན། སྐབས་ཀྱི་གཏམ་དེ་དགེ་སློང་
[127a.3]རྣམས་ཀྱིས་བཅོམ་ལྡན་འདས་ལ་གསོལ་ཏོ། །དེ་ནས་བཅོམ་ལྡན་འདས་ཀྱིས་དགར་བར་བཅད་པའི་དགེ་སློང་དང་། དགར་བར་བཅད་པའི་རྗེས་སུ་འབྲང་བ་དང་། དགར་བར་བཅད་པའི་རྗེས་སུ་འབྲང་བའི་རྗེས་སུ་འབྲང་བ་རྣམས་བཀུག་ནས་བཀའ་སྩལ་པ། དགེ་སློང་དག་ཁྱེད་འཐབ་སྟེ། མཚང་འདྲུ་ཞིང་
[127a.4]འགྱེད་ལ་རྩོད་ཅིང་མ་འཁོད་ཅིག་ཅེས་ངས་བསྒོ་ཡང་། དེ་བཞིན་དུ་ཁྱེད་འཐབ་སྟེ། མཚང་འདྲུ་ཞིང་འགྱེད་ལ། རྩོད་ཅིང་འཁོད་དེ་ད་དུང་ཡང་གསོ་སྦྱོང་བྱས་པར་མི་རྩི་བ་བདེན་ནམ། གསོལ་པ་བཅོམ་ལྡན་འདས་མད་ལགས་སོ། །དགེ་སློང་དག་ཁྱེད་འཐབ་སྟེ། མཚང་འདྲུ་ཞིང་འགྱེད་ལ་རྩོད་པར་མ་བྱེད་
[127a.5]ཅིག་དགེ་སློང་དག་ཁྱེད་འཐབ་སྟེ། མཚང་འདྲུ་ཞིང་འགྱེད་ལ་རྩོད་ཅིང་འཁོད་ན་ནི། གསོ་སྦྱོང་བྱེད་དམ་སྐབས་འབྱེད་པའི་ལས་བྱེད་དམ། གསོལ་བ་དང་གཉིས་ཀྱི་ལས་བྱེད་དམ། གསོལ་བ་དང་བཞིའི་ལས་བྱེད་ཀྱང་རུང་སྟེ། ལས་དེ་དག་འཇིག་པར་གྱུར་ཏེ། བཞག་དགོས་པ་ཡིན་ནོ། །
[127a.6]དེ་ཅིའི་ཕྱིར་ཞེ་ན། དགེ་སློང་དག་ཁྱེད་ནི་དེ་དག་ལས་ཐ་དད་པར་གནས་པར་བྱེད་ལ་དེ་དག་ཀྱང་ཁྱེད་ལས་ཐ་དད་པར་གནས་པར་བྱེད་པའི་ཕྱིར་རོ། །དགེ་སློང་དག་ཐ་དད་པར་གནས་པ་ནི་འདི་གཉིས་ཡིན་ཏེ། གང་བདག་ཉིད་ཀྱིས་བདག་ཐ་དད་པར་གནས་པར་འདོགས་པ་དང་། གང་དགེ་འདུན་
[127a.7]འཐུན་པས་ཐ་དད་པར་གནས་པར་འདོགས་པའོ། །དེ་ལ་དགེ་སློང་དག་བདག་གིས་བདག་ཐ་དད་དུ་གནས་པར་འདོགས་པ་ཅི་ལྟ་བུ་ཞེ་ན། འདི་ལྟར་དགེ་སློང་གིས་ཤེས་བཞིན་དུ་ཆོས་བཞིན་གྱི་ཕྱོགས་ལ་ཆོས་བཞིན་མ་ཡིན་པའི་ཕྱོགས་ཡིན་པར་འཇོག་པ་དེ་ལྟ་བུ་ནི། བདག་གིས་བདག་ཐ་དད་པར་
[127b]
[127b.1]གནས་པར་འདོགས་པ་ཡིན་ནོ། །དགེ་འདུན་གྱི་ཆོས་བཞིན་དུ་ཐ་དད་པར་འདོགས་པ་ཅི་ལྟ་བུ་ཞེ་ན། འདི་ལྟར་དགེ་འདུན་གྱིས་དགེ་སློང་མི་སྣང་བར་དགར་བར་བྱས་ཏེ། ཕྱིར་བཅོས་སུ་མེད་པ་དང་། ཕྱིར་འབྱུང་དུ་མེད་པར་སྡིག་པའི་ལྟ་བས་དགར་བར་བྱེད་པ་སྟེ། དེ་ལྟ་བུ་ནི་དགེ་འདུན་གྱི་ཐ་དད་
[127b.2]པར་གནས་པར་འདོགས་པ་ཡིན་ནོ། །དགེ་སློང་དག་ལྷན་ཅིག་ཏུ་གནས་པ་ནི་འདི་གཉིས་ཡིན་ཏེ། གང་བདག་གིས་བདག་ལྷན་ཅིག་ཏུ་གནས་པར་འདོགས་པ་དང་། གང་དགེ་འདུན་གྱིས་ཆོས་བཞིན་དུ་ལྷན་ཅིག་ཏུ་གནས་པར་འདོགས་པའོ། །དེ་ལ་བདག་གིས་བདག་ལ་ལྷན་ཅིག་ཏུ་
[127b.3]གནས་པར་འདོགས་པ་ཅི་ལྟ་བུ་ཞེ་ན། འདི་ལྟར་དགེ་སློང་གིས་ཤེས་བཞིན་དུ་ཆོས་བཞིན་མ་ཡིན་པའི་ཕྱོགས་ལ་ཆོས་བཞིན་གྱི་ཕྱོགས་ཡིན་པར་འཇོག་པ་སྟེ། དེ་ལྟ་བུ་ནི་བདག་གིས་བདག་ལྷན་ཅིག་ཏུ་གནས་པར་འདོགས་པ་ཡིན་ནོ། །དགེ་འདུན་གྱིས་ཆོས་བཞིན་དུ་ལྷན་ཅིག་ཏུ་
[127b.4]གནས་པར་འདོགས་པ་ཅི་ལྟ་བུ་ཞེ་ན། འདི་ལྟར་དགེ་འདུན་གྱིས་དགེ་སློང་མི་སྣང་བར་དགར་བར་བྱ་སྟེ། ཕྱིར་བཅོས་སུ་མེད་པ་དང་། ཕྱིར་འབྱུང་དུ་མེད་པར་སྡིག་པའི་ལྟ་བས་དགར་བར་བྱེད་པ་སྟེ། དེ་ལྟ་བུ་ནི་དགེ་འདུན་གྱིས་ཆོས་བཞིན་དུ་ལྷན་ཅིག་ཏུ་གནས་པར་འདོགས་པའོ། །དེ་ནས་བཅོམ་ལྡན་
[127b.5]འདས་ཀྱིས་དགར་བར་བཅད་པའི་དགེ་སློང་དང་། དགར་བར་བཅད་པའི་རྗེས་སུ་འབྲང་བ་དང་། དགར་བར་བཅད་པའི་རྗེས་སུ་འབྲང་བའི་རྗེས་སུ་འབྲང་བ་རྣམས་བཏང་ནས། དགར་བར་བྱེད་པའི་དགེ་སློང་དང་། དགར་བར་བྱེད་པའི་རྗེས་སུ་འབྲང་བ་དང་། དགར་བར་བྱེད་པའི་རྗེས་སུ་འབྲང་བའི་རྗེས་སུ་འབྲང་བ་
[127b.6]རྣམས་བཀུག་ནས་བཀའ་སྩལ་པ། དགེ་སློང་དག་ཁྱེད་འཐབ་སྟེ། མཚང་འདྲུ་ཞིང་འགྱེད་ལ་རྩོད་ཅིང་མ་འཁོད་ཅིག་ཅེས་ངས་བསྒོ་ན་ཡང་། དེ་བཞིན་དུ་ཁྱེད་འཐབ་སྟེ། མཚང་འདྲུ་ཞིང་འགྱེད་ལ་རྩོད་ཅིང་འཁོད་དེ་ད་དུང་ཡང་གསོ་སྦྱོང་བྱས་པ་ལ་གསོ་སྦྱོང་བྱས་པར་མི་རྩི་བ་བདེན་ནམ། གསོལ་པ། བཅོམ་ལྡན་
[127b.7]མད་ལགས་སོ་ཞེས་བྱས་ནས། དེ་ལྟ་བུའི་དགེ་འདུན་གྱི་ཆོས་བཞིན་དུ་ལྷན་ཅིག་ཏུ་གནས་པར་འདོགས་པའོ་ཞེས་བྱ་བའི་བར་དུ་སྔ་མ་བཞིན་དུ་སྦྱར་རོ། །དེ་ལྟར་དེ་དག་ལ་བཅོམ་ལྡན་འདས་ཀྱིས་བཀའ་སྩལ་ཀྱང་དེ་བཞིན་དུ་འཐབ་ཅིང་མཚང་འདྲུ་ལ་འགྱེད་ཅིང་རྩོད་དེ་འཁོད་དོ། །དེ་ནས་ཁྱིམ་བདག་ཅིག་
[128a]
[128a.1]གིས་སངས་རྒྱས་ལ་སོགས་པ་དགེ་སློང་གི་དགེ་འདུན་ཁྱིམ་དུ་བཤོས་ལ་སྤྱན་དྲངས་ནས། དགེ་སློང་དེ་དག་དེར་དོང་ངོ་། །དེ་ནས་དེ་དག་བཅོམ་ལྡན་འདས་ཀྱིས་ཡོ་བྱད་ཀྱི་ཞལ་ཏ་བྱེད་པ་ལ་བཤོས་འདིར་དྲོངས་ཤིག་ཅེས་བཀའ་སྩལ་ཏོ། །སངས་རྒྱས་བཅོམ་ལྡན་འདས་རྣམས་ནི་རྣམ་པ་
[128a.2]ལྔའི་ཕྱིར། ཡོ་བྱད་ཀྱི་ཞལ་ཏ་བྱེད་པ་ལ་བཤོས་ལེན་དུ་འཇུག་པར་མཛད་དེ། ནང་དུ་ཡང་དག་པར་འཇོག་པར་བཞེད་པ་དང་། ལྷ་རྣམས་ལ་ཆོས་སྟོན་པར་བཞེད་པ་དང་། ནད་པ་གཟིགས་པར་བཞེད་པ་དང་། མལ་སྟན་གཟིགས་པར་བཞེད་པ་དང་། ཉན་ཐོས་རྣམས་ལ་བསླབ་པའི་
[128a.3]གཞི་བཅའ་བར་བཞེད་པ་རྣམས་ཀྱི་ཕྱིར་རོ། །སྐབས་འདིར་ནི་བཅོམ་ལྡན་འདས་ཀྱིས་འདུལ་བ་ལ་བསླབ་པའི་གཞི་བཅའ་བར་བཞེད་པའི་ཕྱིར་རོ། །ཡོ་བྱད་ཀྱི་ཞལ་ཏ་བྱེད་པ་ལ་བཤོས་ལེན་དུ་བཏང་ངོ་། །དེ་ནས་དགེ་སློང་མང་པོ་ཁྱིམ་དེར་དོང་བ་རྣམས་སྟན་ལ་འཁོད་ནས་འཐབ་སྟེ། མཚང་
[128a.4]འདྲུ་ཞིང་འགྱེད་ལ་རྩོད་པར་གྱུར་ཏོ། །དེ་དག་འཐབ་སྟེ་མཚང་འདྲུ་ཞིང་འགྱེད་ལ་རྩོད་ཅིང་འཁོད་དོ། །འཚམ་པ་མ་ཡིན་པའི་ལུས་ཀྱི་ལས་དང་། འཚམ་པ་མ་ཡིན་པའི་ངག་གི་ལས་བྱེད་ཅིང་འདུག་ལ། ཅི་ཙམ་ན་རྡེག་པར་བྱེད་དོ། །དེ་ནས་བཤོས་ལེན་དུ་སོང་བས་བཤོས་བླངས་
[128a.5]ནས། བཅོམ་ལྡན་འདས་ག་ལ་བ་དེར་སོང་སྟེ་ཕྱིན་ནས། བཅོམ་ལྡན་འདས་ཀྱི་ཞབས་ལ་མགོ་བོས་ཕྱག་འཚལ་ཏེ། ཕྱོགས་གཅིག་ཏུ་འདུག་གོ། །དེ་ནས་བཅོམ་ལྡན་འདས་ཀྱིས་བཤོས་ལེན་པའི་དགེ་སློང་དེ་ལ་བཀའ་སྩལ་པ། དགེ་སློང་ཅི་དགེ་སློང་གི་དགེ་འདུན་ཁ་ཟས་
[128a.6]བཟང་པོས་ཚིམ་པར་གྱུར་ཏམ། གསོལ་པ་བཙུན་པ་དེ་ནི་དེ་ལགས་ཏེ། དགེ་སློང་གི་དགེ་འདུན་ཁ་ཟས་བཟང་པོས་ནི་ཚིམ་པར་གྱུར་ལགས་ན། བཙུན་པ་འོན་ཀྱང་དགེ་སློང་མང་པོ་ཁྱིམ་དེར་མཆིས་པ་རྣམས་འཐབ་སྟེ། མཚང་འདྲུ་ཞིང་འགྱེད་ལ་རྩོད་པར་གྱུར་ཏོ། །
[128a.7]དེ་དག་འཐབ་སྟེ། མཚང་འདྲུ་ཞིང་འགྱེད་ལ་རྩོད་ཅིང་འཁོད་དེ། འཚམ་པ་མ་ལགས་པའི་ལུས་ཀྱི་ལས་དང་། འཚམ་པ་མ་ལགས་པའི་ངག་གི་ལས་བགྱིད་ཅིང་འཁོད་ལ་ཅི་ཙམ་ན་རྡེག་པར་ཡང་བགྱིད་དོ་ཞེས་གསོལ་ཏོ། །དེ་ནས་བཅོམ་ལྡན་འདས་བཤོས་གསོལ་
[128b]
[128b.1]ནས། གཙུག་ལག་ཁང་གི་ཕྱི་རོལ་དུ་ཞབས་བཀྲུས་ཏེ། ནང་དུ་ཡང་དག་འཇོག་པའི་ཕྱིར་གཙུག་ལག་ཁང་གི་ནང་དུ་གཤེགས་སོ། །དེ་ནས་བཅོམ་ལྡན་འདས་ཕྱེ་མ་རེད་ནང་དུ་ཡང་དག་འཇོག་ལས་བཞེངས་ནས། དགེ་སློང་གི་དགེ་འདུན་གྱི་གུང་ལ་གདན་
[128b.2]བཤམས་པ་ལ་བཞུགས་སོ། །གདན་ལ་བཞུགས་ནས་བཅོམ་ལྡན་འདས་ཀྱིས་དགེ་སློང་རྣམས་ལ་བཀའ་སྩལ་པ། དགེ་སློང་དག་ཁྱེད་ཁྱིམ་དེར་དོང་བ་རྣམས་འཐབ་སྟེ། མཚང་འདྲུ་ཞིང་འགྱེད་ལ་རྩོད་པར་གྱུར་ནས་ཁྱེད་འཐབ་སྟེ། མཚང་འདྲུ་ཞིང་འགྱེད་ལ་
[128b.3]རྩོད་ཅིང་འཁོད་དེ། འཚམ་པ་མ་ཡིན་པའི་ལུས་ཀྱི་ལས་དང་། འཚམ་པ་མ་ཡིན་པའི་ངག་གི་ལས་བྱེད་ཅིང་འཁོད་ལ། ཅི་ཙམ་ན་རྡེག་པར་ཡང་བྱེད་པ་བདེན་ནམ། བཙུན་པ་མད་ལགས་སོ། །དེ་ནས་བཅོམ་ལྡན་འདས་ཀྱིས་དགེ་སློང་རྣམས་ལ་བཀའ་སྩལ་པ། ཁྱིམ་
[128b.4]བདག་དེར་དོང་བའི་དགེ་སློང་སྡེ་སྡེར་ཆད་པ་རྣམས་ལ་ཁྲིམས་སུ་བྱ་བའི་ཆོས་རྣམས་ངས་བཅའ་བར་བྱ་སྟེ། དགེ་སློང་སྡེ་སྡེར་ཆད་པ་རྣམས་ཀྱིས་རྩོད་པའི་གཅུགས་ཀྱི་གནས་སོ་ཅོག་སྤོངས་ཤིག །དགེ་སློང་ཐ་མལ་པར་འདུག་པ་རྣམས་ཀྱིས་ནི་དགེ་སློང་སྡེ་སྡེར་ཆད་པ་རྣམས་དང་། ཉིན་
[128b.5]བར་ཡང་རུང་། མཚན་མོ་ཡང་རུང་། ནང་པར་ཡང་རུང་། དྲོ་ལ་ཡང་རུང་སྟེ། གཙུག་ལག་ཁང་གཅིག་གམ། དགོན་པའམ། གྲོང་འདབ་གཅིག་ཏུ་གནས་པར་མ་བྱེད་ཅིག །ལྷན་ཅིག་ཏུ་ཡང་གནས་པར་མ་བྱེད་ཅིག །ལམ་གཅིག་ཏུ་ཡང་མ་འགྲོ་ཤིག །ལམ་དུ་ཡང་མ་འགྲོགས་ཤིག །
[128b.6]བརྡ་ཡང་མ་བྱེད་ཅིག །བརྡ་སྐད་ཀྱང་མ་བྱེད་ཅིག །ཐ་མལ་པར་གནས་པས། རྩོད་པའི་གཅུགས་དེ་ཁོང་དུ་ཆུད་ནས། ཆོས་བཞིན་དང་འདུལ་བ་བཞིན་དུ་ཞི་བར་བྱེད་ནུས་ལ། སྟོན་པའི་བསྟན་པ་བསྲུང་བའི་ཕྱིར། འཐུན་པར་བྱེད་ནུས་ན་ནི་ཞི་བར་བྱེད་པའི་ཐབས་དག་ཅིང་།
[128b.7]འདུལ་བ་དང་འཐུན་པ་གཅིག་གིས་རྩོད་པའི་གཅུགས་དེ་ཞི་བར་བྱས་པ་ཞེས་བྱའོ། །ལས་བརྒྱ་ཐམ་པ་ལས་སྡོམ་གྱི་ཚིགས་སུ་བཅད་པ་བཅུ་པ་རྫོགས་ཏེ་ལས་བརྒྱ་ཐམ་པ་རྫོགས་སོ།། །།