པད་མ་གཉིས་པ་ནི། གླེང་གཞི་མཉན་དུ་ཡོད་པ་ན་བཞུགས་ཏེ། དེའི་ཚེ་མཉན་དུ་ཡོད་པ་དེ་ཉིད་
[43b.2]ན། ཀུན་དགའ་ར་བ་སྲུང་བ་ཞིག་འདུག་པ། དེའི་མཚོའི་ནང་ནས་དུས་མ་ཡིན་པར་པད་མ་ཞིག་སྐྱེས་ཏེ། དེའི་བློ་སྐྱེས་པ། པད་མ་འདི་བདག་གིས་རྒྱལ་པོ་གསལ་རྒྱལ་ལ་དབུལ་བར་བྱའོ། །འོན་ཏང་བདག་གི་ལོངས་སྤྱོད་ཆེན་པོ་དག་གི་འབྱུང་ཁུངས་སུ་འགྱུར་རོ་སྙམ་ནས། དེ་ཁྱེར་
[43b.3]ཏེ་རྒྱལ་པོའི་ཕོ་བྲང་དུ་ཆས་ཏེ་སོང་ངོ་། །སངས་རྒྱས་བཅོམ་ལྡན་འདས་བགྲོད་པ་གཅིག་པུའི་ལམ་སྟོན་པ། རྣམ་པ་གཉིས་ཀྱི་ཤེས་བྱ་དང་། ཡེ་ཤེས་ལ་མངའ་བརྙེས་པ། མ་འདྲེས་པའི་དྲན་པ་ཉེ་བར་གཞག་པ་གསུམ་ལ་མཁས་པ། མི་འཇིགས་པ་བཞིས་མི་འཇིགས་པ། འགྲོ་
[43b.4]བ་ལྔར་འགྲོ་བ་ལས་རྣམ་པར་གྲོལ་བ། སྐྱེ་མཆེད་དྲུག་ལ་མཁས་པ། བྱང་ཆུབ་ཀྱི་ཡན་ལག་བདུན་ལ་སྤྱོད་ཡུལ་བ། རྣམ་པར་ཐར་པ་བརྒྱད་ལ་བསམ་གཏན་པ། མཐར་གྱིས་གནས་པའི་སྙོམས་པར་འཇུག་པ་དགུ་ལ་སྙོམས་པར་འཇུག་པ། སྟོབས་བཅུའི་སྟོབས་དང་ལྡན་པ། ཡང་དག་པའི་
[43b.5]སེང་གེའི་སྒྲ་ཆེན་པོ་སྒྲོགས་པ་རྣམས་ནི། ཆོས་ཉིད་ཀྱིས་ཉིན་དུས་གསུམ་མཚན་དུས་གསུམ་སྟེ། ཉིན་མཚན་དུས་དྲུག་ཏུ་སངས་རྒྱས་ཀྱི་སྤྱན་གྱིས་འཇིག་རྟེན་ལ་གཟིགས་ཏེ། སུ་ནི་རྒུད། སུ་ནི་དར། སུ་ནི་ཕོངས་ཤིང་འདུག །སུ་ནི་ཉམ་ང་བར་གྱུར། སུ་ནི་གནོད་པ་དང་ལྡན། སུ་
[43b.6]ནི་ཕོངས་པ་དང་ཉམ་ང་བ་དང་གནོད་པ་དང་ལྡན། སུ་ནི་ངན་སོང་དུ་གཞོལ། སུ་ནི་ངན་སོང་དུ་འབབ། སུ་ནི་ངན་སོང་དུ་བབ། སུ་ནི་ངས་ངན་སོང་ནས་ཕྱུང་སྟེ་མཐོ་རིས་དང་ཐར་པ་དང་འབྲས་བུ་ལ་གཞག་པར་བྱ། སུ་ནི་ཉེས་པར་སྤྱོད་པའི་འདམ་དུ་བྱིང་བ་ལས་ལག་ནས་དྲང་བར་བྱ། སུ་ནི་འཕགས་
[43b.7]པའི་ནོར་བདུན་མེད་པ་ལས་འཕགས་པའི་ནོར་བདུན་གྱི་དབང་ཕྱུག་ལ་དབང་བྱེད་དུ་གཞུག་པར་བྱ། སུ་ནི་དགེ་བའི་རྩ་བ་རྣམས་མ་བསྐྱེད་པ་ལས་བསྐྱེད་པར་བྱ། སུ་ནི་དགེ་བའི་རྩ་བ་རྣམས་བསྐྱེད་ཟིན་པ་ལས་ཡོངས་སུ་སྨིན་པར་བྱ། སུ་ནི་དགེ་བའི་རྩ་བ་རྣམས་ཡོངས་སུ་སྨིན་ཟིན་པ་ལས་ཡེ་ཤེས་
[44a]
[44a.1]ཀྱི་མཚོན་གྱིས་བརྟོལ་བར་བྱ། སུ་ལ་ནི་སངས་རྒྱས་བྱུང་བས་བརྒྱན་པའི་འཇིག་རྟེན་འབྲས་བུ་ཡོད་པར་བྱ་སྙམ་དུ་ཡེ་ཤེས་གཟིགས་པ་འཇུག་གོ། །རྒྱ་མཚོ་ཆུ་སྲིན་རྣམས་ཀྱི་གནས། །དུས་རླབས་ཡོལ་བར་འགྱུར་ཡང་སྲིད། །འདུལ་བར་བྱ་བའི་སྲས་རྣམས་ལ། །སངས་
[44a.2]རྒྱས་དུས་ལས་ཡོལ་བ་མེད། །དེ་ནས་བཅོམ་ལྡན་འདས་ཀྱིས་དགོངས་པ། ཀུན་དགའ་ར་བའི་སྲུངས་མ་དེ། བླ་ན་མེད་པ་ཡང་དག་པར་རྫོགས་པའི་བྱང་ཆུབ་ལས་ཕྱིར་མི་ལྡོག་པར་སེམས་བསྐྱེད་པར་འགྱུར་རོ་སྙམ་དུ་དགོངས་ནས། སྔ་དྲོ་ཤམ་ཐབས་དང་ཆོས་གོས་གསོལ་ཏེ་ལྷུང་བཟེད་
[44a.3]བསྣམས་ནས། མཉན་དུ་ཡོད་པར་བསོད་སྙོམས་ལ་གཤེགས་སོ། །དེ་ནས་ཀུན་དགའ་ར་བའི་སྲུངས་མ་དེས། ཐག་རིང་པོ་ཞིག་ནས་སངས་རྒྱས་བཅོམ་ལྡན་འདས་མཐོང་ངོ་། །མཐོང་ནས་ཀྱང་བཅོམ་ལྡན་འདས་ལ་ཤིན་ཏུ་དགའ་བར་གྱུར་ཏོ། །དགའ་བར་གྱུར་ནས་བསམས་པ།
[44a.4]བདག་གིས་རྒྱལ་པོ་གསལ་རྒྱལ་བཏང་ལ། བཅོམ་ལྡན་འདས་ལ་བདག་ཉིད་ཀྱིས་མཆོད་པ་བྱའོ་སྙམ་ནས། དེས་པད་མ་དེ་བཅོམ་ལྡན་འདས་ཀྱི་སྟེང་གི་ནམ་མཁའ་ལ་བོར་བ་ལས། བཅོམ་ལྡན་འདས་ཀྱི་མཐུས་པད་མ་དེ་ཤིང་རྟའི་འཕང་ལོ་ཙམ་དུ་གྱུར་ཏེ། བཅོམ་ལྡན་འདས་གཤེགས་
[44a.5]ན་ནི་འགྲོའོ། །གཞེས་ན་ནི་སྡོད་དོ། །དེ་ནས་ཀུན་དགའ་ར་བའི་སྲུངས་མ་དེས་ཆོ་འཕྲུལ་དེ་ལྟ་བུ་མཐོང་ནས། ལྷག་པར་ཡང་བཅོམ་ལྡན་འདས་ལ་ཤིན་ཏུ་དགའ་བར་གྱུར་ཏེ། བླ་ན་མེད་པ་ཡང་དག་པར་རྫོགས་པའི་བྱང་ཆུབ་ཏུ་སྨོན་ལམ་བཏབ་སྟེ། ཀྱེ་མ་དགེ་བའི་རྩ་བ་འདིས་ན་བདག་
[44a.6]འཇིག་རྟེན་ལོང་བ་འདྲེན་པ་མེད་པ་སྟོན་པ་མེད་པར། དེ་བཞིན་གཤེགས་པ་དགྲ་བཅོམ་པ་ཡང་དག་པར་རྫོགས་པའི་སངས་རྒྱས་རིག་པ་དང་ཞབས་སུ་ལྡན་པ། བདེ་བར་གཤེགས་པ། འཇིག་རྟེན་མཁྱེན་པ། སྐྱེས་བུ་འདུལ་བའི་ཁ་ལོ་སྒྱུར་བ། བླ་ན་མེད་པ་ལྷ་དང་མི་རྣམས་ཀྱི་སྟོན་པ།
[44a.7]སངས་རྒྱས་བཅོམ་ལྡན་འདས་སུ་གྱུར་ཅིག་ཅེས་བྱས་སོ། །དེ་ནས་བཅོམ་ལྡན་འདས་ཀྱིས་ཀུན་དགའ་ར་བའི་སྲུངས་མ་དེ་ལ་བཀའ་སྩལ་པ། བཞིན་བཟངས་ལེགས་སོ་ལེགས་སོ། །མ་འོངས་པའི་དུས་ན་ཁྱོད་འཇིག་རྟེན་ལོང་བ་འདྲེན་པ་མེད་པ་སྟོན་པ་མེད་པར། དེ་བཞིན་གཤེགས་
[44b]
[44b.1]པ་དགྲ་བཅོམ་པ་ཡང་དག་པར་རྫོགས་པའི་སངས་རྒྱས་རིག་པ་དང་ཞབས་སུ་ལྡན་པ། བདེ་བར་གཤེགས་པ། འཇིག་རྟེན་མཁྱེན་པ། སྐྱེས་བུ་འདུལ་བའི་ཁ་ལོ་སྒྱུར་བ། བླ་ན་མེད་པ་ལྷ་དང་མི་རྣམས་ཀྱི་སྟོན་པ། སངས་རྒྱས་བཅོམ་ལྡན་འདས་བླ་མ་ཞེས་བྱ་བར་འགྱུར་རོ་ཞེས་གསུངས་སོ།། །།