ལས་བརྒྱ་ཐམ་པ། བམ་པོ་དགུ་པ། དོམ་གཉིས་ཞེས་བྱ་བ་དེ་ལ་དོམ་དང་པོ་ནི། གླེང་གཞི་རྒྱལ་པོའི་ཁབ་ན་
[104b.2]བཞུགས་ཏེ། བཅོམ་ལྡན་འདས་ཡུལ་ག་ཡཱར་གཤེགས་པ་ན། ཆམ་པས་བཏབ་ནས་སྨན་པའི་རྒྱལ་པོ་འཚོ་བྱེད་ཀྱིས་ལྕགས་མདའ་ཞེས་བྱ་བའི་སྨན་མར་ཕན་ཞེས་གསོལ་ནས། དེ་ཉིད་ཀྱིས་སྨན་མར་བསྐོལ་ཏེ། བཅོམ་ལྡན་འདས་ལ་སྨན་མར་གསོལ་ཏོ། །དེ་ནས་དེ་ལས་
[104b.3]ལྷག་པར་གྱུར་ནས་འཚོ་བྱེད་ཀྱིས་གསོལ་པ། བཙུན་པ་ཆབ་མར་གྱི་ལྷག་མ་བདག་གིས་སུ་ལ་སྩལ་བར་འཚལ། དེ་ནས་དེར་བཅོམ་ལྡན་འདས་ཀྱིས་འཚོ་བྱེད་ལ་བཀའ་སྩལ་པ། འཚོ་བྱེད་དགེ་འདུན་ལ་བྲིམས་ལ་སུ་འདོད་པ་ལ་བྱིན་ཅིག །དེ་ནས་བཅོམ་ལྡན་འདས་ཀྱིས་བཀའ་
[104b.4]སྩལ་པ་བཞིན་འཚལ་ལོ་ཞེས་གསོལ་ནས། འཚོ་བྱེད་ཀྱིས་མར་གྱི་ལྷག་མ་དེ་དགེ་འདུན་ལ་བྲིམས་ནས། དེར་དགེ་སློང་རྣམས་ཀྱིས་གཅིག་གིས་ཀྱང་མ་བླངས་ཏེ། ལྷས་བྱིན་གྱིས་མཐོང་ནས་སྨྲས་པ་འཚོ་བྱེད་དེ་ཅི། འཚོ་བྱེད་ཀྱིས་སྨྲས་པ། བཅོམ་ལྡན་འདས་ཀྱིས་
[104b.5]ལྕགས་མདའ་ཞེས་བྱ་བའི་སྨན་མར་གསོལ་བ་དེའི་ལྷག་མ་འདི། དགེ་སློང་རྣམས་ལ་བྲིམས་ན་སུས་ཀྱང་མ་བླངས་སོ། །ལྷས་བྱིན་གྱིས་སྨྲས་པ། ངས་བླང་གིས་དགེ་སྦྱོང་གཽ་ཏ་མས་ཇི་ཙམ་འཐུངས་པ་དེ་ཙམ་བྱིན་ཅིག །འཚོ་བྱེད་ཀྱིས་སྨྲས་པ། ལྷས་བྱིན་བཅོམ་ལྡན་
[104b.6]འདས་ནི་སྐུ་ཡང་ཆེ་ལ་ཉམ་སྟོབས་ཀྱང་ཆེའོ། །ཁྱོད་ཀྱིས་ནི་དེ་སྙེད་འཇུ་བར་མི་ནུས་སོ། །དེས་སྨྲས་པ། དགེ་སྦྱོང་གཽ་ཏ་མས་ཞུ་ན་ངས་ཅིའི་ཕྱིར་མི་ཞུ་ཞེས་སྨྲས་ནས། ལྷས་བྱིན་གྱིས་འཚོ་བྱེད་ཀྱི་ཚིག་དེ་མ་མཉན་ནས། བཅོམ་ལྡན་འདས་ཀྱིས་ཇི་ཙམ་གསོལ་བ་དེ་ཙམ་
[104b.7]ཞིག་དེས་ཀྱང་འཐུངས་སོ། །དེ་ནས་དེར་བཅོམ་ལྡན་འདས་ཀྱིས་ཕྱི་དེ་ཉིན་འབྲས་ཐུག་སླ་བའི་ཆོ་ག་མཛད་དེ་བཤོས་གསོལ་ཏོ། །དེ་ནས་ལྷས་བྱིན་གྱིས་འབྲས་ཐུག་སླ་བའི་ཆོ་ག་མཛད་དེ། བཤོས་གསོལ་ཏོ་ཞེས་ཐོས་ནས་འཚོ་བྱེད་ལ་སྨྲས་པ། འཚོ་བྱེད་བདག་གིས་ཀྱང་
[105a]
[105a.1]འབྲས་ཐུག་སླ་བའི་ཆོ་ག་བྱའོ། །དེ་ནས་འཚོ་བྱེད་ཀྱིས་དེའི་བཞིན་མདོག་བལྟས་ནས་སྨྲས་པ། ལྷས་བྱིན་ཁྱོད་ཀྱིས་མར་ཉིད་ཀྱང་མ་ཞུ་ན་འབྲས་ཐུག་སླ་བའི་ཆོ་ག་ཇི་ལྟར་བྱ། དེས་སྨྲས་པ། དགེ་སྦྱོང་གཽ་ཏ་མས་ཞུ་ན་ངས་ཅིའི་ཕྱིར་མི་ཞུ་ཞེས་དེ་སྐད་
[105a.2]སྨྲས་ཏེ། དེས་ཀྱང་འབྲས་ཐུག་སླ་བའི་ཆོ་ག་བྱས་ནས། དེས་འཐུངས་མ་ཐག་ཏུ་ལྟོ་ནད་ཀྱིས་བཏབ་སྟེ། དེ་ནད་མི་བཟོད་ནས་ས་ལ་འགྲེ་ལྡོག་པར་བྱེད་དོ། །འཇིག་རྟེན་ན་ནི་མཛའ་བོ་དང་དགྲ་བོ་དང་བར་མ་ཡོད་དེ། ཁ་ཅིག་ནི་དོང་ནས་ཚེ་དང་ལྡན་པ་ཀུན་དགའ་བོ་ལ་སྦྲན་པ།
[105a.3]བཙུན་པ་ཀུན་དགའ་བོ་ལྷས་བྱིན་ནི་ལྟོ་ནད་ཀྱིས་ཤི་ལ་ཐུག་གོ་ཞེས་བྱས་སོ། །དེ་ནས་ཚེ་དང་ལྡན་པ་ཀུན་དགའ་བོས་དེ་ཐོས་ནས་སྤུན་ལ་གདུང་བས་མི་དགའ་བར་གྱུར་ཏེ། བཅོམ་ལྡན་འདས་ཀྱི་ཐད་དུ་སོང་ནས་གསོལ་པ། བཙུན་པ་ལྷས་བྱིན་ནི་ལྟོ་ནད་ཀྱིས་གུམ་ལ་ཐུག་ན། བཅོམ་
[105a.4]ལྡན་འདས་ཀྱིས་དེའི་སྐྱབས་མཛད་པར་གསོལ། དེ་ནས་བཅོམ་ལྡན་འདས་ཀྱིས་དེ་གསན་མ་ཐག་ཏུ་སྙིང་རྗེ་ཆེན་པོས་ཟིན་ནས། ལྷས་བྱིན་ག་ལ་བ་དེར་གཤེགས་ཏེ། བྱོན་ནས་ལྷས་བྱིན་གྱི་མགོ་བོ་ལ་ཕྱག་བཞག་སྟེ་བཀའ་སྩལ་པ། ལྷས་བྱིན་བདེན་པ་དང་བདེན་པའི་ཚིག་གང་
[105a.5]གིས་གཤེད་མའི་མི་ཁྱོད་དང་། སྒྲ་གཅན་ཟིན་ཐལ་མོ་སྦྱོར་བ་གཉིས་ལ་ངའི་སེམས་སྙོམས་ན། བདེན་པ་དང་བདེན་པའི་ཚིག་དེས་ཁྱོད་ནད་མེད་པར་གྱུར་ཅིག །དེ་ནས་དེ་སྐད་ཅེས་བཀའ་སྩལ་པའི་མོད་ལ་ལྷས་བྱིན་བདེ་བར་གྱུར་ཏོ། །དེ་ནས་དགེ་སློང་རྣམས་ཀྱིས་དེ་ལ་སྨྲས་
[105a.6]པ། ལྷས་བྱིན་བཅོམ་ལྡན་འདས་ནི་ཁྱོད་ལ་དཀའ་བ་མཛད་པ་དང་སྲོག་ཕངས་པ་སྦྱིན་པ་ཡིན་ནོ། །དེས་སྨྲས་པ་དེ་ལ་ངོ་མཚར་ཆེ་བ་ཅི་ཡོད་དེ། གལ་ཏེ་འདིས་སྨན་དཔྱད་མ་བསླབས་སུ་ཟིན་ན། འདི་ཇི་ལྟར་ཚོགས་འདི་སྙེད་འཆོས་ནུས་ཞེས་དེ་སྐད་ཅེས་སྨྲས་ནས། དེ་བཅོམ་ལྡན་
[105a.7]འདས་དགྲོངས་པའི་ཐབས་འབའ་ཞིག་ཤོམ་མོ། །དེ་ནས་དགེ་སློང་རྣམས་ཀྱིས་ཚོར་ནས། བཅོམ་ལྡན་འདས་ལ་གསོལ་པ། བཙུན་པ་བཅོམ་ལྡན་འདས་ཀྱིས་ལྷས་བྱིན་གྱི་སྐྱབས་མཛད་ན། ཁོ་ནི་བཅོམ་ལྡན་འདས་དགྲོངས་པ་འབའ་ཞིག་གི་སླད་དུ་འབད་ཅིང་། དགྲོངས་པ་
[105b]
[105b.1]འབའ་ཞིག་གི་ཐབས་ཤོམ་པ་ལ་གཟིགས། བཙུན་པ་ལྷས་བྱིན་ནི་བྱས་པ་མི་ཤེས་པ་དང་བྱས་པ་མི་གཟོ་བ་དང་། བྱས་པ་ཆུད་གཟོན་པ་ལགས་སོ། །བཅོམ་ལྡན་འདས་ཀྱིས་བཀའ་སྩལ་པ། ད་ལྟར་འབའ་ཞིག་མ་ཡིན་ཏེ་འདས་པའི་དུས་ན་ཡང་འདིས་ཇི་ལྟར་བྱས་པ་མི་
[105b.2]ཤེས་པ་དང་། བྱས་པ་མི་གཟོ་བ་དང་། བྱས་པ་ཆུད་གཟོན་པར་གྱུར་པ་དེ་ཉོན་ཅིག །དགེ་སློང་དག་སྔོན་བྱུང་བ་འདས་པའི་དུས་ན་རི་ཁྲོད་ཀྱི་གྲོང་ཞིག་ན། མི་དབུལ་པོ་ཞིག་གནས་པ་དེ་རྩྭ་དང་ཤིང་དག་འཚོང་ཞིང་འཚོ་བར་བྱེད་པ་ལས། དེ་ཕྱི་ཞིག་ན་དེ་རི་ལ་ཤིང་བརྔར་སོང་བ་དང་།
[105b.3]དེ་རི་ལ་སོང་བའི་བར་དུ་ཁ་བ་བབ་ནས། དེ་ལྷགས་པས་ཉེན་ཅིང་ཡུལ་ངན་གྱིས་སྦྲེབས་པས་བྲག་ཕུག་ཆེན་པོ་ཞིག་གི་ནང་དུ་སོང་བ་དང་། དེའི་ཚེ་བྱང་ཆུབ་སེམས་དཔའ་དོམ་དུ་སྐྱེས་པར་གྱུར་ཏེ། བྱང་ཆུབ་སེམས་དཔའ་རྣམས་ནི་ལུས་ཀྱིས་ལོག་པར་ལྟུང་བར་འགྱུར་དུ་ཟིན་ཀྱང་
[105b.4]སེམས་ཀྱིས་ལོག་པར་ལྟུང་བར་མི་འགྱུར་ཏེ། དེ་ཡང་བདག་ཉིད་ཆེ་བ་བྱམས་པའི་རང་བཞིན་ཅན་སྙིང་རྗེ་དང་ལྡན་པ། སེམས་ཅན་ལ་མཉེས་གཤིན་པ་མི་འཚེ་བའི་བསམ་པ་དང་ལྡན་པ་ཞིག་གོ། །དེ་སུ་ལ་ཡང་འཚེ་བར་མི་འདོད་པས་རྩ་བ་དང་འབྲས་བུས་འཚོ་བར་བྱེད་དེ། དེས་
[105b.5]ཕུག་དེར་རྩ་བ་དང་འབྲས་བུ་བསགས་ནས་ལྷགས་པས་ཉེན་པའི་ཚེ། དེའི་ནང་དུ་ཞུགས་ཏེ་གནས་པ་དེ་མི་ཕུག་ཏུ་སོང་བ་དེས་མཐོང་ནས། མཐོང་མ་ཐག་ཏུ་འཇིགས་པ་ཆེན་པོ་སྐྱེས་ཏེ། བདག་ནི་འདིའི་ལག་ཏུ་ཤི་ཟིན་ཏོ། །བདག་ནི་འདིའི་ལག་ནས་འབྲོས་མི་ནུས་སོ་སྙམ་མོ། །དེ་ནས་དེ་
[105b.6]བྱང་ཆུབ་སེམས་དཔས་མཐོང་ནས། མི་འདི་ནི་ལྷགས་པས་ཀྱང་ཉེན་ལ་སྐྲག་ཅིང་ཡང་འདུག་གོ་སྙམ་དུ་རིག་ནས། དེས་དེ་ལ་སྙིང་བརྩེ་བའི་ཕྱིར་མི་སྐད་དུ་སྨྲས་ཏེ། གྲོགས་པོ་མ་འཇིགས་ཤིག །ཁྱོད་ང་ལ་འཇིགས་མི་དགོས་སོ་ཞེས་སྨྲས་ནས། བྱང་ཆུབ་སེམས་དཔས་མི་དེ་རང་གི་
[105b.7]ལུས་ཀྱིས་བསྐྱབས་ཏེ། རྩ་བ་དང་འབྲས་བུ་དག་བསྟབས་སོ། །དེ་ལྟར་ཞག་བདུན་གྱི་བར་དུ་མི་དེ་དེ་བཞིན་དུ་རང་གི་ལུས་ཀྱིས་བསྐྱབས་ཏེ། རྩ་བ་དང་འབྲས་བུ་དག་གིས་ཡོངས་སུ་བསྐྱངས་ནས། ཞག་བདུན་ལོན་ཏེ་ཡུལ་ངན་མེད་པར་གྱུར་པའི་འོག་ཏུ། བྱང་ཆུབ་སེམས་
[106a]
[106a.1]དཔས་བསྒོ་བ། ཀྱེ་མི་ཁྱོད་ཁྱིམ་དུ་སོང་ལ་ང་ལ་དགྲ་མང་དུ་ཡོད་པས་ཤའི་ཕྱིར་བསད་དུ་འོང་གིས་ང་འདི་ན་འདུག་ཅེས་སུ་ལ་ཡང་མ་ཟེར་ཅིག་ཅེས་བྱས་ནས། བྱང་ཆུབ་སེམས་དཔས་མི་དེ་ཕྱིར་བཏང་ངོ་། །དེ་ནས་མི་དེ་ཤིང་ཁུར་ཁྱེར་ཏེ་རི་ཁྲོད་ཀྱི་གྲོང་ལོགས་སུ་ཆས་
[106a.2]སོ། །རི་ཁྲོད་ཀྱི་གྲོང་དེ་ནས་ཀྱང་རྔོན་པ་གཉིས་རི་དགས་ཤོར་དུ་འགྲོ་བར་ཆས་ནས། དེ་གཉིས་ཀྱིས་ཤིང་ཁུར་ཁྱེར་ཏེ་འོང་བའི་མི་དེ་མཐོང་ནས། དེ་གཉིས་ཀྱིས་བསམ་པ་མི་འདི་རི་ཁྲོད་འདི་ནས་ཞག་བདུན་ལོན་པའི་འོག་ཏུ་ཕྱིར་འོངས་ནས། འདི་ཞག་བདུན་གྱི་བར་དུ་གང་ན་ཅི་ཟ་
[106a.3]ཟ་ཞིག་གུ་སྙམ་ནས་དེ་གཉིས་ཀྱིས་མི་དེ་ལ་དྲིས་སོ། །དེས་ཀྱང་དེ་གཉིས་ལ་གཏམ་དེ་རྒྱས་པར་བསྙད་དོ། །དེ་ནས་དེ་ཐོས་མ་ཐག་ཏུ་དེ་གཉིས་ཀྱིས་མི་དེ་ལ་སྨྲས་པ། ཀྱེ་མི་ཁྱོད་ཚུར་ལ་ཤོག་ལ་དོམ་ག་ལ་འདུག་པ་བདག་ཅག་གཉིས་ལ་སྟོན་ཅིག་དང་བདག་ཅག་གཉིས་ཀྱིས་
[106a.4]དོམ་དེ་བསད་ལ་ཁྱོད་ལ་ཡང་དོམ་ཤའི་སྐལ་ཤས་སྦྱིན་ནོ། །དེ་ནས་མི་དེས་བསམས་པ་མ་ལ་དོམ་དེས་ཞག་བདུན་གྱི་བར་དུ་བདག་ཡོངས་སུ་བསྐྱངས་མོད་ཀྱི། དེས་ང་ལ་ཅི་བྱར་ཡང་མེད་ལ་བདག་གི་ཁྱིམ་ན་ཡང་བཟའ་བ་མེད་ཀྱིས། བདག་གིས་བསྟན་པ་དང་། དེས་བདག་གི་
[106a.5]ཁྱིམ་མི་རྣམས་ཀྱིས་ཞག་མང་དུ་བཟར་ཡོད་པར་འགྱུར་རོ་སྙམ་ནས། དེས་མི་དེ་གཉིས་ལ་སྨྲས་པ། ཀྱེ་མི་ཁྱེད་གཉིས་ལ་ངས་དོམ་ག་ལ་འདུག་པ་དེ་བསྟན་ཏོ་ཞེས་བྱས་ནས། དེ་ཕུག་ན་འདུག་པ་ཁོ་ན་རྔོན་པ་དེ་གཉིས་ལ་བསྟན་ནས། དེ་གཉིས་ཀྱིས་དོམ་དེ་དུག་མདས་བསྣུན་ཏེ།
[106a.6]བྱང་ཆུབ་སེམས་དཔའ་འཆི་ཀའི་ན་ཚས་ཐེབས་ནས། དེ་ཤི་ལ་ཐུག་པ་ན་ཚིགས་སུ་བཅད་པ་སྨྲས་པ། རི་སུལ་སྟུག་པོར་གནས་པ་ན། །བདག་གིས་སུ་ཡི་ཅི་ཞིག་ཕྲོགས། །རྩྭ་དང་རྩ་བ་འབྲས་བུ་ཟ། །སུ་ལའང་འཚེ་བར་མི་བྱེད་ན། །འཆི་བའི་དུས་ལ་བབ་ཟིན་གྱིས། །ད་ནི་
[106a.7]བདག་གིས་ཅི་བྱར་མེད། །ལུས་ཅན་རྣམས་ཀྱི་སྐྱིད་སྡུག་ནི། །ལས་རྣམས་ལ་ནི་བརྟེན་པར་བྱ། །དེ་ནས་དེ་མི་དེ་གཉིས་ཀྱིས་བསད་ནས་པགས་པ་བཤུས་ཏེ། ཤ་དེ་དག་ཆ་གསུམ་དུ་བགོས་ནས་མི་དེ་ལ་སྨྲས་པ། ཀྱེ་མི་ཁྱོད་རང་གི་སྐལ་བ་ཁྱེར་ཅིག །དེ་ནས་དེ་ཐོས་མ་ཐག་ཏུ་མི་དེས་
[106b]
[106b.1]ལག་པ་གཉིས་བརྐྱང་སྟེ་བླང་ཞེས་བྱས་པ་དང་། དེའི་ལག་པ་གཉིས་ས་ལ་ལྷུང་ངོ་། །དེ་ནས་དེ་མཐོང་མ་ཐག་ཏུ་རྔོན་པ་དེ་གཉིས་ཀྱིས་མི་དེ་ལ་སྨྲས་པ། ཀྱེ་དེ་ཅི་དེས་སྨྲས་པ། འདིས་ང་ཞག་བདུན་གྱི་བར་དུ་རླུང་དང་ཡུལ་ངན་བྱུང་བའི་ཚེ་རང་གི་ལུས་ཀྱིས་བསྐྱབས་ཏེ། རྩ་བ་དང་འབྲས་བུ་དག་གིས་
[106b.2]ཡོངས་སུ་བསྐྱངས་པ་ལས་དེ་ལ་བདག་གིས་བྱས་པ་མི་གཟོ་བ་བྱས་པ་དེས་ན་བདག་ལ་འབྲས་བུ་འདི་འོངས་སོ་ཞེས་བྱས་སོ། །དེ་ནས་དེ་ཐོས་མ་ཐག་ཏུ་རྔོན་པ་དེ་གཉིས་མི་དགའ་བ་ཆེན་པོ་སྐྱེས་ཏེ། དེ་གཉིས་མི་དགའ་བར་གྱུར་ནས་བསམས་པ། འདི་ནི་སེམས་ཅན་ངན་ངོན་མ་ཡིན་ཏེ།
[106b.3]བདག་ཅག་གཉིས་ཀྱིས་དེ་ལྟ་བུའི་ཤ་བྱམས་པས་ཡོངས་སུ་བསྒོས་པ་དག་བཟའ་བར་མི་ནུས་ཏེ། འདི་དག་ནི་མཆོད་པའི་འོས་ཡིན་ནོ་སྙམ་མོ། །དེའི་ཚེ་འཇིག་རྟེན་དུ་སངས་རྒྱས་བྱུང་བས་བརྒྱན་ཏེ། དེ་གཉིས་ཀྱིས་ཤ་དེ་དག་ཁྱེར་ཏེ་གཙུག་ལག་ཁང་དུ་སོང་ངོ་། །གཙུག་ལག་
[106b.4]ཁང་དུ་སོང་ནས་ཀྱང་དགེ་འདུན་ལ་ཕུལ་ལོ། །དེ་ནས་ཤ་དེ་དག་དགྲ་བཅོམ་པ་ཞིག་གིས་མཐོང་ནས་དེས་བསམས་པ། ཤ་འདི་དག་ནི་བསྐལ་པ་བཟང་པོའི་བྱང་ཆུབ་སེམས་དཔའ་བྱམས་པས་ཡོངས་སུ་བསྒོས་པ་ཡིན་ནོ་སྙམ་ནས་དགེ་སློང་རྣམས་ལ་སྨྲས་པ། ཚེ་དང་ལྡན་པ་
[106b.5]དག་ཤ་འདི་དག་ནི་བསྐལ་པ་བཟང་པོའི་བྱང་ཆུབ་སེམས་དཔའ་བྱམས་པས་ཡོངས་སུ་བསྒོས་པ་ཡིན་ཏེ། མཆོད་པའི་འོས་ཡིན་གྱིས་འདི་དག་ལ་བདག་ཅག་གིས་མཆོད་པར་བྱའོ་ཞེས་བྱས་ནས། ཚིགས་སུ་བཅད་དེ་སྨྲས་པ། རི་དགས་སྐལ་བ་ཆེན་པོ་འདི། །བྱང་ཆུབ་སེམས་དཔའ་
[106b.6]གཉའ་ཤིང་འཛིན། །སྙིང་རྗེ་ཆེ་དང་ལྡན་པ་སྟེ། །འཇིག་རྟེན་གསུམ་ན་མཆོད་གནས་ཡིན། །དེ་སྐད་ཅེས་སྨྲས་ནས། དགྲ་བཅོམ་པ་དེ་དང་། དགེ་སློང་དེ་རྣམས་དང་རྔོན་པའི་མི་དེ་གཉིས་ཀྱིས་ཤ་དེ་དག་བསྲེགས་ནས། སྐུ་གདུང་གི་མཆོད་རྟེན་བྱས་ཏེ་མཆོད་པ་ཆེན་པོ་བྱས་ནས་
[106b.7]དོང་ངོ་། །དགེ་སློང་དག་ཇི་སྙམ་དུ་སེམས། དེའི་ཚེ་དོམ་དུ་གྱུར་པ་བྱང་ཆུབ་སེམས་དཔའི་སྤྱོད་པ་ལ་གནས་པ་གང་ཡིན་པ་དེ་ནི་ང་ཉིད་ཡིན་ནོ། །དེའི་ཚེ་མིར་གྱུར་པ་གང་ཡིན་པ་དེ་ནི་ལྷས་བྱིན་འདི་ཉིད་ཡིན་ཏེ། འདི་ནི་དེའི་ཚེ་ཡང་བྱས་པ་མི་ཤེས་པ་དང་བྱས་པ་མི་གཟོ་བ་དང་བྱས་པ་ཆུད་
[107a]
[107a.1]གཟོན་པར་གྱུར་ཏོ།། །།