 ལས་བརྒྱ་ཐམ་པ། བམ་པོ་བཅུ་གཅིག་པ། བག་མ་
[132b.5]གཏོང་བ་ཞེས་བྱ་བ་གཉིས་ལ། བག་མ་གཏོང་བ་དང་པོ་ནི། གླེང་གཞི་མཉན་དུ་ཡོད་པ་ན་བཞུགས་ཏེ། དེའི་ཚེ་མཉན་དུ་ཡོད་པ་ན་ཁྱིམ་བདག་མཛའ་ཞིང་བཤེས་ལ་གཅུགས་པ་གཉིས་ཤིག་འདུག་གོ། །དེ་ནས་ཕྱི་ཞིག་ན་དེ་གཉིས་གཅིག་ལ་གཅིག་སྨྲས་ཏེ། གྲོགས་པོ་བདག་
[132b.6]ཅག་གཉིས་ཀྱིས་ཅི་ནས་མཛའ་བ་ལས་ཅུང་ཟད་ཀྱང་འབྱེ་བར་མི་འགྱུར་བར་བྱའོ། །ཁྱིམ་བདག་ཅིག་ཤོས་ཀྱིས་སྨྲས་པ། འོ་ན་བདག་ཅག་གཉིས་ཀྱིས་ཇི་ལྟར་བྱ། ཁྱིམ་བདག་གཅིག་གིས་སྨྲས་པ་གཉེན་དུ་བྱའོ། །ཁྱིམ་བདག་གཅིག་གིས་སྨྲས་པ། ཁྱོད་ལ་བུ་ཁྱེའུའམ་
[132b.7]བུ་མོ་ལྟ་ཡོད་དམ། ཁྱིམ་བདག་གཅིག་གིས་སྨྲས་པ་མེད་དོ། །ཁྱིམ་བདག་གཅིག་གིས་སྨྲས་པ། འོ་ན་བདག་ལ་ཡང་བུ་ཁྱེའུ་ཡང་མེད་བུ་མོ་ཡང་མེད་ལ། ཁྱོད་ལ་ཡང་བུ་ཁྱེའུ་ཡང་མེད་བུ་མོ་ཡང་མེད་ན་བདག་ཅག་གཉིས་ཀྱིས་གཉེན་དུ་ཇི་ལྟར་བྱ། ཁྱིམ་བདག་གཅིག་
[133a]
[133a.1]གིས་སྨྲས་པ། གཉེན་བྱ་བ་ལ་རྣམ་པ་འདི་གཉིས་ཡིན་ཏེ། སྐྱེས་ཟིན་པའི་གཉེན་དང་ད་དུང་མ་སྐྱེས་པའི་གཉེན་ནོ། །བདག་ཅག་གཉིས་ལ་བུ་ཁྱེའུ་ཡང་མེད་བུ་མོ་ཡང་མེད་མོད་ཀྱི། ད་དུང་མ་སྐྱེས་པའི་གཉེན་བྱར་རུང་སྟེ་གལ་ཏེ་བདག་གི་བུ་ཁྱེའུ་བཙས་ལ་
[133a.2]ཁྱོད་ཀྱི་བུ་མོ་བཙས་ན་ནི་དེ་བདག་གི་བུ་ལ་བྱིན་ཅིག །དེ་སྟེ་ཁྱོད་ཀྱི་བུ་ཁྱེའུ་བཙས་ལ་བདག་གི་བུ་མོ་བཙས་ན་ནི་བདག་གིས་དེ་ཁྱོད་ཀྱི་བུ་ལ་སྦྱིན་པར་བྱའོ་ཞེས་བྱས་ནས་དེ་གཉིས་ཀྱིས་ད་དུང་མ་སྐྱེས་པའི་གཉེན་བྱས་ཏེ་སོང་ངོ་། །དེ་ནས་ཕྱི་ཞིག་ན་གཅིག་གི་ཆུང་མ་ལ་བུ་ཆགས་པར་
[133a.3]གྱུར་ནས། དེ་ཟླ་བ་དགུའམ་བཅུ་ལོན་པ་དང་བུ་བྱུང་སྟེ། ཁྱེའུ་གཟུགས་བཟང་ཞིང་བལྟ་ན་སྡུག་ལ་མཛེས་པ་ཞིག་བཙས་ནས། དེའི་བཙས་སྟོན་རྒྱས་པར་བྱས་ཏེ་རིགས་དང་འཐུན་པར་མིང་བཏགས་ནས། འོ་མ་དང་ཞོ་དང་མར་དང་ཞུན་མར་དང་མར་གྱི་ཉིང་གུས་བསྐྱེད་
[133a.4]བསྲིངས་སོ། །དེ་ནས་ཕྱི་ཞིག་ན་ཁྱིམ་བདག་ཅིག་ཤོས་ཀྱང་ཆུང་མ་དང་རྩེ་ཞིང་དགའ་ལ་དགའ་མགུར་སྤྱོད་པ་ལས་ཆུང་མ་ལ་བུ་ཆགས་ནས། དེ་ཟླ་བ་དགུའམ་བཅུ་ལོན་པ་དང་། བུ་མོ་གཟུགས་བཟང་ཞིང་བལྟ་ན་སྡུག་ལ་མཛེས་པ་ཞིག་བཙས་ཏེ། དེའི་བཙས་སྟོན་རྒྱས་པར་བྱས་
[133a.5]ནས་རིགས་དང་འཐུན་པར་མིང་བཏགས་ཏེ། འོ་མ་དང་ཞོ་དང་མར་དང་ཞུན་མར་དང་མར་གྱི་ཉིང་གུས་བསྐྱེད་བསྲིངས་ནས། དེ་གང་གི་ཚེ་ཆེན་མོར་གྱུར་པ་དང་དེས་བཅོམ་ལྡན་འདས་ཀྱི་བསྟན་པ་ལ་དད་པ་རྙེད་ནས་སྐྱབས་སུ་འགྲོ་བ་དང་བསླབ་པའི་གཞི་རྣམས་ཀྱང་བླངས་སོ། །དེ་ནས་ཕྱི་
[133a.6]ཞིག་ན་དེས་ཕ་མ་གཉིས་ལ་སྨྲས་པ། ཡབ་ཡུམ་བདག་ནི་འདོད་པ་རྣམས་ལ་ལོངས་སྤྱོད་པའི་རྔོ་མི་ཐོགས་ཀྱིས། བཅོམ་ལྡན་འདས་ཀྱི་བསྟན་པ་ལ་རབ་ཏུ་འབྱུང་བར་གནང་བར་མཛད་དུ་གསོལ། ཕ་མ་གཉིས་ཀྱིས་སྨྲས་པ། བུ་མོ་ཁྱོད་མ་སྐྱེས་པའི་སྔ་རོལ་ནས་བདག་ཅག་གཉིས་
[133a.7]ཀྱིས་ཁྱིམ་ཐབ་ལ་བྱིན་ཟིན་གྱིས་བདག་ཅག་གཉིས་ཀྱིས་གནང་བར་བྱར་མི་རུང་ངོ་ཞེས་བྱས་པ་དང་། བུ་མོ་དེས་ཕ་མ་གཉིས་ལ་ཡང་དང་ཡང་དུ་དུས་ཀྱིས་གསོལ་ནས། དེའི་ཕ་མ་གཉིས་ཀྱིས་བསམས་པ། མ་ལ་བུ་མོ་འདི་ཉིད་ཀྱིས་བདག་ཅག་གི་ཚིག་མ་མཉན་ཏེ་རབ་ཏུ་འབྱུང་སྲིད་ཀྱིས་
[133b]
[133b.1]བདག་ཅག་གིས་གྱོས་སྒྱུག་ལ་སྦྲན་ཏོ་སྙམ་ནས། དེ་གཉིས་ཀྱིས་དེའི་ཕ་མ་གཉིས་ལ་སྨྲས་པ། བུ་མོ་འདི་ནི་རབ་ཏུ་འབྱུང་བར་འདོད་དེ་བདག་ཅག་གཉིས་ཀྱིས་མ་མཐོང་བར་རབ་ཏུ་འབྱུང་སྲིད་ཀྱི། མ་ཐོགས་པ་ཁོ་ནར་བག་མ་ལོང་ལ་ཁྱེད་ཅག་གི་ཁྱིམ་དུ་ཁྲིད་ཅིག་ཅེས་བྱས་སོ། །
[133b.2]དེ་ནས་དེ་ཐོས་མ་ཐག་ཏུ་ཁྱིམ་བདག་དེས་བུ་ཆས་སུ་བཅུག་སྟེ། ཁྱེའུ་དེ་རྒྱན་ཐམས་ཅད་ཀྱིས་བརྒྱན་ནས་འབྱོར་པ་ཆེན་པོ་དང་ལྡན་པས་གྱོས་པོའི་ཁྱིམ་དུ་བཏང་ངོ་། །དེ་ནས་ཁྱིམ་བདག་དེས་ཀྱང་ཁྱིམ་ན་གནས་པ་རྣམས་ཀྱི་ཁྱིམ་པའི་ཆོས་བཞིན་དུ་བྱས་ནས་བུ་མོ་ཁྱིམ་ཐབ་ལ་
[133b.3]བཏང་ངོ་། །དེ་ནས་བག་མ་བླངས་ཟིན་པའི་འོག་ཏུ་བུ་མོ་དེ་བྲོས་ཏེ། དགེ་སློང་མའི་གཙུག་ལག་ཁང་དུ་སོང་ནས་རབ་ཏུ་བྱུང་སྟེ་བསྙེན་པར་རྫོགས་སོ། །མཁན་མོས་ཀྱང་དེ་ལ་ལུང་ཕོག་ནས་དེས་བརྩོན་པ་དང་བསྒྲུབ་པ་དང་འབད་པས་ཉོན་མོངས་པ་ཐམས་ཅད་སྤངས་ཏེ། དགྲ་བཅོམ་
[133b.4]པ་ཉིད་མངོན་སུམ་དུ་བྱས་ནས་རྫུ་འཕྲུལ་ཡང་བསྒྲུབས་ཏེ། དབང་པོ་དང་ཉེ་དབང་དང་བཅས་པའི་འཇིག་རྟེན་གྱིས་མཆོད་ཅིང་རྗེད་པ་དང་གུས་པར་སྨྲ་བའི་གནས་སུ་གྱུར་ཏོ། །ཁྱེའུ་དེས་ཀྱང་ཆུང་མ་བྲོས་པ་ཐོས་ནས་ཐོས་མ་ཐག་ཏུ་གཡོག་འཁོར་མང་པོ་དག་དང་ཆས་ཏེ། ཚོལ་ཞིང་དགེ་སློང་
[133b.5]མའི་གཙུག་ལག་ཁང་དུ་སོང་བ་ལས་ཁྱེའུ་དེས་བདག་གི་ཆུང་མ་སྐྲ་བྲེགས་ཏེ་ཆོས་གོས་ཚོན་ཅན་བགོས་ཏེ། སྐྱིལ་མོ་ཀྲུང་བཅས་ནས་བསམ་གཏན་བྱེད་པ་མཐོང་སྟེ། མཐོང་མ་ཐག་ཏུ་དེའི་ཐད་དུ་སོང་ནས་དེས་ལག་པ་ནས་བཟུང་བར་བྱས་པ་དང་དེ་སྟེང་གི་ནམ་མཁའ་ལ་འཕགས་ནས་
[133b.6]འབར་བ་དང་ལམ་མེར་འདུག་པ་དང་ཆར་འབབ་པ་དང་གློག་འགྱུ་བའི་ཆོ་འཕྲུལ་རྣམས་བསྟན་ནས། དེ་མཐོང་མ་ཐག་ཏུ་ཁྱེའུ་དེ་དང་སྐྱེ་བོ་མང་པོ་དེ་དག་ཤས་ཆེར་དགའ་བར་གྱུར་ཏོ། །དགའ་བར་གྱུར་ནས་རྐང་པ་ལ་ཕྱག་འཚལ་ཏེ་སྨྲས་པ། སྐལ་བ་ཆེན་མོ་མར་སྤྱོན་མར་སྤྱོན། བདག་
[133b.7]ཅག་ཉེས་པར་སྤྱད་པའི་འདམ་དུ་བྱིང་བ་ལས་ལག་ནས་དྲང་དུ་གསོལ་ཞེས་བྱས་སོ། །དེ་ནས་དེ་ས་ལ་བབས་ནས་ཁྱེའུ་དེས་རྐང་པ་ལ་ཕྱག་འཚལ་ཏེ་བཟོད་པ་གསོལ་ནས་ཡོ་བྱད་ཐམས་ཅད་ཀྱང་བསྟབས་ཏེ་ཆོས་མཉན་པའི་ཕྱིར་དེའི་མདུན་དུ་འདུག་གོ། །དེས་ཀྱང་དེ་རྣམས་ཀྱི་བསམ་པ་དང་
[134a]
[134a.1]བག་ལ་ཉལ་དང་ཁམས་དང་ཤེས་པ་དང་རང་བཞིན་རྟོགས་ནས་དེ་དང་འཐུན་པའི་ཆོས་བསྟན་ཏེ། དེ་ནས་ཁྱེའུ་དེ་དང་སྐྱེ་བོ་མང་པོ་དེ་དག་གིས་སྟན་དེ་དག་ཉིད་ལ་འཁོད་བཞིན་དུ་འཇིག་ཚོགས་ལ་ལྟ་བའི་རིའི་རྩེ་མོ་མཐོན་པོ་ཉི་ཤུ་ཡེ་ཤེས་རྡོ་རྗེས་བཅོམ་ནས་རྒྱུན་དུ་ཞུགས་པའི་
[134a.2]འབྲས་བུ་མངོན་སུམ་དུ་བྱས་ཏེ། བདེན་པ་མཐོང་ནས་ཁྱེའུ་དེས་བསམས་པ། བུད་མེད་ཀྱིས་ཀྱང་བཅོམ་ལྡན་འདས་ཀྱི་བསྟན་པ་ལ་རབ་ཏུ་བྱུང་ནས། ཡོན་ཏན་གྱི་ཚོགས་འདི་ལྟ་བུ་དག་ཐོབ་པར་གྱུར་གྱིས་བདག་གིས་ཀྱང་ཁྱིམ་ན་གནས་པ་བཏང་ལ་བཅོམ་ལྡན་འདས་ཀྱི་བསྟན་པ་ལ་རབ་ཏུ་བྱུང་
[134a.3]ནས། ཆུ་བོ་རྣམས་ལས་བརྒལ་བར་བྱ་བ་དང་སྦྱོར་བ་རྣམས་ལས་འདའ་བར་བྱ་བའི་ཕྱིར་བརྩོན་པ་དང་བསྒྲུབ་པ་དང་འབད་པར་བྱའོ་སྙམ་ནས་ཕ་མ་ལ་གསོལ་ཏེ། བཅོམ་ལྡན་འདས་ཀྱི་བསྟན་པ་ལ་རབ་ཏུ་བྱུང་ནས། དེས་ཀྱང་བརྩོན་པ་དང་བསྒྲུབ་པ་དང་འབད་པས་ཉོན་མོངས་པ་ཐམས་ཅད་
[134a.4]སྤངས་ཏེ་དགྲ་བཅོམ་པ་ཉིད་མངོན་སུམ་དུ་བྱས་ནས་རྫུ་འཕྲུལ་ཡང་བསྒྲུབས་ཏེ། དབང་པོ་དང་ཉེ་དབང་དང་བཅས་པའི་འཇིག་རྟེན་གྱིས་མཆོད་ཅིང་རྗེད་པ་དང་གུས་པར་སྨྲ་བའི་གནས་སུ་གྱུར་ཏོ། །དེ་ནས་དགེ་སློང་དག་གིས་སངས་རྒྱས་བཅོམ་ལྡན་འདས་ལ་ཞུས་པ། བཙུན་པ་དགེ་སློང་མ་
[134a.5]འདིས་ལས་གང་དག་བགྱིས་ན། བག་མར་མཆིས་པའི་འོག་ཏུ་ཉོན་མོངས་པ་ཐམས་ཅད་སྤངས་ཏེ་དགྲ་བཅོམ་པ་ཉིད་མངོན་སུམ་དུ་བགྱིས་ལ་དགེ་སློང་འདིས་ཀྱང་འདི་ཁོ་ན་ལ་བརྟེན་ནས་ཉོན་མོངས་པ་ཐམས་ཅད་སྤངས་ཏེ་དགྲ་བཅོམ་པ་ཉིད་མངོན་སུམ་དུ་བགྱིས་ལགས། བཅོམ་ལྡན་འདས་ཀྱིས་
[134a.6]བཀའ་སྩལ་པ། སྨོན་ལམ་གྱི་དབང་ལས་གྱུར་ཏོ། །བཙུན་པ་འདི་གཉིས་ཀྱིས་སྨོན་ལམ་གང་དུ་བཏབ་ལགས། བཅོམ་ལྡན་འདས་ཀྱིས་བཀའ་སྩལ་པ། དགེ་སློང་དག་སྔོན་བྱུང་བ་འདས་པའི་དུས་ན་བསྐལ་པ་བཟང་པོ་འདི་ཉིད་ལ་སྐྱེ་དགུའི་ཚེ་ལོ་ཉི་ཁྲི་ཐུབ་པ་ན་ཡང་དག་པར་རྫོགས་པའི་
[134a.7]སངས་རྒྱས་རིག་པ་དང་ཞབས་སུ་ལྡན་པ། བདེ་བར་གཤེགས་པ། འཇིག་རྟེན་མཁྱེན་པ། སྐྱེས་བུ་གདུལ་བྱའི་ཁ་ལོ་སྒྱུར་བ། བླ་ན་མེད་པ་ལྷ་དང་མི་རྣམས་ཀྱི་སྟོན་པ། སངས་རྒྱས་བཅོམ་ལྡན་འདས་འོད་སྲུང་ཞེས་བྱ་བ་འཇིག་རྟེན་དུ་བྱུང་སྟེ། དེའི་ཚེ་བཱ་རཱ་ཎ་སཱི་ན་ཁྱིམ་བདག་ཅིག་གི་བུ་མོ་
[134b]
[134b.1]ཐབས་སྔ་མ་ཁོ་ན་ལྟར་རབ་ཏུ་བྱུང་ནས་དེའི་ཁྱིམ་ཐབ་ཀྱིས་ཀྱང་དེ་ཁོ་ན་ལས་བརྟེན་ཏེ། ཡང་དག་པར་རྫོགས་པའི་སངས་རྒྱས་འོད་སྲུང་གི་བསྟན་པ་ལ་རབ་ཏུ་བྱུང་ནས། དགེ་སློང་མ་དེས་ཚེ་གཅིག་ཏུ་ཚངས་པར་སྤྱད་དེ་འཆི་ཀར་སྨོན་ལམ་བཏབ་པ། འདི་ལྟར་བདག་གིས་ཡང་དག་
[134b.2]པར་རྫོགས་པའི་སངས་རྒྱས་འོད་སྲུང་གི་བསྟན་པ་ལ་ཚེ་གཅིག་ཏུ་ཚངས་པར་སྤྱད་ཀྱང་ཡོན་ཏན་གྱི་ཚོགས་ཅི་ཡང་མ་ཐོབ་ཀྱིས། ཡང་དག་པར་རྫོགས་པའི་སངས་རྒྱས་འོད་སྲུང་གིས་བྲམ་ཟེའི་ཁྱེའུ་བླ་མ་ལུང་བསྟན་པ་གང་ཡིན་པའི་སངས་རྒྱས་བཅོམ་ལྡན་འདས་དེའི་བསྟན་པ་ལ་ཐབས་འདི་
[134b.3]ཁོ་ན་བཞིན་དུ་བག་མར་སོང་བའི་འོག་ཏུ་རབ་ཏུ་བྱུང་ནས་ཉོན་མོངས་པ་ཐམས་ཅད་སྤངས་ཏེ་དགྲ་བཅོམ་པ་ཉིད་མངོན་སུམ་དུ་བྱེད་པར་གྱུར་ཅིག་ཅེས་བྱས་སོ། །དེ་ནས་དེ་སྔོན་གྱི་ཁྱིམ་ཐབ་ཀྱིས་མཐོང་ནས་དྲིས་པ་བཟང་མོ་ཁྱོད་ཀྱིས་སྨོན་ལམ་ཇི་ལྟ་བུ་ཞིག་བཏབ། དེ་ནས་དེས་དེ་ལ་ཐམས་
[134b.4]ཅད་རྒྱས་པར་བསྙད་དོ། །དེ་ནས་དགེ་སློང་དེས་ཀྱང་སྨོན་ལམ་བཏབ་སྟེ། བཟང་མོ་ཇི་ལྟར་ཁྱོད་ལས་བརྟེན་ནས་བདག་གིས་ཡང་དག་པར་རྫོགས་པའི་སངས་རྒྱས་འོད་སྲུང་གི་བསྟན་པ་ལ་དད་པ་རྙེད་པ་དེ་བཞིན་དུ་དེ་ཁོ་ནའི་ཚེ་ཡང་ང་ཉིད་ཁྱོད་ཀྱི་ཁྱིམ་ཐབ་ཏུ་གྱུར་ཏེ་ཁྱོད་ཁོ་ན་ལས་བརྟེན་ནས་
[134b.5]བདག་གིས་བཅོམ་ལྡན་འདས་དེ་མཉེས་པར་བྱེད་པར་གྱུར་ཅིག །མི་མཉེས་པར་བྱེད་པར་མ་གྱུར་ཅིག །དེ་ཁོ་ནའི་བསྟན་པ་ལ་རབ་ཏུ་བྱུང་ནས་ཉོན་མོངས་པ་ཐམས་ཅད་སྤངས་ཏེ་དགྲ་བཅོམ་པ་ཉིད་མངོན་སུམ་དུ་བྱེད་པར་གྱུར་ཅིག་ཅེས་བྱས་སོ། །དགེ་སློང་དག་དེ་ཇི་སྙམ་དུ་སེམས། དེའི་
[134b.6]ཚེ་དགེ་སློང་མར་གྱུར་པ་གང་ཡིན་པ་དེ་ནི་དགེ་སློང་མ་འདི་ཉིད་ཡིན་ཏེ། དེས་དེར་ཚེ་གཅིག་ཏུ་ཚངས་པར་སྤྱད་ནས་འཆི་ཀར་སྨོན་ལམ་བཏབ་སྟེ། འདི་ལྟར་བདག་བག་མར་སོང་བའི་འོག་ཏུ་ཡང་དག་པར་རྫོགས་པའི་སངས་རྒྱས་འོད་སྲུང་གི་བསྟན་པ་ལ་རབ་ཏུ་བྱུང་ནས་ཚེ་གཅིག་ཏུ་ཚངས་
[134b.7]པར་སྤྱད་ཀྱང་ཡོན་ཏན་གྱི་ཚོགས་ཅི་ཡང་མ་ཐོབ་ཀྱིས། ཡང་དག་པར་རྫོགས་པའི་སངས་རྒྱས་འོད་སྲུང་གིས་བྲམ་ཟེའི་ཁྱེའུ་བླ་མ་ལུང་བསྟན་པ་གང་ཡིན་པའི་སངས་རྒྱས་བཅོམ་ལྡན་འདས་དེའི་བསྟན་པ་ལ་བདག་ད་ལྟ་བཞིན་དུ་བག་མར་སོང་བའི་འོག་ཏུ་རབ་ཏུ་བྱུང་ནས་ཉོན་མོངས་པ་
[135a]
[135a.1]ཐམས་ཅད་སྤངས་ཏེ་དགྲ་བཅོམ་པ་ཉིད་མངོན་སུམ་དུ་བྱེད་པར་གྱུར་ཅིག་ཅེས་བྱས་པ་དེས་ན། དགེ་སློང་དག་ང་ཡང་དག་པར་རྫོགས་པའི་སངས་རྒྱས་འོད་སྲུང་དང་ཤིན་ཏུ་མཉམ་པ་དང་ཤུགས་མཉམ་པ་དང་མཛད་པ་མཉམ་པ་དང་ཐབས་མཉམ་པ་བརྙེས་པར་གྱུར་
[135a.2]ནས། ད་ལྟར་འདི་བག་མར་སོང་བའི་འོག་ཏུ་རབ་ཏུ་བྱུང་ནས་འདིས་ང་མཉེས་པར་བྱས་ཏེ་མི་མཉེས་པར་མ་བྱས་ལ། ཉོན་མོངས་པ་ཐམས་ཅད་སྤངས་ཏེ་དགྲ་བཅོམ་པ་ཉིད་མངོན་སུམ་དུ་བྱས་སོ། །དེའི་ཚེ་ཁྱིམ་ཐབ་ཏུ་གྱུར་པ་གང་ཡིན་པ་དེ་ནི་དགེ་སློང་འདི་ཉིད་ཡིན་ཏེ། དེས་དེར་སྨོན་
[135a.3]ལམ་བཏབ་སྟེ། དེའི་ཚེ་ང་ཉིད་ཁྱོད་ཀྱི་ཁྱིམ་ཐབ་ཏུ་གྱུར་ནས་ཁྱོད་ཁོ་ན་ལས་བརྟེན་ཏེ་སངས་རྒྱས་བཅོམ་ལྡན་འདས་དེ་མཉེས་པར་བྱེད་པར་གྱུར་ཅིག་མི་མཉེས་པར་བྱེད་པར་མ་གྱུར་ཅིག །དེ་ཁོ་ནའི་བསྟན་པ་ལ་རབ་ཏུ་བྱུང་ནས་ཉོན་མོངས་པ་ཐམས་ཅད་སྤངས་ཏེ་དགྲ་བཅོམ་པ་ཉིད་
[135a.4]མངོན་སུམ་དུ་བྱེད་པར་གྱུར་ཅིག་ཅེས་བྱས་པ་དེས་ན། ད་ལྟར་འདིས་འདི་ཁོ་ན་ལ་བརྟེན་ནས་ང་མཉེས་པར་བྱས་ཏེ་མི་མཉེས་པར་མ་བྱས་ལ། ང་ཉིད་ཀྱི་བསྟན་པ་ལ་རབ་ཏུ་བྱུང་ནས་ཉོན་མོངས་པ་ཐམས་ཅད་སྤངས་ཏེ་དགྲ་བཅོམ་པ་ཉིད་མངོན་སུམ་དུ་བྱས་སོ།། །།