
[179a]
[179a.1]རླུང་ནག་པོ་ཞེས་བྱ་བ་ནི། གླེང་གཞི་མཉན་དུ་ཡོད་པ་ན་བཞུགས་ཏེ། དེའི་ཚེ་མཉན་དུ་ཡོད་པ་ན་ཚོང་པ་ལྔ་བརྒྱ་ཙམ་གྱིས་ཟོང་ཁྱེར་ཏེ། ཡུལ་གཞན་དུ་ཆས་ནས་དེ་དག་མཐར་གྱིས་སོང་སོང་བ་ལས་ནགས་ཁུང་ཆེན་པོ་དགོན་པ་ཞིག་ཏུ་ཕྱིན་ཏོ། །ནགས་ཁུང་
[179a.2]དེ་ན་གཟི་བྱིན་འཕྲོག་པའི་གནོད་སྦྱིན་དྲག་པོ་འཇིགས་པ། གཞན་གྱི་སྲོག་འཕྲོག་པ་ཞིག་ཀྱང་གནས་ཏེ། དེས་རླུང་ནག་པོ་ཆེན་པོ་བཏང་ནས་ཚོང་པ་དེ་དག་གི་སྟེང་དུ་བརྒྱུགས་ཏེ། དེ་ནས་ཚོང་པ་དེ་དག་ཅི་བྱ་གཏོལ་མེད་པར་གྱུར་ནས། དེ་དག་འཇིགས་ཤིང་སྐྲག་
[179a.3]སྟེ་ལྷའོ་ཅོག་ལ་གསོལ་བ་འདེབས་པ་ལ་ཞུགས་སོ། །དགེ་བསྙེན་ཞིག་ཀྱང་འདྲོན་པོ་དེ་དག་གི་ནང་ན་འདུག་སྟེ། དེས་ཚོང་པ་དེ་དག་ཅི་བྱ་གཏོལ་མེད་པར་འདུག་པ་མཐོང་ནས་སྨྲས་པ། ཀྱེ་སྐྱབས་མ་ཡིན་པ་འདི་རྣམས་ལ་སྐྱབས་བཙལ་ཏེ་ཅི་རུང་། བཅོམ་ལྡན་འདས་ལ་
[179a.4]སྐྱབས་སུ་དེང་ཤིག་དང་དེས་ཁྱེད་དཀོས་ཐག་ཅིང་ཉམ་ང་ལ་ཕོངས་པར་གྱུར་པ་ལས་ཡོངས་སུ་བསྐྱབ་པར་འགྱུར་རོ། །དེ་ནས་དེ་ཐོས་མ་ཐག་ཏུ་ཚོང་པ་དེ་དག་བཅོམ་ལྡན་འདས་ལ་སྐྱབས་སུ་དོང་སྟེ། བཅོམ་ལྡན་འདས་དེ་བཞིན་གཤེགས་པ་དགྲ་བཅོམ་པ་ཡང་དག་པར་རྫོགས་པའི་
[179a.5]སངས་རྒྱས་དེ་ལ་ཕྱག་འཚལ་ལོ། །བཙུན་པ་བཅོམ་ལྡན་འདས་ཀྱིས་ནི་འདི་ལྟ་སྟེ། འདས་པ་དང་། མ་འོངས་པ་དང་། ད་ལྟར་བྱུང་བ་ཅི་ཡང་མི་གཟིགས་པ་དང་མི་མཁྱེན་པ་དང་ཐུགས་སུ་མི་ཆུད་པ་མི་མངའ་ན། ཀྱེ་མ་བཅོམ་ལྡན་འདས་བདག་ཅག་དཀོས་
[179a.6]ཐག་ཅིང་ཉམ་ང་ལ་ཕོངས་པར་གྱུར་པ་ལས། ཡོངས་སུ་བསྐྱབ་པ་དང་སྲོག་ཕངས་པ་སྩལ་དུ་གསོལ་ཞེས་བྱས་སོ། །སངས་རྒྱས་བཅོམ་ལྡན་འདས་བགྲོད་པ་གཅིག་པུའི་ལམ་སྟོན་པ། རྣམ་པ་གཉིས་ཀྱི་ཤེས་བྱ་དང་ཡེ་ཤེས་ལ་མངའ་བརྙེས་པ། མ་འདྲེས་པའི་དྲན་
[179a.7]པ་ཉེ་བར་གཞག་པ་གསུམ་ལ་མཁས་པ། མི་འཇིགས་པ་བཞིས་མི་འཇིགས་པ། འགྲོ་བ་ལྔར་འགྲོ་བ་ལས་རྣམ་པར་གྲོལ་བ། སྐྱེ་མཆེད་དྲུག་ལ་མཁས་པ། བྱང་ཆུབ་ཀྱི་ཡན་ལག་བདུན་ལ་སྤྱོད་ཡུལ་བ། རྣམ་པར་ཐར་པ་བརྒྱད་ལ་བསམ་གཏན་པ། མཐར་
[179b]
[179b.1]གྱིས་གནས་པའི་སྙོམས་པར་འཇུག་པ་དགུ་ལ་སྙོམས་པར་འཇུག་པ། སྟོབས་བཅུའི་སྟོབས་དང་ལྡན་པ་ཡང་དག་པའི་སེང་གེའི་སྒྲ་ཆེན་པོ་སྒྲོགས་པ་རྣམས་ནི། ཆོས་ཉིད་ཀྱིས། ཉིན་དུས་གསུམ་མཚན་དུས་གསུམ་སྟེ། ཉིན་མཚན་དུས་དྲུག་ཏུ་སངས་རྒྱས་ཀྱི་
[179b.2]སྤྱན་གྱིས་འཇིག་རྟེན་ལ་གཟིགས་ཏེ། སུ་ནི་རྒུད་སུ་ནི་དར་སུ་ནི་ཕོངས་ཤིང་འདུག་སུ་ནི་ཉམ་ང་བར་གྱུར། སུ་ནི་གནོད་པ་དང་ལྡན་སུ་ནི་ཕོངས་པ་དང་ཉམ་ང་བ་དང་གནོད་པ་དང་ལྡན་སུ་ནི་ངན་སོང་དུ་གཞོལ་སུ་ནི་ངན་སོང་དུ་འབབ་སུ་ནི་ངན་སོང་དུ་བབ་སུ་ནི་ངན་སོང་ནས་ཕྱུང་སྟེ།
[179b.3]མཐོ་རིས་དང་ཐར་པ་དང་འབྲས་བུ་ལ་གཞག་པར་བྱ། སུ་ནི་ཉེས་པར་སྤྱོད་པའི་འདམ་དུ་བྱིང་བ་ལས་ལག་ནས་དྲང་བར་བྱ། སུ་ནི་འཕགས་པའི་ནོར་བདུན་མེད་པ་ལས་འཕགས་པའི་ནོར་བདུན་གྱི་དབང་ཕྱུག་ལ་དབང་བྱེད་དུ་གཞུག་པར་བྱ། སུ་ནི་དགེ་བའི་རྩ་བ་རྣམས་མ་
[179b.4]བསྐྱེད་པ་ལས་བསྐྱེད་པར་བྱ། སུ་ནི་དགེ་བའི་རྩ་བ་རྣམས་བསྐྱེད་ཟིན་པ་ལས་ཡོངས་སུ་སྨིན་པར་བྱ། སུ་ནི་དགེ་བའི་རྩ་བ་རྣམས་ཡོངས་སུ་སྨིན་ཟིན་པ་ལས་ཡེ་ཤེས་ཀྱི་མཚོན་གྱིས་བརྟོལ་བར་བྱ། སུ་ལ་ནི་སངས་རྒྱས་བྱུང་བས་བརྒྱན་པའི་འཇིག་རྟེན་འབྲས་བུ་
[179b.5]དང་བཅས་པར་བྱ་སྙམ་དུ་ཡེ་ཤེས་གཟིགས་པ་འཇུག་གོ། །རྒྱ་མཚོ་ཆུ་སྲིན་རྣམས་ཀྱི་གནས། །དུས་རླབས་ཡོལ་བར་འགྱུར་ཡང་སྲིད། །གདུལ་བར་བྱ་བའི་སྲས་རྣམས་ལ། །སངས་རྒྱས་དུས་ལས་ཡོལ་བ་མེད། །དེ་ནས་བཅོམ་ལྡན་འདས་ཀྱིས་དགོངས་
[179b.6]ནས། ཚོང་པ་ལྔ་བརྒྱ་པོ་རྣམས་འདུལ་བའི་དུས་ལ་བབ་པར་ཐུགས་སུ་ཆུད་ནས། ཕྱག་གླང་པོ་ཆེའི་སྣ་ལྟ་བུ་བརྐྱང་སྟེ། ཚོང་པ་ལྔ་བརྒྱ་པོ་དེ་དག་ནགས་ཁུང་དགོན་པ་དེ་ནས་བྲུངས་རྫས་དང་བཅས་ཏེ་བླངས་ནས། མཉན་དུ་ཡོད་པ་ནས་ཧ་ཅང་མི་རིང་བ་ཞིག་ཏུ་བཏོན་ཏེ་
[179b.7]བཀོད་དོ། །དེ་ནས་ཚོང་པ་ལྔ་བརྒྱ་པོ་དེ་དག་གིས་མཉན་དུ་ཡོད་པར་ཕྱིན་པའི་རྟགས་རྣམས་མཐོང་ངོ་། །མཐོང་ནས་ཀྱང་དེ་དག་གིས་བསམས་པ། བདག་ཅག་ནི་བཅོམ་ལྡན་འདས་ཀྱིས་སྐྱབས་མཛད་དོ་སྙམ་ནས་ཚོང་པ་དེ་དག་ཤིན་ཏུ་དགའ་བར་གྱུར་ཏེ། དེ་དགའ་
[180a]
[180a.1]བར་གྱུར་ནས་བསམས་པ། བདག་ཅག་ཁྱིམ་ན་གནས་པ་བཏང་ལ། བཅོམ་ལྡན་འདས་ཀྱི་བསྟན་པ་ལ་རབ་ཏུ་བྱུང་སྟེ་ཆུ་བོ་རྣམས་ལས་བརྒལ་བར་བྱ་བ་དང་སྦྱོར་བ་རྣམས་ལས་ཡང་དག་པར་འདའ་བར་བྱ་བའི་ཕྱིར་བརྩོན་པ་དང་བསྒྲུབ་པ་དང་འབད་པར་བྱའོ་སྙམ་ནས་མཉན་
[180a.2]དུ་ཡོད་པར་དོང་སྟེ། རང་རང་གི་ཁྱིམ་གྱི་འཁོར་བཏང་ནས་སྦྱིན་པ་དག་སྦྱིན་ཞིང་བསོད་ནམས་དག་བྱས་ཏེ། རྒྱལ་བུ་རྒྱལ་བྱེད་ཀྱི་ཚལ་དུ་དོང་ནས། བཅོམ་ལྡན་འདས་ག་ལ་བ་དེར་དོང་སྟེ་ལྷགས་ནས། བཅོམ་ལྡན་འདས་ཀྱི་ཞབས་ལ་མགོ་བོས་ཕྱག་འཚལ་ཏེ། ཞབས་ལ་མཆུས་
[180a.3]གཏུགས་ནས་འདི་སྐད་ཅེས་གསོལ་ཏོ། །བཅོམ་ལྡན་འདས་ནི་བདག་ཅག་ལ་དཀའ་བ་མཛད་པ་དང་། སྲོག་ཕངས་པ་སྩོལ་བ་ལགས་སོ་ཞེས་གསོལ་ནས། ཆོས་མཉན་པའི་ཕྱིར་བཅོམ་ལྡན་འདས་ཀྱི་སྤྱན་སྔར་འཁོད་དོ། །བཅོམ་ལྡན་འདས་ཀྱིས་ཀྱང་དེ་དག་གི་བསམ་
[180a.4]པ་དང་བག་ལ་ཉལ་དང་ཁམས་དང་ཤེས་པ་དང་རང་བཞིན་ཐུགས་སུ་ཆུད་ནས། དེ་དང་འཐུན་པའི་ཆོས་བསྟན་ཏེ། དེས་ན་ཚོང་པ་ལྔ་བརྒྱ་པོ་དེ་དག་གིས་སྟན་དེ་ཉིད་ལ་འཁོད་བཞིན་དུ་འཇིག་ཚོགས་ལ་ལྟ་བའི་རིའི་རྩེ་མོ་མཐོན་པོ་ཉི་ཤུ་ཡེ་ཤེས་རྡོ་རྗེས་བཅོམ་ནས། རྒྱུན་དུ་ཞུགས་པའི་
[180a.5]འབྲས་བུ་མངོན་དུ་བྱས་ཏེ་དེ་དག་གིས་བདེན་པ་མཐོང་ནས་སྟན་ལས་ལངས་ཏེ། བླ་གོས་ཕྲག་པ་གཅིག་ཏུ་གཟར་ནས། བཅོམ་ལྡན་འདས་ག་ལ་བ་དེ་ལོགས་སུ་ཐལ་མོ་སྦྱར་བ་བཏུད་དེ། བཅོམ་ལྡན་འདས་ལ་འདི་སྐད་ཅེས་གསོལ་ཏོ། །བཙུན་པ་བདག་ཅག་ལེགས་
[180a.6]པར་གསུངས་པའི་ཆོས་འདུལ་བ་ལ་རབ་ཏུ་འབྱུང་བ་དང་བསྙེན་པར་རྫོགས་ཤིང་དགེ་སློང་གི་དངོས་པོ་འཐོབ་ཏུ་རུང་ན། བདག་ཅག་ཀྱང་བཅོམ་ལྡན་འདས་ཀྱི་ཐད་དུ་ཚངས་པར་སྤྱོད་པ་སྤྱད་པར་འཚལ་ལོ། །དེ་ནས་བཅོམ་ལྡན་འདས་ཀྱིས་དེ་དག་ལ་དགེ་སློང་ཚུར་ཤོག་ཅེས་བྱ་བའི་
[180a.7]ཚིག་གིས་རབ་ཏུ་བྱུང་སྟེ། བསྙེན་པར་རྫོགས་པར་མཛད་ནས་དེ་དག་ལ་ལུང་ཡང་ཕོག་གོ། །དེ་དག་གིས་ཀྱང་བརྩོན་པ་དང་བསྒྲུབ་པ་དང་འབད་པས་ཉོན་མོངས་པ་ཐམས་ཅད་སྤངས་ནས། དགྲ་བཅོམ་པ་ཉིད་མངོན་སུམ་དུ་བྱས་ཏེ། དེ་དག་དགྲ་བཅོམ་པ་ཁམས་གསུམ་
[180b]
[180b.1]པའི་འདོད་ཆགས་དང་བྲལ་བར་གྱུར་ནས། གསེར་དང་བོང་བར་མཉམ་པ། ནམ་མཁའ་དང་ལག་མཐིལ་དུ་འདྲ་བའི་སེམས་དང་ལྡན་པ། ཙན་དན་སྦངས་པ་ལྟ་བུར་བསིལ་བར་གྱུར་པ། རིག་པས་སྒོ་ངའི་སྦུབས་བཅོམ་པ། རིག་པ་དང་མངོན་པར་ཤེས་པ་དང་སོ་སོ་
[180b.2]ཡང་དག་པར་རིག་པ་ཐོབ་པ། སྲིད་པའི་རྙེད་པ་དང་། ཆགས་པ་དང་། བཀུར་སྟི་ལ་རྒྱབ་ཀྱིས་ཕྱོགས་པ། དབང་པོ་དང་ཉེ་དབང་དང་བཅས་པའི་ལྷ་རྣམས་ཀྱིས་མཆོད་ཅིང་རྗེད་པ་དང་གུས་པར་སྨྲ་བའི་གནས་སུ་གྱུར་ཏོ། །དེ་ནས་དགེ་སློང་རྣམས་ཀྱིས་སངས་
[180b.3]རྒྱས་བཅོམ་ལྡན་འདས་ལ་གསོལ་པ། བཙུན་པ་བཅོམ་ལྡན་འདས་ཀྱིས་ཚོང་པ་ལྔ་བརྒྱ་པོ་འདི་རྣམས་འཇིགས་པ་ཆེན་པོ་ལས་ཡོངས་སུ་བསྐྱབས་ཏེ། གཡུང་དྲུང་གི་མཐར་ཐུག་པ་གྲུབ་པ་དང་བདེ་བའི་མྱ་ངན་ལས་འདས་པ་ལ་བཀོད་པ་ལ་གཟིགས་ལགས། བཅོམ་ལྡན་འདས་
[180b.4]ཀྱིས་བཀའ་སྩལ་པ། ད་ལྟར་འབའ་ཞིག་མ་ཡིན་ཏེ། འདས་པའི་དུས་ན་ཡང་ཚོང་པ་ལྔ་བརྒྱ་པོ་འདི་དག་ཉིད་ངས་ཇི་ལྟར་འཇིགས་པ་ཆེན་པོ་ལས་ཡོངས་སུ་བསྐྱབས་ནས། བསམ་གཏན་བཞི་དང་མངོན་པར་ཤེས་པ་ལྔ་ལ་བཀོད་པ་དེ་ཉོན་ཅིག །དགེ་སློང་དག་སྔོན་
[180b.5]བྱུང་བ་འདས་པའི་དུས་ན་ཚོང་པ་ལྔ་བརྒྱ་ཙམ་ཞིག་གིས་ཟོང་ཁྱེར་ཏེ། ཡུལ་གཞན་དུ་ཆས་ནས་དེ་དག་མཐར་གྱིས་སོང་སོང་བ་ལས་ནགས་ཁུང་ཆེན་པོ་དགོན་པ་ཞིག་ཏུ་ཕྱིན་ཏོ། །ནགས་ཁུང་དེ་ན་གཟི་བྱིན་འཕྲོག་པའི་གནོད་སྦྱིན་དྲག་པོ་འཇིགས་པ་གཞན་གྱི་སྲོག་འཕྲོག་པ་ཞིག་
[180b.6]ཀྱང་གནས་ཏེ། དེས་རླུང་ནག་པོ་ཆེན་པོ་བཏང་ནས་ཚོང་པ་དེ་དག་གི་སྟེང་དུ་བརྒྱུགས་ཏེ། དེས་ན་ཚོང་པ་དེ་དག་ཅི་བྱ་གཏོལ་མེད་པར་གྱུར་ནས་དེ་དག་འཇིགས་ཤིང་སྐྲག་པར་གྱུར་ཏོ། །དེའི་ཚེ་དྲང་སྲོང་གི་གནས་ཤིག་ན་དྲང་སྲོང་མངོན་པར་ཤེས་པ་ལྔ་དང་ལྡན་པ།
[180b.7]རྫུ་འཕྲུལ་ཆེ་ཞིང་མཐུ་ཆེ་བ་ཞིག་གནས་པ་དེས། ཚོང་པ་ལྔ་བརྒྱ་སྡུག་བསྔལ་བར་གྱུར་པ་མཐོང་ངོ་། །མཐོང་ནས་ཀྱང་ཚོང་པ་ལྔ་བརྒྱ་པོ་དེ་དག་བྲུངས་རྫས་དང་བཅས་ཏེ། ནགས་ཁུང་དགོན་པ་དེ་ནས་བླངས་ནས་བདག་ཉིད་ཀྱི་གནས་སུ་བཀོད་དོ། །དེ་ནས་ཚོང་
[181a]
[181a.1]པ་རྣམས་ཀྱིས་བསམས་པ། ཅི་ཡང་རུང་སྟེ་བདག་ཅག་འཚོ་བར་གྱུར་པ་འདི་དག་ཐམས་ཅད་ནི་དྲང་སྲོང་འདིའི་མཐུ་ཡིན་གྱིས། བདག་ཅག་གིས་ཁྱིམ་ན་གནས་པ་བཏང་ལ་འདི་ཉིད་ཀྱི་ཐད་དུ་རབ་ཏུ་བྱུང་སྟེ་ཚངས་པར་སྤྱོད་པ་སྤྱད་དོ་སྙམ་ནས། ཚོང་པ་ལྔ་བརྒྱ་
[181a.2]པོ་དེ་དག་དྲང་སྲོང་དེ་ཉིད་ཀྱི་ཐད་དུ་རབ་ཏུ་བྱུང་ནས། བསམ་གཏན་བཞི་དང་མངོན་པར་ཤེས་པ་ལྔ་བསྐྱེད་དོ། །དགེ་སློང་དག་ཇི་སྙམ་དུ་སེམས། དེའི་ཚེ་དྲང་སྲོང་དུ་གྱུར་པ་གང་ཡིན་པ་དེ་ནི་ང་ཉིད་ཡིན་ནོ། །དེའི་ཚེ་ཚོང་པ་ལྔ་བརྒྱར་གྱུར་པ་གང་ཡིན་པ་དེ་དག་ནི་ཚོང་པ་ལྔ་
[181a.3]བརྒྱ་པོ་འདི་དག་ཡིན་ཏེ། དེའི་ཚེ་ཡང་ངས་འདི་རྣམས་འཇིགས་པ་ཆེན་པོ་ལས་བསྐྱབས་ནས། བསམ་གཏན་བཞི་དང་མངོན་པར་ཤེས་པ་ལྔ་ལ་བཀོད་དོ། །ད་ལྟར་ཡང་ངས་འདི་རྣམས་འཇིགས་པ་ཆེན་པོ་ལས་བསྐྱབས་ནས། གཡུང་དྲུང་གི་མཐར་ཐུག་པ་གྲུབ་པ་དང་
[181a.4]བདེ་བའི་མྱ་ངན་ལས་འདས་པ་ལ་བཀོད་དོ། །གཞན་ཡང་ཡང་དག་པར་རྫོགས་པའི་སངས་རྒྱས་འོད་སྲུང་གི་གསུང་རབ་ལ་འདི་རྣམས་རབ་ཏུ་བྱུང་སྟེ། རབ་ཏུ་བྱུང་ནས་ཀྱང་ཚེ་གཅིག་ཏུ་ཚངས་པར་སྤྱོད་པ་སྤྱད་ནས། འཆི་ཀར་སྨོན་ལམ་བཏབ་པ། དགེ་བའི་རྩ་བ་འདིས་ན་
[181a.5]བདག་ཅག་ཡང་དག་པར་རྫོགས་པའི་སངས་རྒྱས་འོད་སྲུང་གིས་བྲམ་ཟེའི་ཁྱེའུ་བླ་མ་ལུང་བསྟན་པ་གང་ཡིན་པའི་སངས་རྒྱས་བཅོམ་ལྡན་འདས་དེ་མཉེས་པར་བྱེད་པར་གྱུར་ཅིག །མི་མཉེས་པར་བྱེད་པར་མ་གྱུར་ཅིག །དེ་ཁོ་ནའི་བསྟན་པ་ལ་རབ་ཏུ་བྱུང་ནས་ཉོན་མོངས་པ་ཐམས་
[181a.6]ཅད་སྤངས་ཏེ། དགྲ་བཅོམ་པ་ཉིད་མངོན་སུམ་དུ་བྱེད་པར་ཤོག་ཅིག་ཅེས་བྱས་སོ། །དགེ་སློང་དག་ཇི་སྙམ་དུ་སེམས། དེའི་ཚེ་ཡང་དག་པར་རྫོགས་པའི་སངས་རྒྱས་འོད་སྲུང་གི་གསུང་རབ་ལ་རབ་ཏུ་བྱུང་བའི་དགེ་སློང་ལྔ་བརྒྱ་པོར་གྱུར་པ་གང་ཡིན་པ་དེ་དག་ནི།
[181a.7]ཚོང་པ་ལྔ་བརྒྱ་པོ་འདི་དག་ཉིད་ཡིན་ཏེ། འདི་དག་དེར་རབ་ཏུ་བྱུང་ནས། ཚེ་གཅིག་ཏུ་ཚངས་པར་སྤྱོད་པ་སྤྱད་དེ། འཆི་ཀར་སྨོན་ལམ་བཏབ་པ། དགེ་བའི་རྩ་བ་འདིས་བདག་ཅག་ཡང་དག་པར་རྫོགས་པའི་སངས་རྒྱས་བཅོམ་ལྡན་འདས་འོད་སྲུང་གིས་
[181b]
[181b.1]བྲམ་ཟེའི་ཁྱེའུ་བླ་མ་ལུང་བསྟན་པ་གང་ཡིན་པའི་སངས་རྒྱས་བཅོམ་ལྡན་འདས་དེ་མཉེས་པར་བྱེད་པར་གྱུར་ཅིག །མི་མཉེས་པར་བྱེད་པར་མ་གྱུར་ཅིག །དེ་ཁོ་ནའི་བསྟན་པ་ལ་རབ་ཏུ་བྱུང་ནས་ཉོན་མོངས་པ་ཐམས་ཅད་སྤངས་ཏེ། དགྲ་བཅོམ་པ་ཉིད་མངོན་སུམ་དུ་བྱེད་
[181b.2]པར་གྱུར་ཅིག་ཅེས་བྱས་པ་དེས་ན། དགེ་སློང་དག་ང་ཡང་དག་པར་རྫོགས་པའི་སངས་རྒྱས་འོད་སྲུང་དང་ཤིན་ཏུ་མཉམ་པ་དང་ཤུགས་མཉམ་པ་དང་མཛད་པ་མཉམ་པ་དང་ཐབས་མཉམ་པ་བརྙེས་པར་གྱུར་ནས། འདི་རྣམས་ཀྱིས་ང་མཉེས་པར་བྱས་ཏེ་མི་མཉེས་
[181b.3]པར་མ་བྱས་ལ། ང་ཉིད་ཀྱི་བསྟན་པ་ལ་རབ་ཏུ་བྱུང་ནས་ཉོན་མོངས་པ་ཐམས་ཅད་སྤངས་ཏེ་དགྲ་བཅོམ་པ་ཉིད་མངོན་སུམ་དུ་བྱས་སོ།། །།