ཤིང་རྟ་གསུམ་པ་ནི།
[56a.2]གླེང་གཞི་མཉན་དུ་ཡོད་པ་ན་བཞུགས་ཏེ། བཅོམ་ལྡན་འདས་སྔ་དྲོ་ཤམ་ཐབས་དང་ཆོས་གོས་གསོལ་ཏེ། ལྷུང་བཟེད་བསྣམས་ནས་མཉན་དུ་ཡོད་པར་བསོད་སྙོམས་ལ་གཤེགས་སོ། །བྲམ་ཟེ་ཞིག་ཀྱང་ཤིང་རྟ་ལ་ཞོན་ཏེ་ཡུལ་རྒྱུ་ཞིང་ཆས་པ་ལས། བཅོམ་ལྡན་འདས་མཐོང་ནས། བཀྲ་
[56a.3]མི་ཤིས་སོ་སྙམ་སྟེ་ཕན་ཚུན་དུ་བྲོས་སོ། །བཅོམ་ལྡན་འདས་ཀྱིས་ཀྱང་། དེ་ལ་ཐུགས་བརྩེ་བའི་ཕྱིར་དེ་དང་དེ་ཁོ་ན་ན་བཞུགས་པར་གྱུར་ཏོ། །དེ་ནས་རེ་ཞིག་ན་གྲོང་ཁྱེར་གྱི་སྒོ་བཞི་ཆར་དུ་ཡང་དེའི་མདུན་ན་བཅོམ་ལྡན་འདས་བཞུགས་པར་གྱུར་ནས་དེས་བསམས་པ་དགེ་སྦྱོང་གཽ་ཏ་མ་འདི་ནི་རྫུ་
[56a.4]འཕྲུལ་ཆེ་ཞིང་མཐུ་ཆེ་བ་ཡིན་ནོ་སྙམ་ནས། དེ་བཅོམ་ལྡན་འདས་ལ་དགའ་བ་སྐྱེས་སོ། །དེ་དགའ་བ་སྐྱེས་ནས། བཅོམ་ལྡན་འདས་ཀྱི་སྟེང་དུ་མེ་ཏོག་སྤར་གང་གཏོར་ཏོ། །དེའི་སྐབས་སུ་བཅོམ་ལྡན་འདས་ཀྱིས་འཛུམ་པ་མཛད་དེ། འདི་ནི་སངས་རྒྱས་བཅོམ་ལྡན་འདས་རྣམས་གང་གི་ཚེ་
[56a.5]འཛུམ་པ་མཛད་པའི་ཆོས་ཉིད་དེ། དེའི་ཚེ་ཞལ་ནས་འོད་ཟེར་སྔོན་པོ་དང་། སེར་པོ་དང་། དམར་པོ་དང་། དཀར་པོ་རྣམས་བྱུང་ནས་ཁ་ཅིག་ནི་འོག་ཏུ་འགྲོའོ། །ཁ་ཅིག་ནི་སྟེང་དུ་འགྲོའོ། །འོག་ཏུ་འགྲོ་བ་གང་ཡིན་པ་དེ་དག་ནི་སེམས་ཅན་དམྱལ་བ་ཡང་སོས་དང་། ཐིག་ནག་དང་།
[56a.6]བསྡུས་འཇོམས་དང་། ངུ་འབོད་དང་། ངུ་འབོད་ཆེན་པོ་དང་། ཚ་བ་དང་། རབ་ཏུ་ཚ་བ་དང་། མནར་མེད་པ་དང་། ཆུ་བུར་ཅན་དང་། ཆུ་བུར་རྡོལ་བ་དང་། སོ་ཐམས་ཐམས་དང་། ཀྱི་ཧུད་ཟེར་དང་། ཨ་ཆུ་ཟེར་བ་དང་། ཨུད་པལ་ལྟར་གས་པ་དང་། པད་མ་ལྟར་
[56a.7]གས་པ་དང་། པད་མ་ལྟར་གས་པ་ཆེན་པོར་སོང་ནས། ཚ་བའི་སེམས་ཅན་དམྱལ་བ་གང་ཡིན་པ་དེ་དག་ཏུ་ནི་བསིལ་བར་གྱུར་ཏེ་འབབ་བོ། །གྲང་བའི་སེམས་ཅན་དམྱལ་བ་གང་ཡིན་པ་དེ་དག་ཏུ་ནི་དྲོ་བར་གྱུར་ཏེ་འབབ་བོ། །དེས་ན་སེམས་ཅན་དེ་དག་གི་གནོད་པའི་ཁྱད་པར་རྣམས་
[56b]
[56b.1]རྩེ་ཞིལ་བར་གྱུར་ཏོ། །དེ་ནས་དེ་དག་འདི་སྙམ་དུ་སེམས་ཏེ། ཀྱེ་ཅི་བདག་ཅག་འདི་ནས་འཆི་འཕོས་སམ་འོན་ཏེ་གཞན་དུ་སྐྱེས་སམ་སྙམ་མོ། །དེ་ནས་དེ་དག་དད་པ་བསྐྱེད་པའི་ཕྱིར་བཅོམ་ལྡན་འདས་སྤྲུལ་པ་འགྱེད་པར་མཛད་དེ། དེ་དག་གིས་སྤྲུལ་པ་མཐོང་ནས་འདི་སྙམ་དུ་སེམས་ཏེ། ཀྱེ་བདག་
[56b.2]ཅག་ནི་འདི་ནས་ཀྱང་ཤི་འཕོས་པར་མ་གྱུར་ལ་གཞན་དུ་ཡང་མ་སྐྱེས་མོད་ཀྱི། འོན་ཀྱང་སྔོན་མ་བྱུང་བའི་སེམས་ཅན་སྣང་བ་འདིའི་མཐུས་བདག་ཅག་གི་གནོད་པའི་ཁྱད་པར་རྣམས་རྩེ་ཞིལ་བར་གྱུར་ཏོ་སྙམ་མོ། །དེ་ནས་དེ་དག་སྤྲུལ་པ་ལ་སེམས་མངོན་པར་དགའ་བར་གྱུར་ནས། སེམས་ཅན་དམྱལ་
[56b.3]བ་མྱོང་བར་འགྱུར་བའི་ལས་དེ་ཟད་དེ། ལྷ་དང་མི་རྣམས་ཀྱི་ནང་དུ་གང་དུ་བདེན་པ་རྣམས་ཀྱི་སྣོད་དུ་རུང་བར་འགྱུར་བ་དེར་ཉིང་མཚམས་འཛིན་པར་འགྱུར་རོ། །སྟེང་དུ་འགྲོ་བ་གང་ཡིན་པ་དེ་དག་ནི་རྒྱལ་ཆེན་བཞིའི་རིས་རྣམས་དང་། སུམ་ཅུ་རྩ་གསུམ་པ་རྣམས་དང་། འཐབ་བྲལ་རྣམས་དང་།
[56b.4]དགའ་ལྡན་རྣམས་དང་། འཕྲུལ་དགའ་རྣམས་དང་། གཞན་འཕྲུལ་དབང་བྱེད་རྣམས་དང་། ཚངས་རིས་རྣམས་དང་། ཚངས་པའི་མདུན་ན་འདོན་པ་རྣམས་དང་། ཚངས་པ་ཆེན་པོ་རྣམས་དང་། འོད་ཆུང་རྣམས་དང་། ཚད་མེད་འོད་རྣམས་དང་། འོད་གསལ་རྣམས་དང་།
[56b.5]དགེ་ཆུང་རྣམས་དང་། ཚད་མེད་དགེ་རྣམས་དང་། དགེ་རྒྱས་རྣམས་དང་། སྤྲིན་མེད་རྣམས་དང་། བསོད་ནམས་སྐྱེས་རྣམས་དང་། འབྲས་བུ་ཆེ་རྣམས་དང་། མི་ཆེ་རྣམས་དང་། མི་གདུང་རྣམས་དང་། གྱ་ནོམ་སྣང་རྣམས་དང་། ཤིན་ཏུ་མཐོང་རྣམས་དང་། འོག་མིན་གྱི་
[56b.6]ལྷ་རྣམས་ཀྱི་བར་དུ་སོང་ནས། མི་རྟག་པ་དང་། སྡུག་བསྔལ་བ་དང་། སྟོང་པ་དང་། བདག་མེད་པའི་སྒྲ་སྒྲོགས་སོ། །ཚིགས་སུ་བཅད་པ་གཉིས་ཀྱང་རྗོད་པར་བྱེད་དེ། ངེས་པར་འབྱུང་བ་བརྩམ་པར་གྱིས། །སངས་རྒྱས་བསྟན་ལ་སྦྱོར་བར་གྱིས། །འདམ་བུའི་ཁྱིམ་ལ་གླང་
[56b.7]ཆེན་བཞིན། །འཆི་བདག་སྡེ་ནི་གཞོམ་པར་གྱིས། །གང་ཞིག་ཆོས་འདུལ་འདི་ཉིད་ལ། །བག་ཡོད་སྤྱོད་པར་བྱེད་པ་ནི། །སྐྱེ་བའི་འཁོར་བ་རབ་སྤངས་ནས། །སྡུག་བསྔལ་ཟད་པར་བྱེད་པར་འགྱུར། །ཞེས་རྗོད་པར་བྱེད་དོ། །དེ་ནས་འོད་ཟེར་དེ་དག་གིས་སྟོང་གསུམ་གྱི་སྟོང་ཆེན་པོའི་འཇིག་
[57a]
[57a.1]རྟེན་གྱི་ཁམས་བསྐོར་ནས། བཅོམ་ལྡན་འདས་ཀྱི་ཕྱི་བཞིན་འབྲང་སྟེ། གལ་ཏེ་བཅོམ་ལྡན་འདས་ཀྱིས་འདས་པའི་ལས་ལུང་སྟོན་པར་བཞེད་ན་ནི་བཅོམ་ལྡན་འདས་ཀྱི་སྣམ་ལོགས་སུ་མི་སྣང་བར་འགྱུར་རོ། །མ་འོངས་པའི་ལས་ལུང་སྟོན་པར་བཞེད་ན་ནི་མདུན་ལོགས་
[57a.2]སུ་མི་སྣང་བར་འགྱུར་རོ། །སེམས་ཅན་དམྱལ་བར་སྐྱེ་བར་ལུང་སྟོན་པར་བཞེད་ན་ནི། ཞབས་ཀྱི་མཐིལ་དུ་མི་སྣང་བར་འགྱུར་རོ། །དུད་འགྲོར་སྐྱེ་བར་ལུང་སྟོན་པར་བཞེད་ན་ནི་ཞབས་ཀྱི་རྟིང་པར་མི་སྣང་བར་འགྱུར་རོ། །ཡི་དགས་སུ་སྐྱེ་བར་ལུང་སྟོན་པར་བཞེད་ན་ནི་ཞབས་ཀྱི་མཐེ་བོར་མི་སྣང་བར་འགྱུར་རོ། །
[57a.3]མིར་སྐྱེ་བར་ལུང་སྟོན་པར་བཞེད་ན་ནི་པུས་མོ་གཉིས་སུ་མི་སྣང་བར་འགྱུར་རོ། །སྟོབས་ཀྱི་འཁོར་ལོས་སྒྱུར་བའི་རྒྱལ་པོར་ལུང་སྟོན་པར་བཞེད་ན་ནི་ཕྱག་གཡོན་པའི་མཐིལ་དུ་མི་སྣང་བར་འགྱུར་རོ། །འཁོར་ལོས་སྒྱུར་བའི་རྒྱལ་པོར་ལུང་སྟོན་པར་བཞེད་ན་ནི་ཕྱག་གཡས་པའི་མཐིལ་དུ་མི་
[57a.4]སྣང་བར་འགྱུར་རོ། །ལྷར་སྐྱེ་བར་ལུང་སྟོན་པར་བཞེད་ན་ནི་ལྟེ་བར་མི་སྣང་བར་འགྱུར་རོ། །ཉན་ཐོས་ཀྱི་བྱང་ཆུབ་ཏུ་ལུང་སྟོན་པར་བཞེད་ན་ནི་ཞལ་དུ་མི་སྣང་བར་འགྱུར་རོ། །རང་སངས་རྒྱས་ཀྱི་བྱང་ཆུབ་ཏུ་ལུང་སྟོན་པར་བཞེད་ན་ནི་སྨིན་མཚམས་ཀྱི་མཛོད་སྤུར་མི་སྣང་བར་འགྱུར་རོ། །བླ་ན་
[57a.5]མེད་པ་ཡང་དག་པར་རྫོགས་པའི་བྱང་ཆུབ་ཏུ་ལུང་སྟོན་པར་བཞེད་ན་ནི་དབུའི་གཙུག་ཏོར་དུ་མི་སྣང་བར་འགྱུར་རོ། །དེ་ནས་འོད་ཟེར་དེ་དག་གིས་བཅོམ་ལྡན་འདས་ལ་ལན་གསུམ་བསྐོར་བ་བྱས་ཏེ། བཅོམ་ལྡན་འདས་ཀྱི་སྨིན་མཚམས་ཀྱི་མཛོད་སྤུར་མི་སྣང་བར་གྱུར་ཏོ། །དེ་ནས་ཚེ་དང་
[57a.6]ལྡན་པ་ཀུན་དགའ་བོས་ཐལ་མོ་སྦྱར་ཏེ་བཅོམ་ལྡན་འདས་ལ་ཞུས་པ། ཚོན་སྣ་སྟོང་གིས་སྤེལ་བ་སྣ་ཚོགས་ཅན། །མང་པོ་ཞལ་གྱི་སྒོ་ནས་བྱུང་བར་གྱུར། །དེ་ཡིས་ཕྱོགས་རྣམས་ཀུན་དུ་སྣང་བར་བགྱིས། །ཉི་མ་ཤར་བས་ཇི་ལྟར་བགྱིས་པ་བཞིན། །ཡང་ཚིགས་སུ་བཅད་དེ་གསོལ་
[57a.7]པ། རྒོད་དང་བྲལ་ཞིང་རྒྱགས་དང་མི་དགྱེས་སྤངས་པ་ཡི། །སངས་རྒྱས་འགྲོ་བ་དག་གི་དམ་པའི་རྒྱུར་གྱུར་པ། །རྒྱལ་བ་དགྲ་ཐུབ་རྣམས་ནི་རྒྱུ་རྐྱེན་མ་མཆིས་པར། །པད་མའི་རྩ་དང་དུང་མདོག་ལྟ་བུའི་འཛུམ་མི་སྟོན། །བརྟན་པོ་ཉིད་ཀྱི་བློ་ཡིས་དུས་བབ་མཁྱེན་ལགས་
[57b]
[57b.1]ན། །དགེ་སྦྱོང་རྒྱལ་དབང་ཉན་པ་སོམ་ཉི་འཚལ་བ་རྣམས། །ཐུབ་པ་ཁྱུ་མཆོག་གི་ནི་གསུང་མཆོག་བརྟན་པ་དང་། །བཟང་པོ་དག་གིས་ཐེ་ཚོམ་སྐྱེས་པ་བསལ་བར་གསོལ། །རྒྱ་མཚོ་དང་ནི་རི་རྒྱལ་ལྟ་བུར་བརྟན་པ་ཡི། །མགོན་པོ་རྫོགས་སངས་རྒྱས་རྣམས་གྱིན་ད་འཛུམ་མི་སྟོན། །གང་
[57b.2]གི་དོན་དུ་དཔའ་བོ་འཛུམ་པ་སྟོན་མཛད་པ། །དེ་ནི་ཁྱོད་ལ་སྐྱེ་བོ་ཕལ་ཆེན་མཉན་པར་འཚལ། །འབྲུག་སྒྲ་ལྟ་བུའི་གསུང་ལྡན་པ། །ཁྱུ་མཆོག་ལྟ་བུའི་ལྟ་སྟངས་ཅན། །མི་མཆོག་མཆོད་པ་བགྱིད་པ་ཡི། །འབྲས་བུ་ཅིར་འགྱུར་ལུང་བསྟན་གསོལ། །བཙུན་པ་དེ་བཞིན་
[57b.3]གཤེགས་པ་དགྲ་བཅོམ་པ་ཡང་དག་པར་རྫོགས་པའི་སངས་རྒྱས་རྣམས་ནི་རྒྱུ་མ་མཆིས་རྐྱེན་མ་མཆིས་པར་འཛུམ་པ་སྟོན་པར་མི་མཛད་ན། བཙུན་པ་འཛུམ་པ་མཛད་པའི་རྒྱུ་གང་ལགས་རྐྱེན་གང་ལགས་བཅོམ་ལྡན་འདས་ཀྱིས་བཀའ་སྩལ་པ། ཀུན་དགའ་བོ་དེ་ནི་དེ་བཞིན་ནོ། །དེ་ནི་
[57b.4]དེ་བཞིན་ཏེ། ཀུན་དགའ་བོ་དེ་བཞིན་གཤེགས་པ་དགྲ་བཅོམ་པ་ཡང་དག་པར་རྫོགས་པའི་སངས་རྒྱས་རྣམས་ནི་རྒྱུ་མེད་རྐྱེན་མེད་པར་འཛུམ་པ་མི་མཛད་དོ། །ཀུན་དགའ་བོ་ཁྱོད་ཀྱིས་བྲམ་ཟེ་གང་གིས་དེ་བཞིན་གཤེགས་པ་ལ་མེ་ཏོག་གིས་གཏོར་བ་མཐོང་ངམ། བཙུན་པ་མཐོང་ལགས་སོ། །
[57b.5]ཀུན་དགའ་བོ་བྲམ་ཟེ་འདི་ནི་དགེ་བའི་རྩ་བ་འདིས་བསྐལ་པ་བཅུ་གསུམ་གྱི་བར་དུ་ལོག་པར་ལྟུང་བར་མི་འགྱུར་ཏེ། བསྐལ་པ་བཅུ་གསུམ་གྱི་བར་དུ་ལྷ་རྣམས་དང་མི་རྣམས་ཀྱི་ནང་དུ་ཉིང་མཚམས་སྦྱར་ཞིང་འཁོར་བར་གྱུར་ནས། སྲིད་པ་ཐ་མ་དང་གནས་ཐ་མ་ལ་མིར་སྐྱེ་བ་ཐོབ་སྟེ་རབ་ཏུ་
[57b.6]འབྱུང་བར་འགྱུར་ལ་དེས་སློབ་དཔོན་མེད་པ་དང་མན་ངག་མེད་པར་བྱང་ཆུབ་ཀྱི་ཕྱོགས་དང་འཐུན་པའི་ཆོས་སུམ་ཅུ་རྩ་བདུན་མངོན་དུ་བྱས་ནས། རང་སངས་རྒྱས་ཀྱི་བྱང་ཆུབ་མངོན་སུམ་དུ་བྱེད་པར་འགྱུར་ཏེ་རང་སངས་རྒྱས་མེ་ཏོག་བླ་མ་ཞེས་བྱ་བར་འགྱུར་རོ། །དེའི་སྦྱིན་པར་བྱ་བའི་ཆོས་ནི་
[57b.7]དེ་ཡིན་ནོ།། །།