སྒུར་ཆུང་
[108b.4]ཞེས་བྱ་བ་ནི། གླེང་གཞི་མཉན་དུ་ཡོད་པ་ན་བཞུགས་ཏེ། དེའི་ཚེ་མཉན་དུ་ཡོད་པ་ན་བྲམ་ཟེ་དབུལ་པོ་འཚོ་བ་ཕོངས་པ་སློངས་མོའི་ཟས་ཀྱིས་འཚོ་བ་ཞིག་གནས་པ་ལས་ཕྱི་ཞིག་ན་དེའི་ཆུང་མ་ལ་བུ་ཆགས་ནས། དེ་མའི་ལྟོར་ཞུགས་ཕྱིན་ཅད་བྲམ་ཟེ་དེ་ལྷག་པར་ཡང་སློངས་མོ་
[108b.5]ཡང་ཆེར་ཡང་མི་རྙེད་པར་གྱུར་ཏོ། །དེ་ནས་དེ་ཟླ་བ་དགུའམ་བཅུ་ལོན་པ་དང་ཁྱེའུ་མདོག་ངན་པ་དང་བྱད་ངན་པོ་རིད་ཅིང་སྦེག་ལ་སྒུར་བ་ཞིག་བཙས་ཏེ། དེའི་བཙས་སྟོན་ཅི་འབྱོར་ཙམ་ཞིག་བྱས་ནས། ཁྱེའུ་འདིའི་མིང་ཇི་སྐད་གདགས་ཞེས་མིང་འདོགས་པར་བྱེད་དེ། ཁྱེའུ་འདི་ཆུང་
[108b.6]ལ་སྒུར་བས་ན་དེའི་ཕྱིར་འདིའི་མིང་སྒུར་ཆུང་ཞེས་གདགས་སོ་ཟེར་རོ། །དེ་ནས་འོ་མ་དང་ཞོ་དང་མར་དང་ཞུན་མར་དང་མར་གྱི་ཉིང་གུས་བསྐྱེད་བསྲིངས་ཏེ། དེ་ནས་ཕྱི་ཞིག་ན་སེམས་ཅན་དེའི་སྔོན་གྱི་ལས་ཀྱི་རྣམ་པར་སྨིན་པས་མའི་ནུ་ཞོ་སྐམས་སོ། །དེ་ནས་དེའི་མས་དེ་བ་དང་མ་
[108b.7]ཧེའི་འོ་མས་གསོས་པ་དང་དེ་ཡང་ལེགས་པར་མི་འབྱོར་ཏོ། །སྲིད་པ་ཐ་མ་པའི་སེམས་ཅན་བར་མ་དོར་འཆི་བ་ནི་གནས་མེད་ཅིང་སྐབས་མེད་དེ། དེའི་བ་དང་མ་ཧེའི་འོ་མ་རེས་འགའ་ནི་འབྱོར་རེས་འགའ་ནི་མི་འབྱོར་ནས་དེ་ངན་ངོན་ཞིག་གསོས་ཏེ། ཆེར་སྐྱེས་པ་དང་ཕས་དེ་ལ་སྨྲས་པ།
[109a]
[109a.1]བུ་བདག་ཅག་ནི་སློངས་མོས་འཚོ་བ་ཁོ་ནར་ཟད་དེ། ཞིང་རྨོ་བ་ཡང་མེད་ཚོང་བྱ་བ་ཡང་མེད་ཀྱིས་སློངས་མོ་ལ་སོང་ལ་སློངས་མོའི་ཟས་ཀྱིས་འཚོ་བར་གྱིས་ཤིག་ཅེས་བྱས་སོ། །དེ་ནས་བཀའ་བཞིན་འཚལ་ཞེས་བྱས་ནས་ཁྱེའུ་དེ་སློངས་མོ་ལ་ཞུགས་ནས། དེས་
[109a.2]ཡུན་རིང་དུ་བསྐོར་ཀྱང་སྲོག་གཟུངས་ཅུང་ཟད་ཙམ་ལས་མི་རྙེད་དོ། །དེ་ནས་ཕྱི་ཞིག་ན་ཁྱེའུ་དེ་བཅོམ་ལྡན་འདས་ཀྱི་བསྟན་པ་ལ་དད་པ་རྙེད་དེ་དགེ་སློང་ཞིག་གི་ཐད་དུ་སོང་ནས་སྨྲས་པ། བཙུན་པ་བདག་བཅོམ་ལྡན་འདས་ཀྱི་བསྟན་པ་ལ་རབ་ཏུ་འབྱུང་བ་དང་བསྙེན་པར་རྫོགས་ཤིང་
[109a.3]དགེ་སློང་གི་དངོས་པོ་འཐོབ་ཏུ་རུང་ན། བདག་ཀྱང་བཅོམ་ལྡན་འདས་ཀྱི་ཐད་དུ་ཚངས་པར་སྤྱོད་པ་སྤྱད་པར་འཚལ་ལོ། །དགེ་སློང་གིས་སྨྲས་པ། ཁྱོད་ཀྱི་ཕ་མ་གསོན་ནམ་དེས་སྨྲས་པ་གསོན་ནོ། །དགེ་སློང་གིས་སྨྲས་པ། ཁྱོད་ཀྱིས་ཕ་མ་ལ་བཟླུགས་སམ་བཙུན་པ་མ་
[109a.4]བཟླུགས་སོ། །དགེ་སློང་གིས་སྨྲས་པ། བུ་སངས་རྒྱས་རྣམས་དང་སངས་རྒྱས་ཀྱི་ཉན་ཐོས་རྣམས་ནི་ཕ་མས་མ་གནང་བར་རབ་ཏུ་འབྱིན་པ་མི་མཛད་ཀྱིས། སོང་ལ་ཕ་མ་གཉིས་ལ་བཟླུགས་ལ་ཕྱིར་ཤོག་ཅིག་དང་དེའི་འོག་ཏུ་ཁྱོད་ཀྱི་སླ་བར་འགྱུར་རོ། །དེ་ནས་ཁྱེའུ་སྒུར་ཆུང་
[109a.5]གིས། དགེ་སློང་དེའི་ཚིག་མཉན་ནས་ཕ་མའི་ཐད་དུ་སོང་སྟེ་སྨྲས་པ། ཡབ་ཡུམ་བདག་བཅོམ་ལྡན་འདས་ཀྱི་བསྟན་པ་ལ་རབ་ཏུ་འབྱུང་བར་གནང་བར་མཛད་དུ་གསོལ། དེ་ནས་ཕ་མ་གཉིས་ཀྱིས་བསམས་པ། ད་ལྟ་འདི་ཡང་མཆོག་ཏུ་སྡུག་བསྔལ་ལ། བདག་ཅག་གཉིས་ཀྱང་
[109a.6]སྡུག་བསྔལ་ཏེ། འདི་ཙམ་ཞིག་ཀྱང་བདེ་བར་གྱུར་ན་ལེགས་ཀྱིས་རབ་ཏུ་བྱུང་ཡང་སླའམ། འོན་ཀྱང་ཚེ་འདི་དང་ཚེ་ཕྱི་མ་ལ་ཡང་བདེ་བ་འཐོབ་པར་འགྱུར་རོ་སྙམ་ནས་སྨྲས་པ། བུ་གནང་གིས་གལ་ཏེ་ཁྱོད་ཀྱིས་ཁྱད་པར་འགའ་ཞིག་ཐོབ་པར་གྱུར་ན་ངེད་གཉིས་ལ་ཡང་སྟོན་ཅིག །དེ་ནས་
[109a.7]བཀའ་བཞིན་འཚལ་ཞེས་བྱས་ཏེ། ཁྱེའུ་སྒུར་ཆུང་ཕ་མས་གནང་ནས་རྒྱལ་བུ་རྒྱལ་བྱེད་ཀྱིས་ཚལ་དུ་སོང་སྟེ། དགེ་སློང་དེའི་ཐད་དུ་ཕྱིན་ནས་སྨྲས་པ། བཙུན་པ་བདག་གིས་ཕ་མ་གཉིས་ལ་བཟླུགས་ནས་བདག་ཕ་མ་གཉིས་ཀྱིས་གནང་ལགས་ན། བཙུན་པ་བདག་ལེགས་པར་
[109b]
[109b.1]གསུངས་པའི་ཆོས་འདུལ་བ་ལ་རབ་ཏུ་འབྱུང་བ་དང་བསྙེན་པར་རྫོགས་ཤིང་དགེ་སློང་གི་དངོས་པོ་འཐོབ་ཏུ་རུང་ན། བདག་ཀྱང་བཅོམ་ལྡན་འདས་ཀྱི་ཐད་དུ་ཚངས་པར་སྤྱོད་པར་འཚལ་ལོ་ཞེས་བྱས་སོ། །བདག་ཉིད་ཆེན་པོ་དེ་དག་ནི་གཞན་ལ་ཕན་འདོགས་པ་ལ་ཞུགས་པ་ཡིན་ཏེ།
[109b.2]དགེ་སློང་དེས་དེ་རབ་ཏུ་ཕྱུང་ནས་བསྙེན་པར་རྫོགས་པར་བྱས་སོ། །དེ་ནས་དེས་ཞག་གཉིས་སམ་གསུམ་གྱི་བར་དུ་ཁ་ཟས་ཀྱིས་བཤུགས་ནས་སྨྲས་པ། བུ་རི་དགས་ཀྱིས་རི་དགས་མི་སོས་ཀྱིས་ཁྱོད་ཀྱིས་ཕས་ཕོག་པའི་ཡུལ་རང་གི་སྤྱོད་ཡུལ་བསོད་སྙོམས་ལ་སོང་ཤིག་ཅེས་
[109b.3]བསྒོའོ། །དེ་ནས་དེས་མཁན་པོའི་ཚིག་མཉན་ཏེ་རེས་འགའ་ནི་བསོད་སྙོམས་ལ་འགྲོའོ། །རེས་འགའ་ནི་དགེ་འདུན་གྱི་གྲལ་དུ་ཟན་ཟ་བར་བྱེད་དེ། གལ་ཏེ་དགེ་འདུན་གྱི་གྲལ་དུ་ཟན་ཟ་ན་ནི་དེ་ལ་འདྲིམ་པའི་ཚེ། དེའི་སྔོན་གྱི་ལས་ཀྱི་རྣམ་པར་སྨིན་པས་ཟས་གང་འདྲིམ་
[109b.4]པ་དེ་དེའི་ཐད་དུ་ཕྱིན་པ་དང་ཟས་དང་སྐོམ་ཟད་པར་འགྱུར་རོ། །ཡང་ན་དེ་དག་ལ་གློ་བུར་གྱི་རྐྱེན་འབྱུང་བར་འགྱུར་རོ། །དེ་ནས་དེ་དག་ཕྱིར་འོངས་ན་ཡང་དེ་ལས་ཐལ་ནས་འོག་མ་ལ་བྱིན་ཏེ་འདྲིམ་པར་བྱེད་པས། དེ་དེ་ན་འདུག་ཀྱང་ཁ་ཅིག་ནི་འཐོབ་ཁ་ཅིག་ནི་མི་འཐོབ་བོ། །
[109b.5]དེ་ནས་དགེ་སློང་རྣམས་ཀྱིས་ཚོར་ནས་བཅོམ་ལྡན་འདས་ལ་གསོལ་ཏོ། །བཅོམ་ལྡན་འདས་ཀྱིས་བཀའ་སྩལ་པ། དགེ་སློང་དག་དགེ་སློང་འོག་ན་འདུག་པའི་ནན་ཏན་དུ་བྱ་བའི་ཆོས་བཅའ་བར་བྱས་ཏེ། འོག་ན་འདུག་པའི་དགེ་སློང་གིས་ཇི་སྲིད་དུ་གོང་ན་འདུག་པས་མ་བླངས་
[109b.6]ཀྱི་བར་དུ་བཟའ་བ་དང་བཅའ་བ་བླང་བར་མི་བྱའོ། །ཡང་ན་ཐབས་ཅི་ཞིག་ལྟར་ཐལ་ཏེ་བླངས་པར་གྱུར་ན་ཡང་དེས་མ་ཐོབ་ཀྱི་བར་དུ་བསྒྲུབ་པ་མི་གཏོང་བར་བྱའོ། །དེ་སྟེ་སྦྱིན་དུ་གཞུག་མ་ནུས་ན་བདག་གི་ཟས་ལས་དེ་ལ་ཕྱེད་སྦྱིན་པར་བྱའོ། །ཕྱེད་ནི་བདག་གིས་བཟའ་བར་བྱ་སྟེ། དེ་
[109b.7]ལྟར་བྱིན་ན་ནི་ལེགས་མ་བྱིན་ན་ཉེས་པ་དང་བཅས་པར་འགྱུར་རོ། །གལ་ཏེ་བསོད་སྙོམས་ལ་འགྲོ་ན་ནི་དེས་བསོད་སྙོམས་བཀའ་འཁོར་དུ་རྙེད་པར་འགྱུར་རོ། །དེ་ནས་ཕྱི་ཞིག་ན་ཚེ་དང་ལྡན་པ་སྒུར་ཆུང་གིས། བཅོམ་ལྡན་འདས་ཀྱི་དྲི་གཙང་ཁང་ཕྱག་དར་བྱས་ནས་དེས་དེའི་ཉིན་
[110a]
[110a.1]པར་བཟའ་བ་དང་བཅའ་བ་བཟང་པོ་རྙེད་དོ། །དེ་བཞིན་དུ་ཞག་གཉིས་དང་ཞག་གསུམ་གྱི་བར་དུ་ཡང་བཅོམ་ལྡན་འདས་ཀྱི་དྲི་གཙང་ཁང་ཕྱག་དར་བྱས་ན་ཡང་། དེའི་ཉིན་པར་བཟའ་བ་དང་བཅའ་བ་བཟང་པོ་རྙེད་ནས། དེའི་ལུས་མཐུ་དང་ལྡན་པ་དང་
[110a.2]ལས་སུ་རུང་བ་དང་སྤོང་ནུས་པར་གྱུར་ཏེ། དེས་བརྩོན་པ་དང་བསྒྲུབ་པ་དང་འབད་པས་ཉོན་མོངས་པ་ཐམས་ཅད་སྤངས་ནས། དགྲ་བཅོམ་པ་ཉིད་མངོན་སུམ་དུ་བྱས་ཏེ། དེ་དགྲ་བཅོམ་པ་ཁམས་གསུམ་པའི་འདོད་ཆགས་དང་བྲལ་བར་གྱུར་ནས། གསེར་དང་བོང་བར་
[110a.3]མཉམ་པ། ནམ་མཁའ་དང་ལག་མཐིལ་དུ་འདྲ་བའི་སེམས་དང་ལྡན་པ། ཙན་དན་སྦངས་པ་ལྟ་བུ་བསིལ་བར་གྱུར་པ། རིག་པས་སྒོ་ངའི་སྦུབས་བཅོམ་པ། རིག་པ་དང་མངོན་པར་ཤེས་པ་དང་། སོ་སོ་ཡང་དག་པར་རིག་པ་ཐོབ་པ། སྲིད་པའི་རྙེད་པ་དང་།
[110a.4]ཆགས་པ་དང་། བཀུར་སྟི་ལ་རྒྱབ་ཀྱིས་ཕྱོགས་པ། དབང་པོ་དང་ཉེ་དབང་དང་བཅས་པའི་ལྷ་རྣམས་ཀྱིས་མཆོད་ཅིང་རྗེད་པ་དང་གུས་པར་སྨྲ་བའི་གནས་སུ་གྱུར་ཏོ། །དེས་དགྲ་བཅོམ་པ་ཉིད་ཐོབ་ཀྱང་དེའི་སྔོན་གྱི་ལས་མངོན་དུ་སྨིན་ནས། དེའི་ཉིན་པར་དགེ་སློང་གཞན་ཞིག་
[110a.5]གིས། བཅོམ་ལྡན་འདས་ཀྱི་དྲི་གཙང་ཁང་ཕྱག་དར་བྱས་སོ། །དེ་ནས་དེ་ཕྱགས་མ་ཐོགས་ཏེ་སོང་ནས་བཅོམ་ལྡན་འདས་ཀྱི་དྲི་གཙང་ཁང་ཕྱག་དར་བྱའོ་སྙམ་པ་དང་། དེས་དགེ་སློང་གཞན་ཞིག་གིས་ཕྱག་དར་བྱས་པར་མཐོང་ནས་དེའི་བློ་སྐྱེས་པ། གལ་ཏེ་ན་དེང་བདག་
[110a.6]སྨྱུང་བར་འོང་སྲིད་དོ་སྙམ་ནས་སྔ་དྲོ་ཤམ་ཐབས་དང་ཆོས་གོས་གྱོན་ཏེ་ལྷུང་བཟེད་ཐོགས་ནས་མཉན་དུ་ཡོད་པར་བསོད་སྙོམས་ལ་སོང་ངོ་། །དེ་དེར་སོང་བ་ལས་ཅི་ཡང་མ་རྙེད་དེ། དེ་དེའི་ཉིན་པར་སྨྱུང་བར་འདུག་གོ། །དེ་ནས་ཕྱི་དེ་ཉིན་པར་ཡང་དགེ་སློང་གཞན་ཞིག་གིས་བཅོམ་
[110a.7]ལྡན་འདས་ཀྱི་དྲི་གཙང་ཁང་ཕྱག་དར་བྱས་སོ། །དེ་ནས་ཚེ་དང་ལྡན་པ་སྒུར་ཆུང་ཕྱགས་མ་ཐོགས་ཏེ་སོང་ནས། བཅོམ་ལྡན་འདས་ཀྱི་དྲི་གཙང་ཁང་ཕྱག་དར་བྱའོ་སྙམ་པ་དང་། དགེ་སློང་གཞན་ཞིག་གིས་ཕྱག་དར་བྱས་པར་དེས་མཐོང་ནས། དེའི་བློ་སྐྱེས་པ་བདག་དེང་དུ་
[110b]
[110b.1]ལན་གཉིས་སྨྱུང་བར་འོང་སྲིད་དོ་སྙམ་ནས་རང་གི་གནས་ཁང་དུ་སོང་ངོ་། །དེ་ནས་དེ་དེ་ན་འདུག་པ་ལས་ཁྱིམ་བདག་ཅིག་གིས་བཅོམ་ལྡན་འདས་ལ་སོགས་པ་དགེ་སློང་གི་དགེ་འདུན་ཁྱིམ་དུ་བཤོས་ལ་སྤྱན་དྲངས་སོ་ཞེས་ཐོས་ནས། དེའི་བློ་སྐྱེས་པ་བདག་ད་ཡང་བསོད་སྙོམས་
[110b.2]ལ་འགྲོ་ཅི་དགོས་ཀྱིས་ཁྱིམ་གང་དུ་སངས་རྒྱས་ལ་སོགས་པ་དགེ་སློང་གི་དགེ་འདུན་བཤོས་གསོལ་བ་དེ་ཁོ་ནར་སོང་ལ་ཟན་བཟའོ་སྙམ་ནས་གནས་ཁང་དུ་ཞུགས་ཏེ་སྐྱིལ་མོ་ཀྲུང་བཅས་ནས་བསམ་གཏན་ལྷུར་བྱེད་ཅིང་འདུག་གོ། །དེ་ནས་ཁྱིམ་བདག་དེ་ལ་དོན་ཆེད་ཆེན་པོ་ཞིག་བྱུང་
[110b.3]ནས་དེས་སྔ་རབ་ཏུ་སངས་རྒྱས་ལ་སོགས་པ་དགེ་སློང་གི་དགེ་འདུན་གདུགས་ཚོད་ལ་བསྐུལ་ནས། དེས་བཟའ་བ་དང་བཅའ་བ་གཙང་མ་བཟང་པོ་མང་པོས་ཚིམ་པར་བྱས་ནས་སོང་ངོ་། །བཅོམ་ལྡན་འདས་ནི་ཁྱིམ་དེའི་མི་རྣམས་ལ་ཆོས་ཀྱི་གཏམ་མཛད་ནས་གཙུག་ལག་ཁང་
[110b.4]དུ་ཆས་ཏེ་གཤེགས་སོ། །དེ་ནས་ཚེ་དང་ལྡན་པ་སྒུར་ཆུང་གིས་དྲོ་ལ་བབ་པར་ཤེས་ནས་ལངས་ཏེ་ཆོས་གོས་བགོས་ནས་ལྷུང་བཟེད་ཐོགས་ཏེ་སོང་བ་ལས། བཅོམ་ལྡན་འདས་ནི་ལམ་ལོགས་ཤིག་ནས་རྒྱལ་བུ་རྒྱལ་བྱེད་ཀྱི་ཚལ་དུ་གཤེགས་སོ། །དེ་ནི་ལམ་ལོགས་ཤིག་ནས་
[110b.5]ཁྱིམ་བདག་གི་ཁྱིམ་དེར་སོང་ངོ་། །དེ་ནས་དེ་དེར་སོང་ནས་སངས་རྒྱས་ལ་སོགས་པ་དགེ་སློང་གི་དགེ་འདུན་བཤོས་གསོལ་ཏེ་གཤེགས་པར་ཤེས་སོ། །དེ་ནས་དེ་དེའི་ཉིན་བར་དུ་ལན་གཉིས་སུ་སྨྱུང་བར་གྱུར་ཏོ། །དེའི་ཕྱི་དེ་ཉིན་པར་ཡང་དགེ་སློང་གཞན་ཞིག་གིས་བཅོམ་
[110b.6]ལྡན་འདས་ཀྱི་དྲི་གཙང་ཁང་ཕྱག་དར་བྱས་སོ། །དེ་ནས་ཚེ་དང་ལྡན་པ་སྒུར་ཆུང་ཕྱགས་མ་ཐོགས་ཏེ་སོང་ནས། བཅོམ་ལྡན་འདས་ཀྱི་དྲི་གཙང་ཁང་ཕྱག་དར་བྱའོ་སྙམ་པ་དང་། དེས་དགེ་སློང་གཞན་ཞིག་གིས་ཕྱགས་པར་མཐོང་ངོ་། །མཐོང་ནས་ཀྱང་དེ་འདི་སྙམ་དུ་སེམས་
[110b.7]ཏེ། བདག་དེང་དུ་ལན་གསུམ་སྨྱུང་བར་འོང་སྲིད་དོ་སྙམ་ནས་གནས་ཁང་དུ་སོང་ངོ་། །དེ་དེར་སོང་ནས་ཚེ་དང་ལྡན་པ་ཀུན་དགའ་བོས་ཚེ་དང་ལྡན་པ་སྒུར་ཆུང་ལན་གཉིས་སྨྱུང་བར་གྱུར་ཏོ་ཞེས་ཐོས་སོ། །ཐོས་ནས་ཀྱང་དེས་དེའི་དོན་དུ་སྦྱིན་བདག་ཅིག་ལ་བསྐུལ་ནས་ཚེ་དང་ལྡན་པ་
[111a]
[111a.1]སྒུར་ཆུང་གི་ཐད་དུ་སོང་སྟེ་སྨྲས་པ། ཚེ་དང་ལྡན་པ་སྒུར་ཆུང་ཁྱོད་དེང་ཁྱིམ་བདག་ཆེ་གེ་མོ་ཞིག་གི་ཁྱིམ་དུ་སོང་ལ་ཟན་ཟོ་ཤིག་ཅེས་བྱས་ནས། ཚེ་དང་ལྡན་པ་ཀུན་དགའ་བོ་ཉིད་ནི་ཆོས་གོས་བགོས་ཏེ་ལྷུང་བཟེད་ཐོགས་ནས་མཉན་དུ་ཡོད་པར་བསོད་སྙོམས་ལ་
[111a.2]སོང་ངོ་། །ཚེ་དང་ལྡན་པ་སྒུར་ཆུང་ཡང་ཐག་གི་ཟད་ཙམ་གྱི་བར་དུ་སྡོད་སྡོད་ནས་སྔ་དྲོ་ཆོས་གོས་བགོས་ཏེ་ལྷུང་བཟེད་ཐོགས་ནས་ཁྱིམ་བདག་དེའི་ཁྱིམ་དུ་སོང་ན། དེའི་སྔོན་གྱི་ལས་ཀྱི་རྣམ་པར་སྨིན་པས་ཁྱིམ་བདག་དེ་ལ་དོན་ཆེད་ཆེན་པོ་ཞིག་བྱུང་ནས་དེས་བརྗེད་དེ་ཁྱིམ་མི་སུ་ལ་ཡང་མ་བྱས་
[111a.3]པར་གྲོང་གཞན་ཞིག་ཏུ་སོང་ངོ་། །དེ་ནས་ཚེ་དང་ལྡན་པ་སྒུར་ཆུང་གིས་དེར་སོང་ཡང་མ་རྙེད་ནས་དེའི་ཉིན་བར་དུ་ལན་གསུམ་སྨྱུང་བར་གྱུར་ཏོ། །དེ་ནས་ཚེ་དང་ལྡན་པ་ཀུན་དགའ་བོས་དེའི་ཉིན་བར་དུ་ཚེ་དང་ལྡན་པ་སྒུར་ཆུང་ལན་གསུམ་དུ་སྨྱུང་བར་གྱུར་ཏོ་ཞེས་ཐོས་ནས་དེས་བསམས་
[111a.4]པ། བདག་ཉིད་ཀྱིས་བསོད་སྙོམས་བླངས་ལ་འདི་ལ་བསྟབས་པར་བྱའོ་སྙམ་ནས། ཚེ་དང་ལྡན་པ་སྒུར་ཆུང་ག་ལ་བ་དེར་སོང་སྟེ་ཕྱིན་ནས་ཚེ་དང་ལྡན་པ་སྒུར་ཆུང་ལ་འདི་སྐད་ཅེས་སྨྲས་སོ། །ཚེ་དང་ལྡན་པ་སྒུར་ཆུང་ཁྱོད་སྙིང་མ་ཆུང་ཤིག་དང་། བདག་གིས་སང་ཁྱོད་ལ་ཁ་ཟས་
[111a.5]བསྟབས་སོ་ཞེས་སྨྲས་ནས། དེ་གནས་ཁང་དུ་སོང་ངོ་། །དེ་ནས་དེ་ཕྱི་དེ་ཉིན་པར་ལྷུང་བཟེད་གཉིས་ཐོགས་ཏེ་མཉན་དུ་ཡོད་པར་སོང་ནས། དེས་བསོད་སྙོམས་ལྷུང་བཟེད་དོ་བསླངས་ཏེ་གཅིག་ནི་བདག་ཉིད་ཀྱིས་ཟོས་སོ། །གཅིག་ནི་དེའི་དོན་དུ་ཁྱེར་ནས་རྒྱལ་བུ་རྒྱལ་བྱེད་ཀྱི་ཚལ་
[111a.6]དུ་ཆས་ཏེ་སོང་བ་ལས་དེའི་སྔོན་གྱི་ལས་ཀྱི་རྣམ་པར་སྨིན་པས་ལམ་དུ་ལས་ལས་སྐྱེས་པའི་ཁྱི་དག་བྱུང་སྟེ། དེ་དག་གིས་ཁ་ཟས་དེ་ཕྲོགས་ནས་ཟོས་སོ། །དེ་ནས་དེས་བསམས་པ་ད་བདག་ཕྱིར་མཉན་དུ་ཡོད་པར་སོང་ན་ནི་དྲོ་ཡོལ་བར་འགྱུར་རོ་སྙམ་སྟེ་གཙུག་ལག་ཁང་དུ་སོང་ནས།
[111a.7]ཚེ་དང་ལྡན་པ་སྒུར་ཆུང་དེའི་ཉིན་བར་དུ་ལན་བཞི་སྨྱུང་བར་གྱུར་ཏོ། །དེ་ནས་ཚེ་དང་ལྡན་པ་མཽད་གལ་གྱི་བུས་ཚེ་དང་ལྡན་པ་སྒུར་ཆུང་ལན་བཞི་སྨྱུང་བར་གྱུར་ཏོ་ཞེས་ཐོས་ནས་དེས་བསམས་པ། བདག་གིས་སང་ནང་པར་དེ་ལ་ཁ་ཟས་བསྟབས་པར་བྱའོ་སྙམ་ནས་གནས་ཁང་དུ་སོང་ངོ་། །
[111b]
[111b.1]དེ་ནས་དེ་ཕྱི་དེ་ཉིན་པར་ལྷུང་བཟེད་གཉིས་ཐོགས་ཏེ། མཉན་དུ་ཡོད་པར་བསོད་སྙོམས་ལ་སོང་ནས་དེས་བསོད་སྙོམས་ལྷུང་བཟེད་དོ་བསླངས་ཏེ་གཅིག་ནི་བདག་ཉིད་ཀྱིས་ཟོས་སོ། །གཅིག་ནི་དེའི་དོན་དུ་ཁྱེར་ནས་རྒྱལ་བུ་རྒྱལ་བྱེད་ཀྱི་ཚལ་དུ་ཆས་ཏེ་སོང་བ་ལས། དེའི་
[111b.2]སྔོན་གྱི་ལས་ཀྱི་རྣམ་པར་སྨིན་པས་ལམ་དུ་ལས་ལས་སྐྱེས་པའི་བྱ་རོག་དག་བྱུང་ནས། དེ་དག་གིས་ཁ་ཟས་དེ་ཕྲོགས་ནས་ཟོས་སོ། །དེ་ནས་ཚེ་དང་ལྡན་པ་མཽད་གལ་གྱི་བུས་བསམས་པ། ད་བདག་མཉན་དུ་ཡོད་པར་སོང་ན་ནི་དྲོ་ཡོལ་བར་འགྱུར་རོ་སྙམ་སྟེ་གཙུག་ལག་ཁང་དུ་
[111b.3]སོང་ནས། ཚེ་དང་ལྡན་པ་སྒུར་ཆུང་དེའི་ཉིན་བར་དུ་ལན་ལྔ་སྨྱུང་བར་གྱུར་ཏོ། །དེ་ནས་ཚེ་དང་ལྡན་པ་ཤཱ་རིའི་བུས་ཚེ་དང་ལྡན་པ་སྒུར་ཆུང་ལན་ལྔ་སྨྱུང་བར་གྱུར་ཏོ་ཞེས་ཐོས་ནས་དེས་བསམས་པ། བདག་གིས་སང་ནང་པར་དེ་ལ་ཁ་ཟས་བསྟབས་པར་བྱའོ་སྙམ་ནས་ཚེ་དང་ལྡན་པ་
[111b.4]སྒུར་ཆུང་གི་ཐད་དུ་སོང་སྟེ་སྨྲས་པ། ཚེ་དང་ལྡན་པ་སྒུར་ཆུང་ཁྱོད་སྙིང་མ་ཆུང་ཅིག་དང་བདག་གིས་སང་ནང་པར་ཁྱོད་ལ་ཁ་ཟས་བསྟབས་སོ་ཞེས་སྨྲས་ནས་དེ་གནས་ཁང་དུ་སོང་ངོ་། །དེ་ནས་དེ་ཕྱི་དེ་ཉིན་པར་ལྷུང་བཟེད་གཉིས་ཐོགས་ཏེ་མཉན་དུ་ཡོད་པར་སོང་ནས་དེས་བསོད་སྙོམས་
[111b.5]ལྷུང་བཟེད་དོ་བསླངས་ཏེ་གཅིག་ནི་བདག་ཉིད་ཀྱིས་ཟོས་སོ། །གཅིག་ནི་དེའི་དོན་དུ་ཁྱེར་ནས་རྒྱལ་བུ་རྒྱལ་བྱེད་ཀྱི་ཚལ་དུ་ཆས་ཏེ་སོང་བ་ལས། དེའི་སྔོན་གྱི་ལས་ཀྱི་རྣམ་པར་སྨིན་པས་དེ་འགྲོ་བ་ན་མི་མ་ཡིན་པ་རྣམས་ཀྱིས་ཁ་ཟས་དེ་མི་སྣང་བར་བྱས་སོ། །དེ་ནས་དེས་བསམས་པ་
[111b.6]ད་བདག་ཕྱིར་མཉན་དུ་ཡོད་པར་སོང་ན་ནི་དྲོ་ཡོལ་བར་འགྱུར་རོ་སྙམ་སྟེ། ཅང་མི་ཟེར་བར་འདུག་ནས། ཚེ་དང་ལྡན་པ་སྒུར་ཆུང་དེའི་ཉིན་པར་དུ་ལན་དྲུག་སྨྱུང་བར་གྱུར་ཏོ། །དེ་ནས་ཚེ་དང་ལྡན་པ་ཤཱ་རིའི་བུས་བསམས་པ། བདག་གིས་སང་ནང་པར་དེ་ལ་ཁ་ཟས་བསྟབས་པར་བྱའོ་
[111b.7]སྙམ་ནས། ཚེ་དང་ལྡན་པ་སྒུར་ཆུང་གི་ཐད་དུ་སོང་སྟེ་སྨྲས་པ། ཚེ་དང་ལྡན་པ་སྒུར་ཆུང་ཁྱོད་སྙིང་མ་ཆུང་ཤིག་དང་བདག་གིས་སང་ཁྱོད་ལ་ཁ་ཟས་བསྟབས་སོ་ཞེས་སྨྲས་ནས་དེ་གནས་ཁང་དུ་སོང་ངོ་། །དེ་ནས་དེའི་ཕྱི་དེ་ཉིན་པར་ལྷུང་བཟེད་གཉིས་ཐོགས་ཏེ་མཉན་དུ་ཡོད་པར་སོང་
[112a]
[112a.1]ནས། དེས་བསོད་སྙོམས་ལྷུང་བཟེད་དོ་བསླངས་ཏེ་གཅིག་ནི་བདག་ཉིད་ཀྱིས་ཟོས་སོ། །གཅིག་ནི་ཁྱེར་ཏེ་ཚེ་དང་ལྡན་པ་སྒུར་ཆུང་གི་གནས་ཁང་དུ་སོང་བ་ལས། ཚེ་དང་ལྡན་པ་སྒུར་ཆུང་གི་སྔོན་གྱི་ལས་ཀྱི་རྣམ་པར་སྨིན་པས་གནས་ཁང་གི་སྒོ་ཡང་མེད་སྐར་
[112a.2]ཁུང་ཡང་མེད་པར་གྱུར་ཏོ། །དེ་ནས་ཚེ་དང་ལྡན་པ་ཤཱ་རིའི་བུས་རྫུ་འཕྲུལ་གྱིས་སྒོ་སྤྲུལ་ཏེ་ནང་དུ་སོང་ནས་དེ་ལ་སྨྲས་པ། ཚེ་དང་ལྡན་པ་སྒུར་ཆུང་ལོངས་ལ་ཁ་གདོང་ཁྲུས་ཤིག །དེས་སྨྲས་པ་བདག་གིས་ཁ་གདོང་བཀྲུས་ཟིན་ནོ། །དེ་ནས་དེ་ཐོས་མ་ཐག་ཏུ་ཚེ་དང་ལྡན་པ་ཤཱ་
[112a.3]རིའི་བུས་ལྷུང་བཟེད་དང་ཆུ་ཚགས་ཕྱོགས་གཅིག་ཏུ་བཞག་ནས། ཚེ་དང་ལྡན་པ་སྒུར་ཆུང་གི་ལག་ཏུ་ཆུ་བཏང་སྟེ། དེའི་མདུན་དུ་ལྷུང་བཟེད་ཀྱི་ཞབས་རྟེན་བཞག་ནས་ལྷུང་བཟེད་བླང་ཞེས་བྱས་པ་དང་། ལྷུང་བཟེད་དེ་ཐུར་དུ་གསེར་གྱི་ས་གཞིའི་སྟེང་དུ་སོང་ནས། ཚེ་དང་ལྡན་
[112a.4]པ་ཤཱ་རིའི་བུས་ལག་པ་གླང་པོ་ཆེའི་སྣ་ལྟ་བུ་བརྐྱང་སྟེ་ལྷུང་བཟེད་དེ་ཕྱུང་ནས་ལག་པ་གཡོན་པའི་སྟེང་དུ་བཞག་སྟེ། ལག་པ་གཡས་པས་ལེགས་པར་བྱིན་གྱིས་བརླབས་ནས་སྨྲས་པ། ཚེ་དང་ལྡན་པ་སྒུར་ཆུང་ད་ཟོ་ཤིག །དེ་ནས་དེས་ལྷུང་བཟེད་དེའི་ནང་ནས་ཁམ་གཅིག་བླངས་ཏེ་
[112a.5]བཟའ་ཞེས་བྱས་ན། དེའི་ཁམ་གཅིག་པོ་དེ་ཡང་མི་སྣང་བར་གྱུར་ཏོ། །དེ་བཞིན་དུ་ཁམ་བླངས་སོ་ཅོག་མི་སྣང་བར་གྱུར་ཏོ། །དེ་ནས་ཚེ་དང་ལྡན་པ་ཤཱ་རིའི་བུས་བདག་ཉིད་ཀྱི་ལག་པ་གཡས་པས་ཁམ་གཅིག་བླངས་ཏེ་ཁར་གཞུག་ཅེས་བྱས་ན། དེའི་ཁ་མེད་པར་བྱིལ་པོར་
[112a.6]གྱུར་ཏོ། །དེ་ནས་ཚེ་དང་ལྡན་པ་ཤཱ་རིའི་བུའི་རྫུ་འཕྲུལ་གྱི་སྟོབས་ཅི་ཡོད་པ་བྱས་ཀྱང་དེའི་ཁ་གདོད་མ་ནུས་ཏེ། དེའི་སྐབས་སུ་དྲོ་ཡོལ་བར་གྱུར་ཏོ། །དྲོ་ཡོལ་བའི་འོག་ཏུ་ནི་དེའི་ཁ་དོད་པར་གྱུར་ཏེ། སྔ་མཁོ་བཞིན་དུ་གྱུར་ཏོ། །དེ་ནས་ཚེ་དང་ལྡན་པ་ཤཱ་རིའི་བུས་དྲིས་པ་ཚེ་དང་
[112a.7]ལྡན་པ་སྒུར་ཆུང་ཁྱོད་ལ་ནང་ན་ཅི་མི་བཟོད་པར་གནོད། དེས་སྨྲས་པ། བཙུན་པ་ཤཱ་རིའི་བུ་བདག་སྐོམ་གྱིས་གདུངས་ཀྱིས་ཆུ་བྱིན་ཅིག་དང་བཏུང་ངོ་། །དེ་ནས་ཚེ་དང་ལྡན་པ་ཤཱ་རིའི་བུས་ལྷུང་བཟེད་ཆུས་བཀང་སྟེ་བྱིན་ནས། ཚེ་དང་ལྡན་པ་སྒུར་ཆུང་གིས་བླངས་ཏེ་ཁར་
[112b]
[112b.1]གཏུགས་ནས་བཏུང་ཞེས་བྱས་ནས། དེའི་ལས་ལས་སྐྱེས་པའི་མི་དག་བྱུང་ནས་ལྷུང་བཟེད་དེའི་ནང་དུ་ཐལ་བ་བླུགས་སོ། །དེ་ནས་དེས་མཐོང་ནས་བདག་གིས་མྱོང་བར་འགྱུར་བར་ངེས་པའི་ལས་འདི་དག་བྱས་ཤིང་བསགས་ཏེ། དེ་དག་ནི་གདོན་མི་ཟ་བར་འོང་བ་དང་རྐྱེན་གྲུབ་
[112b.2]པ་དང་ལྡན་པ་དང་ཚོགས་བསགས་པ་ཡིན་པས་ལས་དེ་དག་ནི་གཞན་དག་གི་ཕུང་པོ་དང་ཁམས་དང་སྐྱེ་མཆེད་རྣམས་ལ་རྣམ་པར་སྨིན་ཅིང་མྱོང་བར་མི་འགྱུར་རོ་སྙམ་ནས་ཐལ་སྐྱོ་དེ་ཉིད་འཐུངས་ཏེ། གཞི་དེ་ཉིད་ཀྱིས་འབར་བ་དང་ལམ་མེར་འདུག་པ་དང་ཆར་འབབ་པ་དང་གློག་འགྱུ་
[112b.3]བའི་ཆོ་འཕྲུལ་རྣམས་བསྟན་ནས་ཡོངས་སུ་མྱ་ངན་ལས་འདས་སོ། །དེ་ནས་ཚངས་པ་མཚུངས་པར་སྤྱོད་པ་རྣམས་ཀྱིས་དེའི་སྐུ་གདུང་ལ་མཆོད་པ་བྱས་ཏེ། སྐུ་གདུང་གི་མཆོད་རྟེན་བརྩིགས་ནས་བདུག་པ་དང་ཕྱེ་མ་དང་སྤོས་དང་མེ་ཏོག་གིས་མཆོད་པ་བྱས་སོ། །དེ་ནས་དགེ་སློང་
[112b.4]རྣམས་ཀྱིས་བཅོམ་ལྡན་འདས་ལ་ཞུས་པ། བཙུན་པ་ཚེ་དང་ལྡན་པ་སྒུར་ཆུང་གིས་ལས་ཅི་བགྱིས་ན་ལས་དེའི་རྣམ་པར་སྨིན་པས་ལྟོགས་ཏེ་ཤིན་ཏུ་ཕོངས་ནས་དགུང་བདུན་གྱི་བར་དུ་སྨྱུང་བར་གྱུར་ལ་ཐལ་སྐྱོ་འཚལ་ནས་ཡོངས་སུ་མྱ་ངན་ལས་འདས་ལགས། བཅོམ་ལྡན་འདས་
[112b.5]ཀྱིས་བཀའ་སྩལ་པ། དགེ་སློང་དག་འདི་ཉིད་ཀྱིས་སྔོན་ཚེ་རབས་གཞན་དག་ཏུ་ཚོགས་རྙེད་ཅིང་རྐྱེན་གྲུབ་པ་དང་ལྡན་ཏེ། དབའ་རྒལ་བཞིན་དུ་འབྱུང་ལ་གདོན་མི་ཟ་བར་འོང་བའི་ལས་དེ་དག་བྱས་ཤིང་བསགས་པས་ན་དེ་ཉིད་ཀྱིས་ལས་བྱས་ཤིང་བསགས་པ་དེ་དག་གཞན་སུ་ཞིག་གིས་
[112b.6]ཉམས་སུ་མྱོང་བར་འགྱུར་ཏེ། དགེ་སློང་དག་ལས་བྱས་ཤིང་བསགས་པ་རྣམས་ནི་ཕྱི་རོལ་གྱི་སའི་ཁམས་ལ་རྣམ་པར་སྨིན་པར་མི་འགྱུར། ཆུའི་ཁམས་དང་མེའི་ཁམས་དང་རླུང་གི་ཁམས་ལ་རྣམ་པར་སྨིན་པར་མི་འགྱུར་ཏེ། ལས་དགེ་བ་དང་མི་དགེ་བ་བྱས་ཤིང་བསགས་པ་
[112b.7]རྣམས་ནི་ཟིན་པའི་ཕུང་པོ་དང་ཁམས་དང་སྐྱེ་མཆེད་རྣམས་འབའ་ཞིག་ལ་རྣམ་པར་སྨིན་པར་འགྱུར་རོ། །ལུས་ཅན་དག་གི་ལས་རྣམས་ནི། །བསྐལ་པ་བརྒྱར་ཡང་ཆུད་མི་ཟ། །ཚོགས་ཤིང་དུས་ལ་བབ་པ་ན། །འབྲས་བུ་ཉིད་དུ་སྨིན་པར་འགྱུར། །དགེ་སློང་དག་སྔོན་བྱུང་བ་འདས་
[113a]
[113a.1]པའི་དུས་ན་རི་ཁྲོད་ཀྱི་གྲོང་ཞིག་ན་ཁྱིམ་བདག་ཕྱུག་ཅིང་ནོར་མང་ལ་ལོངས་སྤྱོད་ཆེ་བ་ཡོངས་སུ་འཛིན་པ་ཡངས་ཤིང་རྒྱ་ཆེ་བ། རྣམ་ཐོས་ཀྱི་བུའི་ནོར་དང་ལྡན་པ། རྣམ་ཐོས་ཀྱི་བུའི་ནོར་དང་འགྲན་པ་ཞིག་གནས་པ་དེས་ཐབས་ཟླར་བབ་པ་ལས་ཆུང་མ་བླངས་
[113a.2]ནས། དེ་དེ་དང་ལྷན་ཅིག་ཏུ་རྩེ་ཞིང་དགའ་ལ་དགའ་མགུར་སྤྱོད་པ་ལས་ཕྱི་ཞིག་ན་དེའི་ཆུང་མ་ལ་བུ་ཆགས་ནས། དེ་ཟླ་བ་དགུའམ་བཅུ་ལོན་པ་དང་ཁྱེའུ་ཞིག་བཙས་ཏེ། དེའི་བཙས་སྟོན་རྒྱས་པར་བྱས་ནས་རིགས་དང་འཐུན་པར་མིང་བཏགས་ཏེ། འོ་མ་དང་ཞོ་དང་མར་
[113a.3]དང་ཞུན་མར་དང་མར་གྱི་ཉིང་གུས་བསྐྱེད་བསྲིངས་སོ། །དེ་ནས་དེ་གང་གི་ཚེ་ཆེར་སྐྱེས་པ་དེའི་ཚེ་ཡི་གེ་དང་ཁོང་རྩིས་དང་ཤོད་དགོད་དང་ལག་རྩིས་དང་དབྱུང་བ་དང་སྦ་བ་དང་དགྲམ་པ་དང་གོས་བརྟག་པ་དང་ནོར་བུ་བརྟག་པ་དང་རིན་པོ་ཆེ་བརྟག་པ་དང་སྤོས་བརྟག་པ་དང་སྨན་
[113a.4]བརྟག་པ་དང་གླང་པོ་ཆེ་བརྟག་པ་དང་རྟ་བརྟག་པ་དང་གོ་མཚོན་བརྟག་པ་བསླབས་ཏེ། ཡི་གེ་མཁས་པ་དང་ཀློག་མཁས་པ་དང་མཛངས་པ་དང་བྱ་བ་ལ་གསལ་བ་དང་ཡིད་གཞུངས་པ་དང་བརྟག་པ་རྣམ་པ་བརྒྱད་ལ་བྱང་བར་གྱུར་ཏོ། །ཁྱིམ་བདག་དེ་ནི་སྦྱིན་པ་ལ་དགའ་བ་
[113a.5]ཞིག་སྟེ། ཁྱིམ་དེ་ན་དགེ་སྦྱོང་དང་བྲམ་ཟེ་དང་སྤྱོད་པ་པ་དང་ཀུན་དུ་རྒྱུ་དང་སྡུག་ཅིང་ཕོངས་པ་དང་བཀྲེན་པ་རྣམས་ལ་སྦྱིན་པ་དག་སྦྱིན་ཞིང་བསོད་ནམས་དག་བྱེད་དོ། །དེ་ནས་ཕྱི་ཞིག་ན་ཁྱིམ་བདག་དེ་ཤི་ནས་དེ་ཤི་བའི་འོག་ཏུ་ཡང་བུད་མེད་དེ་ཁྱིམ་ཐབ་ལ་གདུང་བས་སྔ་མའི་
[113a.6]ལུགས་བཞིན་དུ་སྦྱིན་པ་བྱེད་པའི་རྒྱུན་མ་བཅད་དོ། །དེ་ནས་བུ་དེས་སྨྲས་པ། ཡུམ་ཁྱིམ་འདི་མ་གཞིག་ཅིག །ཁྱིམ་འདི་ཇི་ལྟར་བདག་གི་ཕས་བཙུགས་པ་བཞིན་དུ་བདག་གིས་གཟུགས་མི་ནུས་སོ་ཞེས་བྱས་ཏེ་དེ་ལྟར་དེ་ལན་མང་དུ་བཀག་ཀྱང་མ་ཕན་ཏོ། །དེ་ནས་ཁྱེའུས་
[113a.7]བསམས་པ། འདི་ནི་བདག་གིས་ཇི་ལྟར་བྱས་ཀྱང་མི་ཕན་གྱིས་བདག་གིས་འདི་གསད་དོ་སྙམ་ནས། དེ་ནས་མ་དེ་ཁང་ཕུགས་སུ་བཅུག་སྟེ་སྒོ་བཅད་ནས་ཟན་དང་སྐོམ་བཅད་དོ། །དེ་ནས་དེས་སྨྲས་པ། བུ་བདག་ཐོང་ཤིག་དང་ཕྱིན་ཅད་སུ་ལ་ཡང་སྦྱིན་པར་མི་བྱེད་ལ་
[113b]
[113b.1]ཕྱིན་ཅད་ཁྱིམ་འདིར་ཡང་མི་འདུག་གོ། །ཁྱེའུས་སྨྲས་པ། བདག་གིས་ཁྱོད་གསོན་བཞིན་དུ་གཏོང་མི་ནུས་སོ་ཞེས་སྨྲས་ནས། དེས་མ་དེ་ཁང་ཕུགས་དེ་ཉིད་དུ་ཞག་བདུན་གྱི་བར་དུ་ཟན་བཅད་དེ་བསྲུངས་སོ། །དེ་ནས་དེའི་ཁྱིམ་མིས་ཉེ་དུ་གཞན་དག་ལ་བསྙད་ནས་
[113b.2]ཉེ་དུ་རྣམས་ལྷགས་ཏེ་དེ་བཏང་ངོ་། །དེ་ཁང་ཕུགས་དེ་ནས་སྲོག་རྒྱུ་ཙམ་སྟེ་བྱུང་ནས་དེས་བུ་ལ་ཆུ་བསླངས་ན་ཁྱེའུ་དེས་དེ་ལ་ཐལ་སྐྱོ་བྱིན་ཏེ། ཐབས་འདིས་ན་འདི་འཆི་བར་འགྱུར་གྲང་སྙམ་མོ། །དེ་ནས་དེ་ལུས་ཉམ་ཆུང་བས་ཐལ་སྐྱོ་དེ་འཐུངས་པ་དང་གཞི་དེ་ཉིད་ཀྱིས་ཤིའོ། །
[113b.3]དགེ་སློང་དག་ཇི་སྙམ་དུ་སེམས། དེའི་ཚེ་ཁྱེའུར་གྱུར་པ་གང་ཡིན་པ་དེ་ནི་སྒུར་ཆུང་འདི་ཉིད་ཡིན་ཏེ། དེས་མ་ལྟོགས་སུ་བོར་ནས་ཐལ་སྐྱོས་བསད་པའི་ལས་དེའི་རྣམ་པར་སྨིན་པས། ལོ་སྟོང་ཕྲག་དུ་མའི་བར་དུ་སེམས་ཅན་དམྱལ་བ་རྣམས་སུ་བཙོས་སོ། །དེ་དེ་ནས་ཐར་
[113b.4]ནས་ཀྱང་གང་དང་གང་དུ་སྐྱེས་པ་དེ་དང་དེར་ལྟོགས་ནས་ཐལ་སྐྱོ་འཐུངས་ཏེ་ཤིའོ། །ད་ལྟ་སྲིད་པ་ཐ་མ་དང་ལུས་ཐ་མ་དང་གནས་ཐ་མར་གྱུར་ཏེ། དགྲ་བཅོམ་པ་ཉིད་ཐོབ་པའི་བར་དུ་ཡང་ལྟོགས་ནས་ཐལ་སྐྱོ་འཐུངས་ཏེ་དེ་ཁོ་ནའི་རྐྱེན་གྱིས་ཡོངས་སུ་མྱ་ངན་ལས་འདས་སོ། །འདི་ཉིད་
[113b.5]ཀྱིས་ལས་གཞན་ཡང་བྱས་པ་ཡོད་དེ། ལས་དེའི་རྣམ་པར་སྨིན་པས་ལྟོགས་ནས་སྡུག་བསྔལ་ཆེན་པོ་རྙེད་དེ། དགེ་སློང་དག་སྔོན་བྱུང་བ་འདས་པའི་དུས་ན་བསྐལ་པ་བཟང་པོ་འདི་ཉིད་ལ་སྐྱེ་དགུའི་ཚེ་ལོ་ཉི་ཁྲི་ཐུབ་པ་ན། ཡང་དག་པར་རྫོགས་པའི་སངས་རྒྱས་རིག་པ་དང་ཞབས་
[113b.6]སུ་ལྡན་པ། བདེ་བར་གཤེགས་པ། འཇིག་རྟེན་མཁྱེན་པ། སྐྱེས་བུ་གདུལ་བྱའི་ཁ་ལོ་སྒྱུར་བ། བླ་ན་མེད་པ། ལྷ་དང་མི་རྣམས་ཀྱི་སྟོན་པ་སངས་རྒྱས་བཅོམ་ལྡན་འདས་འོད་སྲུང་ཞེས་བྱ་བ་འཇིག་རྟེན་དུ་བྱུང་སྟེ། དེའི་ཚེ་བཱ་རཱ་ཎ་སཱི་ན་ཁྱིམ་བདག་ཅིག་གནས་པ་ལས་
[113b.7]ཕྱི་ཞིག་ན་དེའི་ཆུང་མ་ལ་བུ་ཆགས་ནས། དེ་ཟླ་བ་དགུའམ་བཅུ་ལོན་པ་དང་བུ་གཉིས་མཚེ་མར་བྱུང་སྟེ། དེ་གཉིས་ཀྱི་བཙས་སྟོན་རྒྱས་པར་བྱས་ནས་རིགས་དང་འཐུན་པར་མིང་བཏགས་ཏེ། འོ་མ་དང་ཞོ་དང་མར་དང་ཞུན་མར་དང་མར་གྱི་ཉིང་གུས་བསྐྱེད་བསྲིངས་ནས་གང་གི་ཚེ་དེ་
[114a]
[114a.1]གཉིས་ཆེར་སྐྱེས་པ་དེའི་ཚེ་ཡང་དག་པར་རྫོགས་པའི་སངས་རྒྱས་འོད་སྲུང་གི་བསྟན་པ་ལ་དད་པ་རྙེད་ནས་དེ་གཉིས་ཀྱི་ཕ་མ་ལ་གསོལ་ཏེ། རབ་ཏུ་བྱུང་ནས་དེ་གཉིས་ཀྱིས་སྡེ་སྣོད་གསུམ་བསླབས་ཏེ་རིག་པ་དང་གྲོལ་བའི་སྤོབས་པ་དང་ལྡན་པའི་ཆོས་སྨྲ་བར་
[114a.2]གྱུར་ཏེ། དེ་གཉིས་གང་དང་གང་དུ་གནས་པ་དེ་དང་དེར་ལྷན་ཅིག་ན་གནས་སོ། །དེ་གཉིས་ལས་གཅིག་ནི་གོས་དང་ཟས་དང་མལ་ཆ་དང་སྟན་དང་ནད་གསོས་དང་སྨན་ཟོང་རྣམས་རྙེད་པ་དང་ལྡན་པར་གྱུར་ཏེ། དེས་བསམས་པ་མ་ལ་བདག་ནི་ཚེགས་ཆུང་ངུས་ཡོ་བྱད་ཐམས་ཅད་
[114a.3]འབྱོར་ལ་ཚངས་པ་མཚུངས་པར་སྤྱོད་པ་རྣམས་ནི་ཡོ་བྱད་མེད་པས་ཕོངས་ཀྱིས། བདག་གིས་ཆོས་བཞིན་དུ་དགེ་འདུན་གྱི་ཞལ་ཏ་བྱ་གོར་མ་ཆག་སྙམ་ནས་ཆོས་བཞིན་དུ་དགེ་འདུན་གྱི་ཞལ་ཏ་བྱེད་པ་ལ་ཞུགས་ཏེ། གོས་དང་ཟས་དང་མལ་ཆ་དང་སྟན་དང་ནད་གསོས་དང་
[114a.4]སྨན་ཟོང་རྣམས་དང་ཡོ་བྱད་ཐམས་ཅད་སྦྱོར་བར་བྱེད་དོ། །དེ་ནས་དེའི་ཕུ་ནུ་ཟླ་བོ་དེས་བསམས་པ། བདག་གི་ཕུ་ནུ་འདི་ནི་བདག་གི་གྲོགས་ཡིན་ཏེ་འདི་ནི་བདག་དང་དགེ་བའི་ཕྱོགས་ཀྱིས་འབྲེལ་པ་ཡིན་ན། འདི་ནི་དགེ་འདུན་གྱི་ཞལ་ཏའི་ལས་བྱེད་འདོད་པས་འདི་ནི་བདག་གི་
[114a.5]དགེ་བའི་ཕྱོགས་ཀྱི་བར་ཆད་བྱེད་དོ་སྙམ་ནས་དེ་ལ་སྨྲས་པ། ཕུ་ནུ་ཁྱོད་དགེ་བའི་ཕྱོགས་སྤངས་ཏེ། དགེ་འདུན་གྱི་ཞལ་ཏའི་ལས་འདོད་པར་མ་བྱེད་ཅིག །དེ་ནས་དེས་ཕུ་ནུ་ཟླ་བོ་དེ་ལ་སྨྲས་པ། བདག་ནི་ཚེགས་ཆུང་ངུས་ཡོ་བྱད་ཐམས་ཅད་འབྱོར་པ་དང་ལྡན་ལ་ཚངས་པ་མཚུངས་
[114a.6]པར་སྤྱོད་པ་རྣམས་ནི་ཡོ་བྱད་མེད་པས་ཕོངས་ནས། ངས་འདི་དག་གི་དོན་བྱ་བར་ཅི་སྟེ་མི་འདོད་ཅེས་ཟེར་ནས་དེ་དེས་ལན་དུ་མ་བཀག་ཀྱང་མ་ཕན་ནས། དེའི་བློ་སྐྱེས་པ་འདི་ནི་ཇི་སྲིད་དུ་འདུག་པའི་བར་དུ་བདག་གིས་མི་ཟློགས་ཀྱིས། མ་ལ་བདག་གིས་ཐབས་དང་སྦྱར་ལ་
[114a.7]ཡུལ་གཞན་དུ་ཁྲིད་དེ་དགག་པར་བྱའོ་སྙམ་དུ་བསམས་ནས། ཕུ་ནུ་ཟླ་བོ་དེས་ཐབས་དང་སྦྱར་ཏེ་ཡུལ་གཞན་དུ་ཁྲིད་ནས་དེ་ཉིད་ན་འཁོད་དོ། །དེ་ནས་དེ་དེ་ན་འདུག་པས་དགེ་སློང་རྣམས་ཀྱི་རྙེད་པའི་བར་ཆད་དུ་གྱུར་ཏོ། །དེས་ཀྱང་དེ་ན་འདུག་བཞིན་དུ་དགེ་སློང་རྣམས་ཇི་
[114b]
[114b.1]ལྟར་ཡོ་བྱད་ཀྱིས་ཕོངས་པར་གྱུར་པ་ཐོས་ནས་ཐོས་མ་ཐག་ཏུ་ཕུ་ནུ་ཟླ་བོ་ལ་བཟླུགས་ཏེ་བདག་དེར་སོང་ལ་དགེ་སློང་རྣམས་ཡོ་བྱད་ཀྱིས་མི་ཕོངས་པར་བྱའོ་ཞེས་བྱས་སོ། །དེ་ནས་དེའི་ཕུ་ནུ་ཟླ་བོས་སྨྲས་པ། ཕུ་ནུ་དགེ་སློང་དེ་དག་ནི་རྟག་པར་ཡི་དགས་བཞིན་དུ་གཞན་འབའ་ཞིག་ལ་
[114b.2]རེ་ཞིང་འཁོད་ན་ཁྱོད་དགེ་བའི་ཕྱོགས་སྤངས་ཏེ། ཡང་དེར་འགྲོའམ་ཕུ་ནུ་ཟླ་བོས་སྨྲས་པ། ཁྱོད་ཀྱིས་ངག་རྩུབ་པོ་སྨྲས་ཀྱིས་ཉེས་པ་ལ་ཉེས་སོ་ཞེས་བཤགས་པར་གྱིས་ཤིག །ལས་འདིའི་འབྲས་བུ་མི་སྡུག་པ་རྙེད་པར་གྱུར་ཏ་རེ་ཞེས་བྱས་ནས་དེ་ཡང་འགྱོད་པ་ཆེན་པོ་སྐྱེས་ཏེ།
[114b.3]དེས་ཚེ་གཅིག་ཏུ་ཚངས་པར་སྤྱོད་པ་སྤྱད་ནས་འཆི་ཀར་སྨོན་ལམ་བཏབ་པ་དེ་ལྟར་བདག་གིས་ཚངས་པ་མཚུངས་པར་སྤྱོད་པ་རྣམས་ལ་ཚིག་རྩུབ་པོ་ཡང་སྨྲས། རྙེད་པའི་བར་ཆད་ཀྱང་བྱས་པའི་ལས་དེའི་འབྲས་བུ་བདག་གིས་མྱོང་བར་མ་གྱུར་ཅིག །འདི་ལྟར་བདག་གིས་ཡང་
[114b.4]དག་པར་རྫོགས་པའི་སངས་རྒྱས་འོད་སྲུང་གི་བསྟན་པ་ལ་ཚངས་པར་སྤྱོད་པ་སྤྱད་ཀྱང་ཡོན་ཏན་ཅི་ཡང་མ་ཐོབ་ཀྱིས་ཡང་དག་པར་རྫོགས་པའི་སངས་རྒྱས་འོད་སྲུང་གིས་བྲམ་ཟེའི་ཁྱེའུ་བླ་མ་ལུང་བསྟན་པ་གང་ཡིན་པའི་སངས་རྒྱས་བཅོམ་ལྡན་འདས་དེ་བདག་གིས་མཉེས་པར་བྱེད་པར་
[114b.5]གྱུར་ཅིག །མི་མཉེས་པར་བྱེད་པར་མ་གྱུར་ཅིག །དེ་ཁོ་ནའི་བསྟན་པ་ལ་རབ་ཏུ་བྱུང་ནས་ཉོན་མོངས་པ་ཐམས་ཅད་སྤངས་ཏེ་དགྲ་བཅོམ་པ་ཉིད་མངོན་སུམ་དུ་བྱེད་པར་གྱུར་ཅིག་ཅེས་བྱས་སོ། །དགེ་སློང་དག་ཇི་སྙམ་དུ་སེམས། དེའི་ཚེ་དགེ་སློང་དུ་གྱུར་པ་གང་ཡིན་པ་དེ་ནི་
[114b.6]སྒུར་ཆུང་འདི་ཉིད་ཡིན་ཏེ། དེས་དེར་ཚངས་པ་མཚུངས་པར་སྤྱོད་པ་རྣམས་ལ་ཚིག་རྩུབ་པོ་སྨྲས་པ་དང་རྙེད་པའི་བར་ཆད་བྱས་པའི་ལས་དེའི་རྣམ་པར་སྨིན་པས་ཚེ་རབས་ལྔ་བརྒྱར་ཡི་དགས་སུ་སྐྱེས་སོ། །དེ་ནས་ཤི་འཕོས་ནས་ཀྱང་ལས་དེ་ཁོ་ནའི་རྣམ་པར་སྨིན་པས་གང་དང་
[114b.7]གང་དུ་སྐྱེས་པ་དེ་དང་དེར་ལྟོགས་ཏེ་ཤིའོ། །ད་ལྟར་དགྲ་བཅོམ་པ་ཉིད་ཐོབ་པའི་བར་དུ་ཡང་ལས་དེ་ཁོ་ནའི་རྣམ་པར་སྨིན་པས་ལྟོགས་ཏེ་ཡོངས་སུ་མྱ་ངན་ལས་འདས་སོ། །དེས་དེར་སྨོན་ལམ་བཏབ་སྟེ། ཡང་དག་པར་རྫོགས་པའི་སངས་རྒྱས་འོད་སྲུང་གིས་བྲམ་ཟེའི་ཁྱེའུ་
[115a]
[115a.1]བླ་མ་ལུང་བསྟན་པ་གང་ཡིན་པའི་སངས་རྒྱས་བཅོམ་ལྡན་འདས་དེ་བདག་གིས་མཉེས་པར་བྱེད་པར་གྱུར་ཅིག །མི་མཉེས་པར་བྱེད་པར་མ་གྱུར་ཅིག།།དེ་ཁོ་ནའི་བསྟན་པ་ལ་རབ་ཏུ་བྱུང་ནས་ཉོན་མོངས་པ་ཐམས་ཅད་སྤངས་ཏེ། དགྲ་བཅོམ་པ་ཉིད་མངོན་སུམ་དུ་
[115a.2]བྱེད་པར་གྱུར་ཅིག་ཅེས་བྱས་པ་དེས་ནི། དགེ་སློང་དག་ང་ཡང་དག་པར་རྫོགས་པའི་སངས་རྒྱས་འོད་སྲུང་དང་ཤིན་ཏུ་མཉམ་པ་དང་། ཤུགས་མཉམ་པ་དང་། མཛད་པ་མཉམ་པ་དང་། ཐབས་མཉམ་པ་བརྙེས་ནས་འདིས་ང་མཉེས་པར་བྱས་ཏེ། མི་མཉེས་པར་མ་བྱས་ལ་
[115a.3]ང་ཉིད་ཀྱི་བསྟན་པ་ལ་རབ་ཏུ་བྱུང་ནས་ཉོན་མོངས་པ་ཐམས་ཅད་སྤངས་ཏེ་དགྲ་བཅོམ་པ་ཉིད་མངོན་སུམ་དུ་བྱས་སོ།། །།